/*program name:-wap in c to accept book ditails orf 'n' books as book_titile,author,publisher and cost*/

#include<stdio.h>
#include<conio.h>
#include<string.h>
struct book
{
 int bno,cost;
 char name[20],pub[20],auth[20];
 };
void main()
{
  struct book p[50];
  int n,i,f,ch;
  char pub[20],au[20];
  clrscr();
  printf("Enter the limit of structure array=");
  scanf("%d",&n);
  for(i=0;i<n;i++)
  {
    printf("Enter the book no=");
    scanf("%d",&p[i].bno);
    flushall();
    printf("Enter the book name=");
    gets(p[i].name);
    flushall();
    printf("Enter the book author=");
    gets(p[i].auth);
    printf("Enter the book publi=");
    flushall();
    gets(p[i].pub);
    printf("Enter the book cost=");
    scanf("%d",&p[i].cost);
  }
  printf("\n1.Books of specific author");
  printf("\n2.Books of specific publisher");
  printf("\n3.All books costing Rs 500&above");
  printf("\n4.All books");
  printf("\nEnter the choice=");
  scanf("%d",&ch);
  switch(ch)
  {
    case 1:
     printf("Enter the author name you want=");
     flushall();
     gets(au);
     f=0;
     for(i=0;i<n;i++)
     {
      f=strcmp(p[i].auth,au);
      if(f==0)
	printf("\nBno=%d\tname=%s",p[i].bno,p[i].name);
     }
     break;
   case 2:
     printf("Enter the publisher name=");
     flushall();
     gets(pub);
     f=0;
     for(i=0;i<n;i++)
     {
       f=strcmp(p[i].pub,pub);
       if(f==0)
       {
	printf("\nbno=%d\tbname=%s\tbpublisher=%s",p[i].bno,p[i].name,p[i].pub);
       }
     }
     break;
  case 3:
     for(i=0;i<n;i++)
     {
      if(p[i].cost>=500)
      printf("\nbno=%d\nbname=%s\ncost=%d",p[i].bno,p[i].name,p[i].cost);
     }
     break;
  case 4:
     for(i=0;i<n;i++)
     {
       printf("\nbno=%d\nname=%s\nauthor=%s",p[i].bno,p[i].name,p[i].auth);
       printf("\npublisher=%s\ncost=%d",p[i].pub,p[i].cost);
     }
  default:
     printf("Enter the correct choice");

  }
  getch();
}
/*===========================OUTPUT================================
Enter the book publi=bpb
Enter the book cost=250
Enter the book no=2
Enter the book name=c++
Enter the book author=yk
Enter the book publi=bpb
Enter the book cost=550
Enter the book no=3
Enter the book name=java
Enter the book author=guru
Enter the book publi=prasad
Enter the book cost=600

1.Books of specific author
2.Books of specific publisher
3.All books costing Rs 500&above
4.All books
Enter the choice=3

bno=2
bname=c++
cost=550
bno=3
bname=java
cost=600
*/