class Throws
{
    static void throwMethod() throws ClassNotFoundException
     {
        System.out.println("in throwMethod");
        throw new ClassNotFoundException();
     }
     public static void main(String args[])
     {
        try
         {
            throwMethod();
         }
         catch(ClassNotFoundException Obja)
         {
             System.out.println("throwMehod has thrown an Exception:" +Obja);
         }
      }
}