INDEX VERSION 1.126+H:\DAC\Project OPMS\.metadata\.plugins\org.eclipse.jdt.core
1457776754.index
2891955744.index
3607958942.index
2886345592.index
556197163.index
12055780.index
433312387.index
860788057.index
3365891487.index
2983359205.index
1791112987.index
380641070.index
957227235.index
3325122561.index
2167714301.index
3146980995.index
2522614731.index
2081621623.index
327383022.index
2042231026.index
3471204086.index
3917386709.index
626288018.index
2473799763.index
952315432.index
221981045.index
2933384372.index
911697149.index
3844276317.index
1808592032.index
4284093014.index
3772613413.index
2814939353.index
3852664800.index
556837271.index
848959954.index
896463619.index
1000266010.index
463996162.index
1885127517.index
1013654402.index
4277262667.index
464981809.index
1764615633.index
346577115.index
559670790.index
2403315802.index
1372829614.index
1821685980.index
347484052.index
3396186789.index
1435738354.index
1632798761.index
215040143.index
3272712553.index
3074469566.index
2555764297.index
989118166.index
1714191417.index
2417278220.index
3183187410.index
135045218.index
2023811097.index
2552727082.index
3908640498.index
2375370348.index
747804596.index
1666784615.index
1193920535.index
189921559.index
1368593068.index
3287290874.index
3592669644.index
1730513560.index
2479909925.index
447358324.index
3134827590.index
526995688.index
3213572377.index
3455177905.index
1444532156.index
406163287.index
1601086791.index
1853781606.index
548557277.index
3407808755.index
1476975458.index
1776657997.index
3140045379.index
2039245391.index
2386591595.index
2348150349.index
2133729834.index
529437705.index
3287091533.index
2922626434.index
2026864101.index
4050959524.index
3150581150.index
2764697872.index
3035096115.index
1962638457.index
251755735.index
3291799386.index
4242379529.index
1357247146.index
451233073.index
2566710554.index
4224141174.index
2395374134.index
213458465.index
2638482646.index
4256170675.index
