/*PROGRAM OF DISPLAYING STRUCTURE USING FUNCTION*/

#include<stdio.h>
#include<conio.h>
 struct stud
 {
  int rno;
  char name[20];
 };
 void disp(struct stud[20],int);
void main()
 {
 struct stud s[10],temp;
  int i,n,j;
  clrscr();
  printf("enter the limit of array=");
  scanf("%d",&n);
 for(i=0;i<n;i++)
  {
   printf("enter the roll no of %d stud=",i+1);
   scanf("%d",&s[i].rno);
   printf("Enter the name of %d stud=",i+1);
   scanf("%s",s[i].name);
  }
  disp(s,n);

 getch();
}
 void disp(struct stud a[20],int x)
 {
  int i;
  for(i=0;i<x;i++)
  {
   printf("\nThe roll no=%d",a[i].rno);
   printf("\nThe roll no=%s",a[i].name);
  }
 }
/*===========================OUTPUT============================
enter the limit of array=5
enter the roll no of 1 stud=1
Enter the name of 1 stud=pravin
enter the roll no of 2 stud=2
Enter the name of 2 stud=sunil
enter the roll no of 3 stud=3
Enter the name of 3 stud=anna
enter the roll no of 4 stud=4
Enter the name of 4 stud=pramod
enter the roll no of 5 stud=5
Enter the name of 5 stud=aba

The roll no=1
The roll no=pravin
The roll no=2
The roll no=sunil
The roll no=3
The roll no=anna
The roll no=4
The roll no=pramod
The roll no=5
The roll no=aba
*/


                                                                                








                                                                                
                                                                                
                                                                                
                                                                                

