what,kind,bundleId,bundleVersion,description,time
deactivated,workbench,org.eclipse.ui.workbench,3.7.0.I20110519-0100,"",1438713694068
activated,workbench,org.eclipse.ui.workbench,3.7.0.I20110519-0100,"",1438713700408
deactivated,workbench,org.eclipse.ui.workbench,3.7.0.I20110519-0100,"",1438713701743
activated,workbench,org.eclipse.ui.workbench,3.7.0.I20110519-0100,"",1438713734880
deactivated,workbench,org.eclipse.ui.workbench,3.7.0.I20110519-0100,"",1438713735631
activated,workbench,org.eclipse.ui.workbench,3.7.0.I20110519-0100,"",1438713740236
opened,editor,org.eclipse.wst.xml.ui,1.1.201.v201108151912,"org.eclipse.wst.xml.ui.internal.tabletree.XMLMultiPageEditorPart",1438713744764
activated,editor,org.eclipse.wst.xml.ui,1.1.201.v201108151912,"org.eclipse.wst.xml.ui.internal.tabletree.XMLMultiPageEditorPart",1438713744829
deactivated,workbench,org.eclipse.ui.workbench,3.7.0.I20110519-0100,"",1438713745791
activated,workbench,org.eclipse.ui.workbench,3.7.0.I20110519-0100,"",1438713752076
executed,command,org.eclipse.ui,3.7.0.I20110602-0100,"org.eclipse.ui.edit.selectAll",1438713754552
executed,command,org.eclipse.ui,3.7.0.I20110602-0100,"org.eclipse.ui.edit.paste",1438713756132
executed,command,org.eclipse.ui,3.7.0.I20110602-0100,"org.eclipse.ui.file.save",1438713786662
deactivated,workbench,org.eclipse.ui.workbench,3.7.0.I20110519-0100,"",1438713786669
activated,workbench,org.eclipse.ui.workbench,3.7.0.I20110519-0100,"",1438713869093
activated,view,org.eclipse.ui.navigator.resources,3.4.300.I20110421-1800,"org.eclipse.ui.navigator.ProjectExplorer",1438713871808
deactivated,workbench,org.eclipse.ui.workbench,3.7.0.I20110519-0100,"",1438713878087
executed,command,org.eclipse.ui,3.7.0.I20110602-0100,"org.eclipse.ui.edit.paste",1438713889588
opened,editor,org.eclipse.wst.xml.ui,1.1.201.v201108151912,"org.eclipse.wst.xml.ui.internal.tabletree.XMLMultiPageEditorPart",1438713891615
activated,editor,org.eclipse.wst.xml.ui,1.1.201.v201108151912,"org.eclipse.wst.xml.ui.internal.tabletree.XMLMultiPageEditorPart",1438713891632
activated,workbench,org.eclipse.ui.workbench,3.7.0.I20110519-0100,"",1438713891660
executed,command,org.eclipse.ui,3.7.0.I20110602-0100,"org.eclipse.ui.newWizard",1438713891679
deactivated,workbench,org.eclipse.ui.workbench,3.7.0.I20110519-0100,"",1438713892799
activated,workbench,org.eclipse.ui.workbench,3.7.0.I20110519-0100,"",1438713902364
executed,command,org.eclipse.ui,3.7.0.I20110602-0100,"org.eclipse.ui.edit.selectAll",1438713903868
executed,command,org.eclipse.ui,3.7.0.I20110602-0100,"org.eclipse.ui.edit.paste",1438713905160
executed,command,org.eclipse.ui,3.7.0.I20110602-0100,"org.eclipse.ui.file.save",1438713910795
deactivated,workbench,org.eclipse.ui.workbench,3.7.0.I20110519-0100,"",1438713916269
activated,workbench,org.eclipse.ui.workbench,3.7.0.I20110519-0100,"",1438713935131
executed,command,org.eclipse.ui,3.7.0.I20110602-0100,"org.eclipse.ui.edit.selectAll",1438713936287
executed,command,org.eclipse.ui,3.7.0.I20110602-0100,"org.eclipse.ui.edit.paste",1438713936961
executed,command,org.eclipse.ui,3.7.0.I20110602-0100,"org.eclipse.ui.file.save",1438713938759
deactivated,workbench,org.eclipse.ui.workbench,3.7.0.I20110519-0100,"",1438713940875
activated,workbench,org.eclipse.ui.workbench,3.7.0.I20110519-0100,"",1438713972516
deactivated,workbench,org.eclipse.ui.workbench,3.7.0.I20110519-0100,"",1438713973955
activated,workbench,org.eclipse.ui.workbench,3.7.0.I20110519-0100,"",1438713977018
activated,view,org.eclipse.ui.navigator.resources,3.4.300.I20110421-1800,"org.eclipse.ui.navigator.ProjectExplorer",1438713979446
deactivated,workbench,org.eclipse.ui.workbench,3.7.0.I20110519-0100,"",1438713982737
activated,workbench,org.eclipse.ui.workbench,3.7.0.I20110519-0100,"",1438713986262
deactivated,workbench,org.eclipse.ui.workbench,3.7.0.I20110519-0100,"",1438713987345
activated,workbench,org.eclipse.ui.workbench,3.7.0.I20110519-0100,"",1438713996720
started,bundle,org.eclipse.jst.jsp.ui,1.1.601.v201108151912,"org.eclipse.jst.jsp.ui",1438714004034
deactivated,workbench,org.eclipse.ui.workbench,3.7.0.I20110519-0100,"",1438714004565
activated,workbench,org.eclipse.ui.workbench,3.7.0.I20110519-0100,"",1438714009998
started,bundle,org.eclipse.wst.jsdt.web.support.jsp,1.0.400.v201102241833,"org.eclipse.wst.jsdt.web.support.jsp",1438714010424
opened,editor,org.eclipse.jst.jsp.ui,1.1.601.v201108151912,"org.eclipse.jst.jsp.core.jspsource.source",1438714010549
activated,editor,org.eclipse.jst.jsp.ui,1.1.601.v201108151912,"org.eclipse.jst.jsp.core.jspsource.source",1438714010617
deactivated,workbench,org.eclipse.ui.workbench,3.7.0.I20110519-0100,"",1438714011488
activated,workbench,org.eclipse.ui.workbench,3.7.0.I20110519-0100,"",1438714029953
executed,command,org.eclipse.ui,3.7.0.I20110602-0100,"org.eclipse.ui.edit.selectAll",1438714031019
executed,command,org.eclipse.ui,3.7.0.I20110602-0100,"org.eclipse.ui.edit.paste",1438714031561
executed,command,org.eclipse.ui,3.7.0.I20110602-0100,"org.eclipse.ui.file.save",1438714032716
deactivated,workbench,org.eclipse.ui.workbench,3.7.0.I20110519-0100,"",1438714033415
activated,workbench,org.eclipse.ui.workbench,3.7.0.I20110519-0100,"",1438714037455
deactivated,workbench,org.eclipse.ui.workbench,3.7.0.I20110519-0100,"",1438714042320
activated,workbench,org.eclipse.ui.workbench,3.7.0.I20110519-0100,"",1438714046631
deactivated,workbench,org.eclipse.ui.workbench,3.7.0.I20110519-0100,"",1438714046654
activated,workbench,org.eclipse.ui.workbench,3.7.0.I20110519-0100,"",1438714048879
activated,view,org.eclipse.wst.server.ui,1.1.306.v20110823_1704,"org.eclipse.wst.server.ui.ServersView",1438714048916
activated,view,org.eclipse.ui.console,3.5.100.v20110511,"org.eclipse.ui.console.ConsoleView",1438714050112
activated,view,org.eclipse.wst.server.ui,1.1.306.v20110823_1704,"org.eclipse.wst.server.ui.ServersView",1438714051149
activated,view,org.eclipse.ui.console,3.5.100.v20110511,"org.eclipse.ui.console.ConsoleView",1438714051989
activated,view,org.eclipse.wst.server.ui,1.1.306.v20110823_1704,"org.eclipse.wst.server.ui.ServersView",1438714053522
opened,editor,org.eclipse.ui.browser,3.3.100.v20110426,"org.eclipse.ui.browser.editor",1438714053812
activated,editor,org.eclipse.ui.browser,3.3.100.v20110426,"org.eclipse.ui.browser.editor",1438714053843
deactivated,workbench,org.eclipse.ui.workbench,3.7.0.I20110519-0100,"",1438714055616
activated,workbench,org.eclipse.ui.workbench,3.7.0.I20110519-0100,"",1438714059908
deactivated,workbench,org.eclipse.ui.workbench,3.7.0.I20110519-0100,"",1438714060642
activated,workbench,org.eclipse.ui.workbench,3.7.0.I20110519-0100,"",1438714090269
deactivated,workbench,org.eclipse.ui.workbench,3.7.0.I20110519-0100,"",1438714095546
activated,workbench,org.eclipse.ui.workbench,3.7.0.I20110519-0100,"",1438714110491
deactivated,workbench,org.eclipse.ui.workbench,3.7.0.I20110519-0100,"",1438714111554
activated,workbench,org.eclipse.ui.workbench,3.7.0.I20110519-0100,"",1438714120120
activated,view,org.eclipse.ui.console,3.5.100.v20110511,"org.eclipse.ui.console.ConsoleView",1438714120124
deactivated,workbench,org.eclipse.ui.workbench,3.7.0.I20110519-0100,"",1438714123460
activated,workbench,org.eclipse.ui.workbench,3.7.0.I20110519-0100,"",1438714124736
deactivated,workbench,org.eclipse.ui.workbench,3.7.0.I20110519-0100,"",1438714125293
activated,workbench,org.eclipse.ui.workbench,3.7.0.I20110519-0100,"",1438714141775
deactivated,workbench,org.eclipse.ui.workbench,3.7.0.I20110519-0100,"",1438714142292
activated,workbench,org.eclipse.ui.workbench,3.7.0.I20110519-0100,"",1438714156400
activated,editor,org.eclipse.ui.browser,3.3.100.v20110426,"org.eclipse.ui.browser.editor",1438714188210
activated,view,org.eclipse.ui.navigator.resources,3.4.300.I20110421-1800,"org.eclipse.ui.navigator.ProjectExplorer",1438714189495
executed,command,org.eclipse.ui,3.7.0.I20110602-0100,"org.eclipse.ui.navigate.collapseAll",1438714192287
executed,command,org.eclipse.ui,3.7.0.I20110602-0100,"org.eclipse.ui.navigate.collapseAll",1438714193278
opened,view,org.eclipse.ui.ide,3.7.0.v20110809-1737,"org.eclipse.ui.views.AllMarkersView",1438714209927
activated,view,org.eclipse.ui.console,3.5.100.v20110511,"org.eclipse.ui.console.ConsoleView",1438714209985
opened,view,org.eclipse.ui.views,3.6.0.I20110412-0800,"org.eclipse.ui.views.PropertySheet",1438714219369
deactivated,workbench,org.eclipse.ui.workbench,3.7.0.I20110519-0100,"",1438714239343
activated,workbench,org.eclipse.ui.workbench,3.7.0.I20110519-0100,"",1438714254526
activated,view,org.eclipse.ui.navigator.resources,3.4.300.I20110421-1800,"org.eclipse.ui.navigator.ProjectExplorer",1438714256351
started,bundle,org.eclipse.ui.views.properties.tabbed,3.5.200.I20110201-0800,"org.eclipse.ui.views.properties.tabbed",1438714256405
deactivated,workbench,org.eclipse.ui.workbench,3.7.0.I20110519-0100,"",1438714262301
activated,workbench,org.eclipse.ui.workbench,3.7.0.I20110519-0100,"",1438714267832
deactivated,workbench,org.eclipse.ui.workbench,3.7.0.I20110519-0100,"",1438714270689
activated,workbench,org.eclipse.ui.workbench,3.7.0.I20110519-0100,"",1438714272650
deactivated,workbench,org.eclipse.ui.workbench,3.7.0.I20110519-0100,"",1438714272694
activated,workbench,org.eclipse.ui.workbench,3.7.0.I20110519-0100,"",1438714274314
deactivated,workbench,org.eclipse.ui.workbench,3.7.0.I20110519-0100,"",1438714274525
activated,workbench,org.eclipse.ui.workbench,3.7.0.I20110519-0100,"",1438714274855
deactivated,workbench,org.eclipse.ui.workbench,3.7.0.I20110519-0100,"",1438714275738
activated,workbench,org.eclipse.ui.workbench,3.7.0.I20110519-0100,"",1438714276256
deactivated,workbench,org.eclipse.ui.workbench,3.7.0.I20110519-0100,"",1438714277174
activated,workbench,org.eclipse.ui.workbench,3.7.0.I20110519-0100,"",1438714288204
activated,view,org.eclipse.ui.views,3.6.0.I20110412-0800,"org.eclipse.ui.views.PropertySheet",1438714292135
activated,view,org.eclipse.ui.navigator.resources,3.4.300.I20110421-1800,"org.eclipse.ui.navigator.ProjectExplorer",1438714292145
activated,view,org.eclipse.ui.ide,3.7.0.v20110809-1737,"org.eclipse.ui.views.AllMarkersView",1438714294354
activated,view,org.eclipse.ui.navigator.resources,3.4.300.I20110421-1800,"org.eclipse.ui.navigator.ProjectExplorer",1438714294393
started,bundle,org.eclipse.datatools.connectivity,1.2.3.v201108101135,"org.eclipse.datatools.connectivity",1438714294454
started,bundle,org.eclipse.datatools.connectivity.ui,1.2.1.v201010211430,"org.eclipse.datatools.connectivity.ui",1438714294457
started,bundle,org.eclipse.datatools.connectivity.ui.dse,1.1.4.v201004270430,"org.eclipse.datatools.connectivity.ui.dse",1438714294457
started,bundle,org.eclipse.datatools.enablement.ingres.ui,1.0.0.v201105270214,"org.eclipse.datatools.enablement.ingres.ui",1438714294489
started,bundle,org.eclipse.datatools.connectivity.sqm.core,1.2.3.v201109022323,"org.eclipse.datatools.connectivity.sqm.core",1438714294736
started,bundle,org.eclipse.datatools.connectivity.sqm.core.ui,1.2.0.v201002281800,"org.eclipse.datatools.connectivity.sqm.core.ui",1438714294745
opened,view,org.eclipse.datatools.connectivity.ui.dse,1.1.4.v201004270430,"org.eclipse.datatools.connectivity.DataSourceExplorerNavigator",1438714294823
closed,view,org.eclipse.ui.ide,3.7.0.v20110809-1737,"org.eclipse.ui.views.AllMarkersView",1438714294829
activated,view,org.eclipse.datatools.connectivity.ui.dse,1.1.4.v201004270430,"org.eclipse.datatools.connectivity.DataSourceExplorerNavigator",1438714297743
executed,command,org.eclipse.datatools.connectivity.ui.dse,1.1.4.v201004270430,"org.eclipse.datatools.connectivity.commands.showcategory",1438714297887
activated,view,org.eclipse.ui.navigator.resources,3.4.300.I20110421-1800,"org.eclipse.ui.navigator.ProjectExplorer",1438714301645
activated,editor,org.eclipse.jst.jsp.ui,1.1.601.v201108151912,"org.eclipse.jst.jsp.core.jspsource.source",1438714305364
activated,view,org.eclipse.ui.console,3.5.100.v20110511,"org.eclipse.ui.console.ConsoleView",1438714309776
activated,editor,org.eclipse.jst.jsp.ui,1.1.601.v201108151912,"org.eclipse.jst.jsp.core.jspsource.source",1438714309812
activated,view,org.eclipse.ui.console,3.5.100.v20110511,"org.eclipse.ui.console.ConsoleView",1438714312762
activated,editor,org.eclipse.jst.jsp.ui,1.1.601.v201108151912,"org.eclipse.jst.jsp.core.jspsource.source",1438714315266
activated,view,org.eclipse.ui.navigator.resources,3.4.300.I20110421-1800,"org.eclipse.ui.navigator.ProjectExplorer",1438714317384
activated,editor,org.eclipse.wst.xml.ui,1.1.201.v201108151912,"org.eclipse.wst.xml.ui.internal.tabletree.XMLMultiPageEditorPart",1438714319330
activated,view,org.eclipse.ui.navigator.resources,3.4.300.I20110421-1800,"org.eclipse.ui.navigator.ProjectExplorer",1438714331295
activated,editor,org.eclipse.jdt.ui,3.7.1.r371_v20110824-0800,"org.eclipse.jdt.ui.CompilationUnitEditor",1438714342817
executed,command,org.eclipse.ui,3.7.0.I20110602-0100,"org.eclipse.ui.file.save",1438714351985
executed,command,org.eclipse.ui.workbench.texteditor,3.7.0.v20110505-0800,"org.eclipse.ui.edit.text.goto.wordNext",1438714362283
executed,command,org.eclipse.ui.workbench.texteditor,3.7.0.v20110505-0800,"org.eclipse.ui.edit.text.goto.wordNext",1438714362464
executed,command,org.eclipse.ui.workbench.texteditor,3.7.0.v20110505-0800,"org.eclipse.ui.edit.text.select.wordNext",1438714363102
executed,command,org.eclipse.ui,3.7.0.I20110602-0100,"org.eclipse.ui.file.save",1438714366152
executed,command,org.eclipse.ui.workbench.texteditor,3.7.0.v20110505-0800,"org.eclipse.ui.edit.text.goto.wordNext",1438714367911
executed,command,org.eclipse.ui.workbench.texteditor,3.7.0.v20110505-0800,"org.eclipse.ui.edit.text.goto.wordNext",1438714368080
executed,command,org.eclipse.ui.workbench.texteditor,3.7.0.v20110505-0800,"org.eclipse.ui.edit.text.select.wordNext",1438714368692
executed,command,org.eclipse.ui.workbench.texteditor,3.7.0.v20110505-0800,"org.eclipse.ui.edit.text.select.wordNext",1438714369049
executed,command,org.eclipse.ui.workbench.texteditor,3.7.0.v20110505-0800,"org.eclipse.ui.edit.text.select.wordNext",1438714372557
executed,command,org.eclipse.ui.workbench.texteditor,3.7.0.v20110505-0800,"org.eclipse.ui.edit.text.select.wordNext",1438714372941
executed,command,org.eclipse.ui.workbench.texteditor,3.7.0.v20110505-0800,"org.eclipse.ui.edit.text.select.wordPrevious",1438714377449
executed,command,org.eclipse.ui.workbench.texteditor,3.7.0.v20110505-0800,"org.eclipse.ui.edit.text.select.wordPrevious",1438714377808
executed,command,org.eclipse.ui,3.7.0.I20110602-0100,"org.eclipse.ui.file.save",1438714382291
executed,command,org.eclipse.ui.workbench.texteditor,3.7.0.v20110505-0800,"org.eclipse.ui.edit.text.goto.lineEnd",1438714383759
executed,command,org.eclipse.ui.workbench.texteditor,3.7.0.v20110505-0800,"org.eclipse.ui.edit.text.select.lineStart",1438714384159
executed,command,org.eclipse.ui,3.7.0.I20110602-0100,"org.eclipse.ui.edit.delete",1438714385046
executed,command,org.eclipse.ui,3.7.0.I20110602-0100,"org.eclipse.ui.file.save",1438714387586
executed,command,org.eclipse.ui.workbench.texteditor,3.7.0.v20110505-0800,"org.eclipse.ui.edit.text.select.wordPrevious",1438714389807
executed,command,org.eclipse.ui,3.7.0.I20110602-0100,"org.eclipse.ui.edit.delete",1438714391676
executed,command,org.eclipse.ui,3.7.0.I20110602-0100,"org.eclipse.ui.file.save",1438714397838
deactivated,workbench,org.eclipse.ui.workbench,3.7.0.I20110519-0100,"",1438714400265
activated,workbench,org.eclipse.ui.workbench,3.7.0.I20110519-0100,"",1438714401891
activated,view,org.eclipse.ui.console,3.5.100.v20110511,"org.eclipse.ui.console.ConsoleView",1438714401904
activated,editor,org.eclipse.jdt.ui,3.7.1.r371_v20110824-0800,"org.eclipse.jdt.ui.CompilationUnitEditor",1438714406222
executed,command,,,"AUTOGEN:::org.eclipse.jdt.internal.ui.CompilationUnitEditor.ruler.actions/org.eclipse.jdt.internal.ui.javaeditor.JavaSelectRulerAction",1438714422309
deactivated,workbench,org.eclipse.ui.workbench,3.7.0.I20110519-0100,"",1438714433808
activated,workbench,org.eclipse.ui.workbench,3.7.0.I20110519-0100,"",1438714435854
activated,view,org.eclipse.ui.console,3.5.100.v20110511,"org.eclipse.ui.console.ConsoleView",1438714435864
deactivated,workbench,org.eclipse.ui.workbench,3.7.0.I20110519-0100,"",1438714437153
activated,workbench,org.eclipse.ui.workbench,3.7.0.I20110519-0100,"",1438714464755
deactivated,workbench,org.eclipse.ui.workbench,3.7.0.I20110519-0100,"",1438714467332
activated,workbench,org.eclipse.ui.workbench,3.7.0.I20110519-0100,"",1438714476701
deactivated,workbench,org.eclipse.ui.workbench,3.7.0.I20110519-0100,"",1438714477242
activated,workbench,org.eclipse.ui.workbench,3.7.0.I20110519-0100,"",1438714479962
deactivated,workbench,org.eclipse.ui.workbench,3.7.0.I20110519-0100,"",1438714480446
activated,workbench,org.eclipse.ui.workbench,3.7.0.I20110519-0100,"",1438714481178
deactivated,workbench,org.eclipse.ui.workbench,3.7.0.I20110519-0100,"",1438714482242
activated,workbench,org.eclipse.ui.workbench,3.7.0.I20110519-0100,"",1438714507926
deactivated,workbench,org.eclipse.ui.workbench,3.7.0.I20110519-0100,"",1438714509212
activated,workbench,org.eclipse.ui.workbench,3.7.0.I20110519-0100,"",1438714531003
activated,view,org.eclipse.ui.navigator.resources,3.4.300.I20110421-1800,"org.eclipse.ui.navigator.ProjectExplorer",1438714532699
started,bundle,org.eclipse.wst.ws.service.policy.ui,1.0.300.v201108240515,"org.eclipse.wst.ws.service.policy.ui",1438714533047
started,bundle,org.eclipse.wst.ws.service.policy,1.0.303.v201009221810,"org.eclipse.wst.ws.service.policy",1438714533050
started,bundle,org.eclipse.wst.command.env,1.0.409.v201004211805,"org.eclipse.wst.command.env",1438714533108
started,bundle,org.eclipse.wst.ws,1.1.203.v201004211805,"org.eclipse.wst.ws",1438714533109
started,bundle,org.eclipse.wst.validation.ui,1.2.204.v201004150700,"org.eclipse.wst.validation.ui",1438714534354
deactivated,workbench,org.eclipse.ui.workbench,3.7.0.I20110519-0100,"",1438714534459
activated,workbench,org.eclipse.ui.workbench,3.7.0.I20110519-0100,"",1438714538060
deactivated,workbench,org.eclipse.ui.workbench,3.7.0.I20110519-0100,"",1438714546701
activated,workbench,org.eclipse.ui.workbench,3.7.0.I20110519-0100,"",1438714552285
executed,command,org.eclipse.ui,3.7.0.I20110602-0100,"org.eclipse.ui.file.properties",1438714552294
deactivated,workbench,org.eclipse.ui.workbench,3.7.0.I20110519-0100,"",1438714553723
activated,workbench,org.eclipse.ui.workbench,3.7.0.I20110519-0100,"",1438714561250
deactivated,workbench,org.eclipse.ui.workbench,3.7.0.I20110519-0100,"",1438714568473
activated,workbench,org.eclipse.ui.workbench,3.7.0.I20110519-0100,"",1438714571826
executed,command,org.eclipse.ui,3.7.0.I20110602-0100,"org.eclipse.ui.file.properties",1438714571832
deactivated,workbench,org.eclipse.ui.workbench,3.7.0.I20110519-0100,"",1438714572549
activated,workbench,org.eclipse.ui.workbench,3.7.0.I20110519-0100,"",1438714597638
deactivated,workbench,org.eclipse.ui.workbench,3.7.0.I20110519-0100,"",1438714598545
activated,workbench,org.eclipse.ui.workbench,3.7.0.I20110519-0100,"",1438714616979
deactivated,workbench,org.eclipse.ui.workbench,3.7.0.I20110519-0100,"",1438714617692
activated,workbench,org.eclipse.ui.workbench,3.7.0.I20110519-0100,"",1438714618389
started,bundle,org.eclipse.wst.jsdt.debug.rhino.ui,1.0.0.v201103232243,"org.eclipse.wst.jsdt.debug.rhino.ui",1438714619664
deactivated,workbench,org.eclipse.ui.workbench,3.7.0.I20110519-0100,"",1438714620422
activated,workbench,org.eclipse.ui.workbench,3.7.0.I20110519-0100,"",1438714623604
deactivated,workbench,org.eclipse.ui.workbench,3.7.0.I20110519-0100,"",1438714624829
activated,workbench,org.eclipse.ui.workbench,3.7.0.I20110519-0100,"",1438714626999
deactivated,workbench,org.eclipse.ui.workbench,3.7.0.I20110519-0100,"",1438714635740
error,log,,,"Several ports (8085, 8009) required by Tomcat v6.0 Server at localhost are already in use. The server may already be running in another process, or a system process may be using the port. To start this server you will need to stop the other process or change the port number(s).",1438714635906
activated,workbench,org.eclipse.ui.workbench,3.7.0.I20110519-0100,"",1438714650640
deactivated,workbench,org.eclipse.ui.workbench,3.7.0.I20110519-0100,"",1438714651189
activated,workbench,org.eclipse.ui.workbench,3.7.0.I20110519-0100,"",1438714651758
deactivated,workbench,org.eclipse.ui.workbench,3.7.0.I20110519-0100,"",1438714652792
activated,workbench,org.eclipse.ui.workbench,3.7.0.I20110519-0100,"",1438714652966
deactivated,workbench,org.eclipse.ui.workbench,3.7.0.I20110519-0100,"",1438714654257
activated,workbench,org.eclipse.ui.workbench,3.7.0.I20110519-0100,"",1438714658020
deactivated,workbench,org.eclipse.ui.workbench,3.7.0.I20110519-0100,"",1438714658662
activated,workbench,org.eclipse.ui.workbench,3.7.0.I20110519-0100,"",1438714659380
activated,view,org.eclipse.datatools.connectivity.ui.dse,1.1.4.v201004270430,"org.eclipse.datatools.connectivity.DataSourceExplorerNavigator",1438714660808
activated,editor,org.eclipse.jdt.ui,3.7.1.r371_v20110824-0800,"org.eclipse.jdt.ui.CompilationUnitEditor",1438714662968
activated,view,org.eclipse.ui.navigator.resources,3.4.300.I20110421-1800,"org.eclipse.ui.navigator.ProjectExplorer",1438714665250
activated,editor,org.eclipse.wst.xml.ui,1.1.201.v201108151912,"org.eclipse.wst.xml.ui.internal.tabletree.XMLMultiPageEditorPart",1438714672089
activated,view,org.eclipse.ui.navigator.resources,3.4.300.I20110421-1800,"org.eclipse.ui.navigator.ProjectExplorer",1438714702697
activated,editor,org.eclipse.wst.xml.ui,1.1.201.v201108151912,"org.eclipse.wst.xml.ui.internal.tabletree.XMLMultiPageEditorPart",1438714702906
deactivated,workbench,org.eclipse.ui.workbench,3.7.0.I20110519-0100,"",1438714722142
activated,workbench,org.eclipse.ui.workbench,3.7.0.I20110519-0100,"",1438714723077
deactivated,workbench,org.eclipse.ui.workbench,3.7.0.I20110519-0100,"",1438714723367
activated,workbench,org.eclipse.ui.workbench,3.7.0.I20110519-0100,"",1438714724941
deactivated,workbench,org.eclipse.ui.workbench,3.7.0.I20110519-0100,"",1438714727836
activated,workbench,org.eclipse.ui.workbench,3.7.0.I20110519-0100,"",1438714730421
deactivated,workbench,org.eclipse.ui.workbench,3.7.0.I20110519-0100,"",1438714730442
activated,workbench,org.eclipse.ui.workbench,3.7.0.I20110519-0100,"",1438714732337
activated,view,org.eclipse.wst.server.ui,1.1.306.v20110823_1704,"org.eclipse.wst.server.ui.ServersView",1438714732382
activated,view,org.eclipse.ui.console,3.5.100.v20110511,"org.eclipse.ui.console.ConsoleView",1438714732830
activated,view,org.eclipse.wst.server.ui,1.1.306.v20110823_1704,"org.eclipse.wst.server.ui.ServersView",1438714733803
activated,view,org.eclipse.ui.console,3.5.100.v20110511,"org.eclipse.ui.console.ConsoleView",1438714733867
activated,view,org.eclipse.wst.server.ui,1.1.306.v20110823_1704,"org.eclipse.wst.server.ui.ServersView",1438714733959
activated,view,org.eclipse.ui.console,3.5.100.v20110511,"org.eclipse.ui.console.ConsoleView",1438714734532
activated,view,org.eclipse.wst.server.ui,1.1.306.v20110823_1704,"org.eclipse.wst.server.ui.ServersView",1438714736262
opened,editor,org.eclipse.ui.browser,3.3.100.v20110426,"org.eclipse.ui.browser.editor",1438714736518
activated,editor,org.eclipse.ui.browser,3.3.100.v20110426,"org.eclipse.ui.browser.editor",1438714736585
activated,editor,org.eclipse.wst.xml.ui,1.1.201.v201108151912,"org.eclipse.wst.xml.ui.internal.tabletree.XMLMultiPageEditorPart",1438714741420
closed,editor,org.eclipse.ui.browser,3.3.100.v20110426,"org.eclipse.ui.browser.editor",1438714741427
deactivated,workbench,org.eclipse.ui.workbench,3.7.0.I20110519-0100,"",1438714743147
activated,workbench,org.eclipse.ui.workbench,3.7.0.I20110519-0100,"",1438714761062
activated,view,org.eclipse.ui.console,3.5.100.v20110511,"org.eclipse.ui.console.ConsoleView",1438714761072
activated,editor,org.eclipse.wst.xml.ui,1.1.201.v201108151912,"org.eclipse.wst.xml.ui.internal.tabletree.XMLMultiPageEditorPart",1438714769196
deactivated,workbench,org.eclipse.ui.workbench,3.7.0.I20110519-0100,"",1438714791003
activated,workbench,org.eclipse.ui.workbench,3.7.0.I20110519-0100,"",1438714806932
deactivated,workbench,org.eclipse.ui.workbench,3.7.0.I20110519-0100,"",1438714811134
activated,workbench,org.eclipse.ui.workbench,3.7.0.I20110519-0100,"",1438714824874
deactivated,workbench,org.eclipse.ui.workbench,3.7.0.I20110519-0100,"",1438714835859
activated,workbench,org.eclipse.ui.workbench,3.7.0.I20110519-0100,"",1438714836726
deactivated,workbench,org.eclipse.ui.workbench,3.7.0.I20110519-0100,"",1438714837013
activated,workbench,org.eclipse.ui.workbench,3.7.0.I20110519-0100,"",1438714882396
activated,view,org.eclipse.ui.navigator.resources,3.4.300.I20110421-1800,"org.eclipse.ui.navigator.ProjectExplorer",1438714884873
deactivated,workbench,org.eclipse.ui.workbench,3.7.0.I20110519-0100,"",1438714891010
activated,workbench,org.eclipse.ui.workbench,3.7.0.I20110519-0100,"",1438714914698
deactivated,workbench,org.eclipse.ui.workbench,3.7.0.I20110519-0100,"",1438714915946
activated,workbench,org.eclipse.ui.workbench,3.7.0.I20110519-0100,"",1438714934684
deactivated,workbench,org.eclipse.ui.workbench,3.7.0.I20110519-0100,"",1438714935202
activated,workbench,org.eclipse.ui.workbench,3.7.0.I20110519-0100,"",1438714937617
