what,kind,bundleId,bundleVersion,description,time
activated,view,org.eclipse.ui.navigator.resources,3.4.300.I20110421-1800,"org.eclipse.ui.navigator.ProjectExplorer",1438708973456
opened,editor,org.eclipse.jdt.ui,3.7.1.r371_v20110824-0800,"org.eclipse.jdt.ui.CompilationUnitEditor",1438708973731
activated,editor,org.eclipse.jdt.ui,3.7.1.r371_v20110824-0800,"org.eclipse.jdt.ui.CompilationUnitEditor",1438708973764
activated,view,org.eclipse.ui.navigator.resources,3.4.300.I20110421-1800,"org.eclipse.ui.navigator.ProjectExplorer",1438708978105
opened,editor,org.eclipse.jdt.ui,3.7.1.r371_v20110824-0800,"org.eclipse.jdt.ui.CompilationUnitEditor",1438709001059
activated,editor,org.eclipse.jdt.ui,3.7.1.r371_v20110824-0800,"org.eclipse.jdt.ui.CompilationUnitEditor",1438709001099
activated,view,org.eclipse.ui.navigator.resources,3.4.300.I20110421-1800,"org.eclipse.ui.navigator.ProjectExplorer",1438709006966
activated,editor,org.eclipse.jdt.ui,3.7.1.r371_v20110824-0800,"org.eclipse.jdt.ui.CompilationUnitEditor",1438709015156
closed,editor,org.eclipse.ui.browser,3.3.100.v20110426,"org.eclipse.ui.browser.editor",1438709015161
closed,editor,org.eclipse.jdt.ui,3.7.1.r371_v20110824-0800,"org.eclipse.jdt.ui.CompilationUnitEditor",1438709016762
closed,editor,org.eclipse.jdt.ui,3.7.1.r371_v20110824-0800,"org.eclipse.jdt.ui.CompilationUnitEditor",1438709018112
closed,editor,org.eclipse.wst.xml.ui,1.1.201.v201108151912,"org.eclipse.wst.xml.ui.internal.tabletree.XMLMultiPageEditorPart",1438709019467
activated,editor,org.eclipse.jdt.ui,3.7.1.r371_v20110824-0800,"org.eclipse.jdt.ui.CompilationUnitEditor",1438709020811
activated,editor,org.eclipse.jdt.ui,3.7.1.r371_v20110824-0800,"org.eclipse.jdt.ui.CompilationUnitEditor",1438709022711
activated,editor,org.eclipse.jdt.ui,3.7.1.r371_v20110824-0800,"org.eclipse.jdt.ui.CompilationUnitEditor",1438709025587
executed,command,org.eclipse.ui,3.7.0.I20110602-0100,"org.eclipse.ui.edit.text.contentAssist.proposals",1438709029133
executed,command,org.eclipse.ui,3.7.0.I20110602-0100,"org.eclipse.ui.file.save",1438709061558
deactivated,workbench,org.eclipse.ui.workbench,3.7.0.I20110519-0100,"",1438709062251
activated,workbench,org.eclipse.ui.workbench,3.7.0.I20110519-0100,"",1438709066276
deactivated,workbench,org.eclipse.ui.workbench,3.7.0.I20110519-0100,"",1438709071859
activated,view,org.eclipse.ui.console,3.5.100.v20110511,"org.eclipse.ui.console.ConsoleView",1438709072345
activated,workbench,org.eclipse.ui.workbench,3.7.0.I20110519-0100,"",1438709076856
deactivated,workbench,org.eclipse.ui.workbench,3.7.0.I20110519-0100,"",1438709076881
activated,workbench,org.eclipse.ui.workbench,3.7.0.I20110519-0100,"",1438709079279
activated,view,org.eclipse.wst.server.ui,1.1.306.v20110823_1704,"org.eclipse.wst.server.ui.ServersView",1438709079346
activated,view,org.eclipse.ui.console,3.5.100.v20110511,"org.eclipse.ui.console.ConsoleView",1438709079902
deactivated,workbench,org.eclipse.ui.workbench,3.7.0.I20110519-0100,"",1438709080323
activated,workbench,org.eclipse.ui.workbench,3.7.0.I20110519-0100,"",1438709081111
activated,view,org.eclipse.wst.server.ui,1.1.306.v20110823_1704,"org.eclipse.wst.server.ui.ServersView",1438709081163
activated,view,org.eclipse.ui.console,3.5.100.v20110511,"org.eclipse.ui.console.ConsoleView",1438709081886
activated,view,org.eclipse.wst.server.ui,1.1.306.v20110823_1704,"org.eclipse.wst.server.ui.ServersView",1438709083567
opened,editor,org.eclipse.ui.browser,3.3.100.v20110426,"org.eclipse.ui.browser.editor",1438709083809
activated,editor,org.eclipse.ui.browser,3.3.100.v20110426,"org.eclipse.ui.browser.editor",1438709083868
deactivated,workbench,org.eclipse.ui.workbench,3.7.0.I20110519-0100,"",1438709090215
activated,workbench,org.eclipse.ui.workbench,3.7.0.I20110519-0100,"",1438709090999
deactivated,workbench,org.eclipse.ui.workbench,3.7.0.I20110519-0100,"",1438709091420
activated,workbench,org.eclipse.ui.workbench,3.7.0.I20110519-0100,"",1438709115185
activated,editor,org.eclipse.jdt.ui,3.7.1.r371_v20110824-0800,"org.eclipse.jdt.ui.CompilationUnitEditor",1438709117475
activated,editor,org.eclipse.jdt.ui,3.7.1.r371_v20110824-0800,"org.eclipse.jdt.ui.CompilationUnitEditor",1438709121895
executed,command,org.eclipse.ui,3.7.0.I20110602-0100,"org.eclipse.ui.file.save",1438709128364
deactivated,workbench,org.eclipse.ui.workbench,3.7.0.I20110519-0100,"",1438709129212
activated,workbench,org.eclipse.ui.workbench,3.7.0.I20110519-0100,"",1438709132232
activated,view,org.eclipse.ui.console,3.5.100.v20110511,"org.eclipse.ui.console.ConsoleView",1438709132243
activated,view,org.eclipse.wst.server.ui,1.1.306.v20110823_1704,"org.eclipse.wst.server.ui.ServersView",1438709135461
deactivated,workbench,org.eclipse.ui.workbench,3.7.0.I20110519-0100,"",1438709137463
activated,workbench,org.eclipse.ui.workbench,3.7.0.I20110519-0100,"",1438709151308
deactivated,workbench,org.eclipse.ui.workbench,3.7.0.I20110519-0100,"",1438709152106
activated,workbench,org.eclipse.ui.workbench,3.7.0.I20110519-0100,"",1438709152760
activated,editor,org.eclipse.jdt.ui,3.7.1.r371_v20110824-0800,"org.eclipse.jdt.ui.CompilationUnitEditor",1438709157408
deactivated,workbench,org.eclipse.ui.workbench,3.7.0.I20110519-0100,"",1438709165235
activated,workbench,org.eclipse.ui.workbench,3.7.0.I20110519-0100,"",1438709167320
activated,view,org.eclipse.wst.server.ui,1.1.306.v20110823_1704,"org.eclipse.wst.server.ui.ServersView",1438709167392
activated,view,org.eclipse.ui.console,3.5.100.v20110511,"org.eclipse.ui.console.ConsoleView",1438709168023
activated,view,org.eclipse.wst.server.ui,1.1.306.v20110823_1704,"org.eclipse.wst.server.ui.ServersView",1438709169674
opened,editor,org.eclipse.ui.browser,3.3.100.v20110426,"org.eclipse.ui.browser.editor",1438709169871
activated,editor,org.eclipse.ui.browser,3.3.100.v20110426,"org.eclipse.ui.browser.editor",1438709169919
activated,editor,org.eclipse.jdt.ui,3.7.1.r371_v20110824-0800,"org.eclipse.jdt.ui.CompilationUnitEditor",1438709175758
closed,editor,org.eclipse.ui.browser,3.3.100.v20110426,"org.eclipse.ui.browser.editor",1438709175758
activated,editor,org.eclipse.jdt.ui,3.7.1.r371_v20110824-0800,"org.eclipse.jdt.ui.CompilationUnitEditor",1438709177235
deactivated,workbench,org.eclipse.ui.workbench,3.7.0.I20110519-0100,"",1438709181874
activated,workbench,org.eclipse.ui.workbench,3.7.0.I20110519-0100,"",1438709185813
opened,editor,org.eclipse.ui.browser,3.3.100.v20110426,"org.eclipse.ui.browser.editor",1438709186030
activated,editor,org.eclipse.ui.browser,3.3.100.v20110426,"org.eclipse.ui.browser.editor",1438709186070
activated,editor,org.eclipse.jdt.ui,3.7.1.r371_v20110824-0800,"org.eclipse.jdt.ui.CompilationUnitEditor",1438709190280
closed,editor,org.eclipse.ui.browser,3.3.100.v20110426,"org.eclipse.ui.browser.editor",1438709190280
deactivated,workbench,org.eclipse.ui.workbench,3.7.0.I20110519-0100,"",1438709191952
activated,workbench,org.eclipse.ui.workbench,3.7.0.I20110519-0100,"",1438709257734
activated,editor,org.eclipse.jdt.ui,3.7.1.r371_v20110824-0800,"org.eclipse.jdt.ui.CompilationUnitEditor",1438709265801
activated,view,org.eclipse.ui.console,3.5.100.v20110511,"org.eclipse.ui.console.ConsoleView",1438709273314
activated,view,org.eclipse.wst.server.ui,1.1.306.v20110823_1704,"org.eclipse.wst.server.ui.ServersView",1438709280737
activated,editor,org.eclipse.jdt.ui,3.7.1.r371_v20110824-0800,"org.eclipse.jdt.ui.CompilationUnitEditor",1438709282459
activated,editor,org.eclipse.jdt.ui,3.7.1.r371_v20110824-0800,"org.eclipse.jdt.ui.CompilationUnitEditor",1438709288372
activated,editor,org.eclipse.jdt.ui,3.7.1.r371_v20110824-0800,"org.eclipse.jdt.ui.CompilationUnitEditor",1438709292055
deactivated,workbench,org.eclipse.ui.workbench,3.7.0.I20110519-0100,"",1438709299936
activated,workbench,org.eclipse.ui.workbench,3.7.0.I20110519-0100,"",1438709381082
activated,view,org.eclipse.ui.navigator.resources,3.4.300.I20110421-1800,"org.eclipse.ui.navigator.ProjectExplorer",1438709395016
activated,editor,org.eclipse.jdt.ui,3.7.1.r371_v20110824-0800,"org.eclipse.jdt.ui.CompilationUnitEditor",1438709402804
activated,view,org.eclipse.ui.navigator.resources,3.4.300.I20110421-1800,"org.eclipse.ui.navigator.ProjectExplorer",1438709413179
deactivated,workbench,org.eclipse.ui.workbench,3.7.0.I20110519-0100,"",1438709419684
activated,workbench,org.eclipse.ui.workbench,3.7.0.I20110519-0100,"",1438709437099
deactivated,workbench,org.eclipse.ui.workbench,3.7.0.I20110519-0100,"",1438709441165
activated,workbench,org.eclipse.ui.workbench,3.7.0.I20110519-0100,"",1438709451717
deactivated,workbench,org.eclipse.ui.workbench,3.7.0.I20110519-0100,"",1438709473142
activated,workbench,org.eclipse.ui.workbench,3.7.0.I20110519-0100,"",1438709475006
deactivated,workbench,org.eclipse.ui.workbench,3.7.0.I20110519-0100,"",1438709477131
activated,workbench,org.eclipse.ui.workbench,3.7.0.I20110519-0100,"",1438709576483
activated,editor,org.eclipse.jdt.ui,3.7.1.r371_v20110824-0800,"org.eclipse.jdt.ui.CompilationUnitEditor",1438709580416
deactivated,workbench,org.eclipse.ui.workbench,3.7.0.I20110519-0100,"",1438709581617
activated,workbench,org.eclipse.ui.workbench,3.7.0.I20110519-0100,"",1438709584476
executed,command,org.eclipse.ui,3.7.0.I20110602-0100,"org.eclipse.ui.edit.text.contentAssist.proposals",1438709586654
deactivated,workbench,org.eclipse.ui.workbench,3.7.0.I20110519-0100,"",1438709607109
activated,workbench,org.eclipse.ui.workbench,3.7.0.I20110519-0100,"",1438709631366
executed,command,org.eclipse.jdt.ui,3.7.1.r371_v20110824-0800,"org.eclipse.jdt.ui.edit.text.java.override.methods",1438709631576
deactivated,workbench,org.eclipse.ui.workbench,3.7.0.I20110519-0100,"",1438709636066
activated,workbench,org.eclipse.ui.workbench,3.7.0.I20110519-0100,"",1438709637339
executed,command,org.eclipse.ui.workbench.texteditor,3.7.0.v20110505-0800,"org.eclipse.ui.edit.text.goto.lineEnd",1438709639658
executed,command,org.eclipse.ui.workbench.texteditor,3.7.0.v20110505-0800,"org.eclipse.ui.edit.text.select.wordPrevious",1438709640656
executed,command,org.eclipse.ui.workbench.texteditor,3.7.0.v20110505-0800,"org.eclipse.ui.edit.text.goto.lineStart",1438709644229
deactivated,workbench,org.eclipse.ui.workbench,3.7.0.I20110519-0100,"",1438709645035
activated,workbench,org.eclipse.ui.workbench,3.7.0.I20110519-0100,"",1438709660945
executed,command,org.eclipse.ui.workbench.texteditor,3.7.0.v20110505-0800,"org.eclipse.ui.edit.text.goto.lineEnd",1438709664014
deactivated,workbench,org.eclipse.ui.workbench,3.7.0.I20110519-0100,"",1438709665136
activated,workbench,org.eclipse.ui.workbench,3.7.0.I20110519-0100,"",1438709665984
deactivated,workbench,org.eclipse.ui.workbench,3.7.0.I20110519-0100,"",1438709667611
activated,workbench,org.eclipse.ui.workbench,3.7.0.I20110519-0100,"",1438709668991
deactivated,workbench,org.eclipse.ui.workbench,3.7.0.I20110519-0100,"",1438709673222
activated,workbench,org.eclipse.ui.workbench,3.7.0.I20110519-0100,"",1438709674127
executed,command,org.eclipse.ui,3.7.0.I20110602-0100,"org.eclipse.ui.edit.text.contentAssist.proposals",1438709674628
deactivated,workbench,org.eclipse.ui.workbench,3.7.0.I20110519-0100,"",1438709677464
activated,workbench,org.eclipse.ui.workbench,3.7.0.I20110519-0100,"",1438709679126
deactivated,workbench,org.eclipse.ui.workbench,3.7.0.I20110519-0100,"",1438709686963
activated,workbench,org.eclipse.ui.workbench,3.7.0.I20110519-0100,"",1438709688239
executed,command,org.eclipse.ui.workbench.texteditor,3.7.0.v20110505-0800,"org.eclipse.ui.edit.text.goto.lineEnd",1438709689952
deactivated,workbench,org.eclipse.ui.workbench,3.7.0.I20110519-0100,"",1438709690679
activated,workbench,org.eclipse.ui.workbench,3.7.0.I20110519-0100,"",1438709692508
executed,command,org.eclipse.ui,3.7.0.I20110602-0100,"org.eclipse.ui.edit.text.contentAssist.proposals",1438709696467
deactivated,workbench,org.eclipse.ui.workbench,3.7.0.I20110519-0100,"",1438709708531
activated,workbench,org.eclipse.ui.workbench,3.7.0.I20110519-0100,"",1438709709924
executed,command,org.eclipse.ui,3.7.0.I20110602-0100,"org.eclipse.ui.edit.text.contentAssist.proposals",1438709715693
executed,command,org.eclipse.ui,3.7.0.I20110602-0100,"org.eclipse.ui.edit.delete",1438709724734
executed,command,org.eclipse.ui,3.7.0.I20110602-0100,"org.eclipse.ui.file.save",1438709730912
deactivated,workbench,org.eclipse.ui.workbench,3.7.0.I20110519-0100,"",1438709731373
activated,workbench,org.eclipse.ui.workbench,3.7.0.I20110519-0100,"",1438709732719
executed,command,org.eclipse.ui,3.7.0.I20110602-0100,"org.eclipse.ui.file.save",1438709736871
deactivated,workbench,org.eclipse.ui.workbench,3.7.0.I20110519-0100,"",1438709737564
activated,workbench,org.eclipse.ui.workbench,3.7.0.I20110519-0100,"",1438709743213
deactivated,workbench,org.eclipse.ui.workbench,3.7.0.I20110519-0100,"",1438709745382
activated,workbench,org.eclipse.ui.workbench,3.7.0.I20110519-0100,"",1438709749156
activated,view,org.eclipse.wst.server.ui,1.1.306.v20110823_1704,"org.eclipse.wst.server.ui.ServersView",1438709749299
activated,view,org.eclipse.ui.console,3.5.100.v20110511,"org.eclipse.ui.console.ConsoleView",1438709749877
activated,view,org.eclipse.wst.server.ui,1.1.306.v20110823_1704,"org.eclipse.wst.server.ui.ServersView",1438709751617
opened,editor,org.eclipse.ui.browser,3.3.100.v20110426,"org.eclipse.ui.browser.editor",1438709751857
activated,editor,org.eclipse.ui.browser,3.3.100.v20110426,"org.eclipse.ui.browser.editor",1438709751906
activated,view,org.eclipse.ui.console,3.5.100.v20110511,"org.eclipse.ui.console.ConsoleView",1438709758506
activated,editor,org.eclipse.ui.browser,3.3.100.v20110426,"org.eclipse.ui.browser.editor",1438709760827
activated,view,org.eclipse.ui.console,3.5.100.v20110511,"org.eclipse.ui.console.ConsoleView",1438709761165
activated,editor,org.eclipse.ui.browser,3.3.100.v20110426,"org.eclipse.ui.browser.editor",1438709774558
activated,editor,org.eclipse.jdt.ui,3.7.1.r371_v20110824-0800,"org.eclipse.jdt.ui.CompilationUnitEditor",1438709774609
executed,command,org.eclipse.ui.workbench.texteditor,3.7.0.v20110505-0800,"org.eclipse.ui.edit.text.select.wordPrevious",1438709777990
executed,command,org.eclipse.ui.workbench.texteditor,3.7.0.v20110505-0800,"org.eclipse.ui.edit.text.select.wordPrevious",1438709778236
executed,command,org.eclipse.ui.workbench.texteditor,3.7.0.v20110505-0800,"org.eclipse.ui.edit.text.select.wordPrevious",1438709778611
executed,command,org.eclipse.ui,3.7.0.I20110602-0100,"org.eclipse.ui.file.save",1438709786111
activated,editor,org.eclipse.ui.browser,3.3.100.v20110426,"org.eclipse.ui.browser.editor",1438709788663
activated,view,org.eclipse.ui.console,3.5.100.v20110511,"org.eclipse.ui.console.ConsoleView",1438709790144
activated,editor,org.eclipse.ui.browser,3.3.100.v20110426,"org.eclipse.ui.browser.editor",1438709791289
deactivated,workbench,org.eclipse.ui.workbench,3.7.0.I20110519-0100,"",1438709792664
activated,workbench,org.eclipse.ui.workbench,3.7.0.I20110519-0100,"",1438709830304
deactivated,workbench,org.eclipse.ui.workbench,3.7.0.I20110519-0100,"",1438709832329
activated,workbench,org.eclipse.ui.workbench,3.7.0.I20110519-0100,"",1438709834752
deactivated,workbench,org.eclipse.ui.workbench,3.7.0.I20110519-0100,"",1438709835570
activated,workbench,org.eclipse.ui.workbench,3.7.0.I20110519-0100,"",1438709865780
deactivated,workbench,org.eclipse.ui.workbench,3.7.0.I20110519-0100,"",1438709866700
activated,workbench,org.eclipse.ui.workbench,3.7.0.I20110519-0100,"",1438710061320
activated,view,org.eclipse.ui.navigator.resources,3.4.300.I20110421-1800,"org.eclipse.ui.navigator.ProjectExplorer",1438710062965
deactivated,workbench,org.eclipse.ui.workbench,3.7.0.I20110519-0100,"",1438710070969
activated,workbench,org.eclipse.ui.workbench,3.7.0.I20110519-0100,"",1438710123377
deactivated,workbench,org.eclipse.ui.workbench,3.7.0.I20110519-0100,"",1438710129948
activated,workbench,org.eclipse.ui.workbench,3.7.0.I20110519-0100,"",1438710136580
deactivated,workbench,org.eclipse.ui.workbench,3.7.0.I20110519-0100,"",1438710143109
executed,command,org.eclipse.ui,3.7.0.I20110602-0100,"org.eclipse.ui.edit.paste",1438710209443
activated,workbench,org.eclipse.ui.workbench,3.7.0.I20110519-0100,"",1438710225256
deactivated,workbench,org.eclipse.ui.workbench,3.7.0.I20110519-0100,"",1438710238896
executed,command,org.eclipse.ui,3.7.0.I20110602-0100,"org.eclipse.ui.edit.paste",1438710240042
activated,workbench,org.eclipse.ui.workbench,3.7.0.I20110519-0100,"",1438710242046
deactivated,workbench,org.eclipse.ui.workbench,3.7.0.I20110519-0100,"",1438710243047
activated,workbench,org.eclipse.ui.workbench,3.7.0.I20110519-0100,"",1438710626593
deactivated,workbench,org.eclipse.ui.workbench,3.7.0.I20110519-0100,"",1438710630998
activated,workbench,org.eclipse.ui.workbench,3.7.0.I20110519-0100,"",1438710965138
deactivated,workbench,org.eclipse.ui.workbench,3.7.0.I20110519-0100,"",1438710971381
activated,workbench,org.eclipse.ui.workbench,3.7.0.I20110519-0100,"",1438711238656
deactivated,workbench,org.eclipse.ui.workbench,3.7.0.I20110519-0100,"",1438711239596
activated,workbench,org.eclipse.ui.workbench,3.7.0.I20110519-0100,"",1438711493446
deactivated,workbench,org.eclipse.ui.workbench,3.7.0.I20110519-0100,"",1438711493948
activated,workbench,org.eclipse.ui.workbench,3.7.0.I20110519-0100,"",1438712829567
deactivated,workbench,org.eclipse.ui.workbench,3.7.0.I20110519-0100,"",1438712832613
activated,workbench,org.eclipse.ui.workbench,3.7.0.I20110519-0100,"",1438712842131
deactivated,workbench,org.eclipse.ui.workbench,3.7.0.I20110519-0100,"",1438712852191
activated,workbench,org.eclipse.ui.workbench,3.7.0.I20110519-0100,"",1438712878904
executed,command,org.eclipse.ui,3.7.0.I20110602-0100,"org.eclipse.ui.file.import",1438712878914
executed,command,org.eclipse.ui,3.7.0.I20110602-0100,"org.eclipse.ui.file.import",1438712878914
deactivated,workbench,org.eclipse.ui.workbench,3.7.0.I20110519-0100,"",1438712888140
activated,workbench,org.eclipse.ui.workbench,3.7.0.I20110519-0100,"",1438712893504
deactivated,workbench,org.eclipse.ui.workbench,3.7.0.I20110519-0100,"",1438712896151
activated,workbench,org.eclipse.ui.workbench,3.7.0.I20110519-0100,"",1438712898557
deactivated,workbench,org.eclipse.ui.workbench,3.7.0.I20110519-0100,"",1438712901930
activated,workbench,org.eclipse.ui.workbench,3.7.0.I20110519-0100,"",1438712908958
deactivated,workbench,org.eclipse.ui.workbench,3.7.0.I20110519-0100,"",1438712909501
activated,workbench,org.eclipse.ui.workbench,3.7.0.I20110519-0100,"",1438712919222
deactivated,workbench,org.eclipse.ui.workbench,3.7.0.I20110519-0100,"",1438712919243
activated,workbench,org.eclipse.ui.workbench,3.7.0.I20110519-0100,"",1438712921021
deactivated,workbench,org.eclipse.ui.workbench,3.7.0.I20110519-0100,"",1438712921918
activated,workbench,org.eclipse.ui.workbench,3.7.0.I20110519-0100,"",1438712925552
deactivated,workbench,org.eclipse.ui.workbench,3.7.0.I20110519-0100,"",1438712925968
activated,workbench,org.eclipse.ui.workbench,3.7.0.I20110519-0100,"",1438712929657
deactivated,workbench,org.eclipse.ui.workbench,3.7.0.I20110519-0100,"",1438712930172
activated,workbench,org.eclipse.ui.workbench,3.7.0.I20110519-0100,"",1438712944862
deactivated,workbench,org.eclipse.ui.workbench,3.7.0.I20110519-0100,"",1438712945387
activated,workbench,org.eclipse.ui.workbench,3.7.0.I20110519-0100,"",1438712948427
deactivated,workbench,org.eclipse.ui.workbench,3.7.0.I20110519-0100,"",1438712948864
activated,workbench,org.eclipse.ui.workbench,3.7.0.I20110519-0100,"",1438712957675
deactivated,workbench,org.eclipse.ui.workbench,3.7.0.I20110519-0100,"",1438712958369
activated,workbench,org.eclipse.ui.workbench,3.7.0.I20110519-0100,"",1438712961387
deactivated,workbench,org.eclipse.ui.workbench,3.7.0.I20110519-0100,"",1438712961954
activated,workbench,org.eclipse.ui.workbench,3.7.0.I20110519-0100,"",1438712971512
deactivated,workbench,org.eclipse.ui.workbench,3.7.0.I20110519-0100,"",1438712972022
activated,workbench,org.eclipse.ui.workbench,3.7.0.I20110519-0100,"",1438712985113
deactivated,workbench,org.eclipse.ui.workbench,3.7.0.I20110519-0100,"",1438712985554
activated,workbench,org.eclipse.ui.workbench,3.7.0.I20110519-0100,"",1438712993364
deactivated,workbench,org.eclipse.ui.workbench,3.7.0.I20110519-0100,"",1438712993817
activated,workbench,org.eclipse.ui.workbench,3.7.0.I20110519-0100,"",1438713003294
deactivated,workbench,org.eclipse.ui.workbench,3.7.0.I20110519-0100,"",1438713003752
activated,workbench,org.eclipse.ui.workbench,3.7.0.I20110519-0100,"",1438713023325
deactivated,workbench,org.eclipse.ui.workbench,3.7.0.I20110519-0100,"",1438713023762
activated,workbench,org.eclipse.ui.workbench,3.7.0.I20110519-0100,"",1438713027814
deactivated,workbench,org.eclipse.ui.workbench,3.7.0.I20110519-0100,"",1438713028219
activated,workbench,org.eclipse.ui.workbench,3.7.0.I20110519-0100,"",1438713050184
deactivated,workbench,org.eclipse.ui.workbench,3.7.0.I20110519-0100,"",1438713050206
activated,workbench,org.eclipse.ui.workbench,3.7.0.I20110519-0100,"",1438713051909
deactivated,workbench,org.eclipse.ui.workbench,3.7.0.I20110519-0100,"",1438713056379
activated,workbench,org.eclipse.ui.workbench,3.7.0.I20110519-0100,"",1438713073251
activated,editor,org.eclipse.ui.browser,3.3.100.v20110426,"org.eclipse.ui.browser.editor",1438713074313
activated,editor,org.eclipse.jdt.ui,3.7.1.r371_v20110824-0800,"org.eclipse.jdt.ui.CompilationUnitEditor",1438713077560
closed,editor,org.eclipse.ui.browser,3.3.100.v20110426,"org.eclipse.ui.browser.editor",1438713077560
closed,editor,org.eclipse.ui.browser,3.3.100.v20110426,"org.eclipse.ui.browser.editor",1438713079275
closed,editor,org.eclipse.jdt.ui,3.7.1.r371_v20110824-0800,"org.eclipse.jdt.ui.CompilationUnitEditor",1438713080726
activated,view,org.eclipse.ui.navigator.resources,3.4.300.I20110421-1800,"org.eclipse.ui.navigator.ProjectExplorer",1438713081754
closed,editor,org.eclipse.jdt.ui,3.7.1.r371_v20110824-0800,"org.eclipse.jdt.ui.CompilationUnitEditor",1438713081755
deactivated,workbench,org.eclipse.ui.workbench,3.7.0.I20110519-0100,"",1438713082028
activated,workbench,org.eclipse.ui.workbench,3.7.0.I20110519-0100,"",1438713106379
deactivated,workbench,org.eclipse.ui.workbench,3.7.0.I20110519-0100,"",1438713106891
activated,workbench,org.eclipse.ui.workbench,3.7.0.I20110519-0100,"",1438713112939
deactivated,workbench,org.eclipse.ui.workbench,3.7.0.I20110519-0100,"",1438713121764
activated,workbench,org.eclipse.ui.workbench,3.7.0.I20110519-0100,"",1438713156940
opened,editor,org.eclipse.jdt.ui,3.7.1.r371_v20110824-0800,"org.eclipse.jdt.ui.CompilationUnitEditor",1438713157387
activated,editor,org.eclipse.jdt.ui,3.7.1.r371_v20110824-0800,"org.eclipse.jdt.ui.CompilationUnitEditor",1438713157401
deactivated,workbench,org.eclipse.ui.workbench,3.7.0.I20110519-0100,"",1438713158394
activated,workbench,org.eclipse.ui.workbench,3.7.0.I20110519-0100,"",1438713187702
executed,command,org.eclipse.ui,3.7.0.I20110602-0100,"org.eclipse.ui.edit.paste",1438713191655
executed,command,org.eclipse.ui,3.7.0.I20110602-0100,"org.eclipse.ui.edit.delete",1438713200438
executed,command,org.eclipse.ui,3.7.0.I20110602-0100,"org.eclipse.ui.edit.delete",1438713201156
executed,command,org.eclipse.ui,3.7.0.I20110602-0100,"org.eclipse.ui.edit.delete",1438713203354
executed,command,org.eclipse.ui,3.7.0.I20110602-0100,"org.eclipse.ui.file.save",1438713205099
deactivated,workbench,org.eclipse.ui.workbench,3.7.0.I20110519-0100,"",1438713215924
activated,workbench,org.eclipse.ui.workbench,3.7.0.I20110519-0100,"",1438713230055
deactivated,workbench,org.eclipse.ui.workbench,3.7.0.I20110519-0100,"",1438713242604
activated,workbench,org.eclipse.ui.workbench,3.7.0.I20110519-0100,"",1438713261044
deactivated,workbench,org.eclipse.ui.workbench,3.7.0.I20110519-0100,"",1438713263482
activated,workbench,org.eclipse.ui.workbench,3.7.0.I20110519-0100,"",1438713510702
executed,command,org.eclipse.ui.workbench.texteditor,3.7.0.v20110505-0800,"org.eclipse.ui.edit.text.select.lineStart",1438713550902
executed,command,org.eclipse.ui,3.7.0.I20110602-0100,"org.eclipse.ui.edit.delete",1438713551418
executed,command,org.eclipse.ui,3.7.0.I20110602-0100,"org.eclipse.ui.edit.delete",1438713554161
executed,command,org.eclipse.ui,3.7.0.I20110602-0100,"org.eclipse.ui.file.save",1438713558359
executed,command,,,"AUTOGEN:::org.eclipse.jdt.internal.ui.CompilationUnitEditor.ruler.actions/org.eclipse.jdt.internal.ui.javaeditor.JavaSelectRulerAction",1438713565802
deactivated,workbench,org.eclipse.ui.workbench,3.7.0.I20110519-0100,"",1438713568877
activated,workbench,org.eclipse.ui.workbench,3.7.0.I20110519-0100,"",1438713572352
deactivated,workbench,org.eclipse.ui.workbench,3.7.0.I20110519-0100,"",1438713572424
activated,workbench,org.eclipse.ui.workbench,3.7.0.I20110519-0100,"",1438713575065
executed,command,,,"AUTOGEN:::org.eclipse.jdt.debug.CompilationUnitEditor.BreakpointRulerActions/org.eclipse.jdt.debug.ui.actions.ManageBreakpointRulerAction",1438713581346
executed,command,,,"AUTOGEN:::org.eclipse.jdt.internal.ui.CompilationUnitEditor.ruler.actions/org.eclipse.jdt.internal.ui.javaeditor.JavaSelectRulerAction",1438713584610
deactivated,workbench,org.eclipse.ui.workbench,3.7.0.I20110519-0100,"",1438713593580
activated,workbench,org.eclipse.ui.workbench,3.7.0.I20110519-0100,"",1438713596749
deactivated,workbench,org.eclipse.ui.workbench,3.7.0.I20110519-0100,"",1438713596889
activated,workbench,org.eclipse.ui.workbench,3.7.0.I20110519-0100,"",1438713599159
executed,command,org.eclipse.ui,3.7.0.I20110602-0100,"org.eclipse.ui.edit.text.contentAssist.proposals",1438713616094
executed,command,org.eclipse.ui,3.7.0.I20110602-0100,"org.eclipse.ui.edit.text.contentAssist.proposals",1438713617900
executed,command,org.eclipse.ui.workbench.texteditor,3.7.0.v20110505-0800,"org.eclipse.ui.edit.text.select.lineStart",1438713631946
executed,command,org.eclipse.ui,3.7.0.I20110602-0100,"org.eclipse.ui.edit.delete",1438713632376
executed,command,org.eclipse.ui,3.7.0.I20110602-0100,"org.eclipse.ui.edit.delete",1438713633315
executed,command,org.eclipse.ui,3.7.0.I20110602-0100,"org.eclipse.ui.file.save",1438713635967
deactivated,workbench,org.eclipse.ui.workbench,3.7.0.I20110519-0100,"",1438713638907
activated,workbench,org.eclipse.ui.workbench,3.7.0.I20110519-0100,"",1438713639707
activated,view,org.eclipse.ui.navigator.resources,3.4.300.I20110421-1800,"org.eclipse.ui.navigator.ProjectExplorer",1438713642590
executed,command,org.eclipse.ui,3.7.0.I20110602-0100,"org.eclipse.ui.file.refresh",1438713647450
deactivated,workbench,org.eclipse.ui.workbench,3.7.0.I20110519-0100,"",1438713648450
activated,workbench,org.eclipse.ui.workbench,3.7.0.I20110519-0100,"",1438713691941
