<?xml version="1.0" encoding="UTF-8"?>
<session version="1.0">
<refactoring comment="Copy element &apos;context.xml&apos; to &apos;ConnectionPooling&apos;&#x0D;&#x0A;- Original project: &apos;Servers&apos;&#x0D;&#x0A;- Destination element: &apos;ConnectionPooling&apos;&#x0D;&#x0A;- Original element: &apos;context.xml&apos;" description="Copy file" destination="=ConnectionPooling" element1="Tomcat v6.0 Server at localhost-config/context.xml" files="1" flags="589830" folders="0" id="org.eclipse.jdt.ui.copy" policy="org.eclipse.jdt.ui.copyResources" stamp="1358276805788" units="0" version="1.0"/>
</session>