what,kind,bundleId,bundleVersion,description,time
deactivated,workbench,org.eclipse.ui.workbench,3.7.0.I20110519-0100,"",1356247174109
activated,workbench,org.eclipse.ui.workbench,3.7.0.I20110519-0100,"",1356247188330
deactivated,workbench,org.eclipse.ui.workbench,3.7.0.I20110519-0100,"",1356247195790
activated,workbench,org.eclipse.ui.workbench,3.7.0.I20110519-0100,"",1356247214650
opened,editor,org.eclipse.jst.jsp.ui,1.1.601.v201108151912,"org.eclipse.jst.jsp.core.jspsource.source",1356247215195
activated,editor,org.eclipse.jst.jsp.ui,1.1.601.v201108151912,"org.eclipse.jst.jsp.core.jspsource.source",1356247215265
deactivated,workbench,org.eclipse.ui.workbench,3.7.0.I20110519-0100,"",1356248137857
activated,workbench,org.eclipse.ui.workbench,3.7.0.I20110519-0100,"",1356248440516
activated,view,org.eclipse.ui.navigator.resources,3.4.300.I20110421-1800,"org.eclipse.ui.navigator.ProjectExplorer",1356248481603
activated,editor,org.eclipse.jst.jsp.ui,1.1.601.v201108151912,"org.eclipse.jst.jsp.core.jspsource.source",1356248494498
activated,view,org.eclipse.ui.navigator.resources,3.4.300.I20110421-1800,"org.eclipse.ui.navigator.ProjectExplorer",1356248500568
activated,editor,org.eclipse.jst.jsp.ui,1.1.601.v201108151912,"org.eclipse.jst.jsp.core.jspsource.source",1356248569228
activated,view,org.eclipse.ui.navigator.resources,3.4.300.I20110421-1800,"org.eclipse.ui.navigator.ProjectExplorer",1356248595758
deactivated,workbench,org.eclipse.ui.workbench,3.7.0.I20110519-0100,"",1356248604153
activated,workbench,org.eclipse.ui.workbench,3.7.0.I20110519-0100,"",1356248992274
deactivated,workbench,org.eclipse.ui.workbench,3.7.0.I20110519-0100,"",1356249005726
activated,workbench,org.eclipse.ui.workbench,3.7.0.I20110519-0100,"",1356251398226
deactivated,workbench,org.eclipse.ui.workbench,3.7.0.I20110519-0100,"",1356251409343
activated,workbench,org.eclipse.ui.workbench,3.7.0.I20110519-0100,"",1356251609704
activated,editor,org.eclipse.jst.jsp.ui,1.1.601.v201108151912,"org.eclipse.jst.jsp.core.jspsource.source",1356251610449
deactivated,workbench,org.eclipse.ui.workbench,3.7.0.I20110519-0100,"",1356251701248
activated,workbench,org.eclipse.ui.workbench,3.7.0.I20110519-0100,"",1356251862943
activated,view,org.eclipse.ui.navigator.resources,3.4.300.I20110421-1800,"org.eclipse.ui.navigator.ProjectExplorer",1356251867706
activated,view,org.eclipse.ui.views,3.6.0.I20110412-0800,"org.eclipse.ui.views.ContentOutline",1356252234120
activated,editor,org.eclipse.jst.jsp.ui,1.1.601.v201108151912,"org.eclipse.jst.jsp.core.jspsource.source",1356252236050
executed,command,org.eclipse.ui.workbench.texteditor,3.7.0.v20110505-0800,"org.eclipse.ui.edit.text.select.lineEnd",1356252254768
executed,command,org.eclipse.ui,3.7.0.I20110602-0100,"org.eclipse.ui.edit.delete",1356252255325
executed,command,org.eclipse.ui,3.7.0.I20110602-0100,"org.eclipse.ui.file.save",1356252257008
deactivated,workbench,org.eclipse.ui.workbench,3.7.0.I20110519-0100,"",1356252267443
activated,workbench,org.eclipse.ui.workbench,3.7.0.I20110519-0100,"",1356252283449
deactivated,workbench,org.eclipse.ui.workbench,3.7.0.I20110519-0100,"",1356252284926
activated,workbench,org.eclipse.ui.workbench,3.7.0.I20110519-0100,"",1356252470206
executed,command,org.eclipse.ui,3.7.0.I20110602-0100,"org.eclipse.ui.edit.paste",1356252472846
executed,command,org.eclipse.ui,3.7.0.I20110602-0100,"org.eclipse.ui.file.save",1356252474064
deactivated,workbench,org.eclipse.ui.workbench,3.7.0.I20110519-0100,"",1356252480661
activated,workbench,org.eclipse.ui.workbench,3.7.0.I20110519-0100,"",1356252549481
activated,view,org.eclipse.ui.console,3.5.100.v20110511,"org.eclipse.ui.console.ConsoleView",1356252555578
activated,view,org.eclipse.ui.navigator.resources,3.4.300.I20110421-1800,"org.eclipse.ui.navigator.ProjectExplorer",1356252567096
opened,editor,org.eclipse.jst.jsp.ui,1.1.601.v201108151912,"org.eclipse.jst.jsp.core.jspsource.source",1356252575051
activated,editor,org.eclipse.jst.jsp.ui,1.1.601.v201108151912,"org.eclipse.jst.jsp.core.jspsource.source",1356252575196
executed,command,org.eclipse.ui,3.7.0.I20110602-0100,"org.eclipse.ui.file.save",1356252614884
deactivated,workbench,org.eclipse.ui.workbench,3.7.0.I20110519-0100,"",1356252713652
activated,workbench,org.eclipse.ui.workbench,3.7.0.I20110519-0100,"",1356252876597
activated,view,org.eclipse.ui.navigator.resources,3.4.300.I20110421-1800,"org.eclipse.ui.navigator.ProjectExplorer",1356252903855
opened,editor,org.eclipse.jst.jsp.ui,1.1.601.v201108151912,"org.eclipse.jst.jsp.core.jspsource.source",1356252904215
activated,editor,org.eclipse.jst.jsp.ui,1.1.601.v201108151912,"org.eclipse.jst.jsp.core.jspsource.source",1356252904378
executed,command,org.eclipse.ui,3.7.0.I20110602-0100,"org.eclipse.ui.edit.copy",1356252925855
activated,view,org.eclipse.ui.navigator.resources,3.4.300.I20110421-1800,"org.eclipse.ui.navigator.ProjectExplorer",1356252933463
deactivated,workbench,org.eclipse.ui.workbench,3.7.0.I20110519-0100,"",1356252938071
activated,workbench,org.eclipse.ui.workbench,3.7.0.I20110519-0100,"",1356252942466
opened,editor,org.eclipse.jst.jsp.ui,1.1.601.v201108151912,"org.eclipse.jst.jsp.core.jspsource.source",1356252943016
activated,editor,org.eclipse.jst.jsp.ui,1.1.601.v201108151912,"org.eclipse.jst.jsp.core.jspsource.source",1356252943151
executed,command,org.eclipse.ui,3.7.0.I20110602-0100,"org.eclipse.ui.edit.paste",1356252959333
executed,command,org.eclipse.ui,3.7.0.I20110602-0100,"org.eclipse.ui.file.save",1356252960858
executed,command,org.eclipse.ui,3.7.0.I20110602-0100,"org.eclipse.ui.edit.delete",1356252970364
executed,command,org.eclipse.ui.workbench.texteditor,3.7.0.v20110505-0800,"org.eclipse.ui.edit.text.goto.lineEnd",1356252972254
executed,command,org.eclipse.ui,3.7.0.I20110602-0100,"org.eclipse.ui.edit.delete",1356252978049
executed,command,org.eclipse.ui.workbench.texteditor,3.7.0.v20110505-0800,"org.eclipse.ui.edit.text.goto.lineStart",1356252980906
executed,command,org.eclipse.ui,3.7.0.I20110602-0100,"org.eclipse.ui.file.save",1356253043412
executed,command,org.eclipse.ui,3.7.0.I20110602-0100,"org.eclipse.ui.file.save",1356253157017
executed,command,org.eclipse.ui,3.7.0.I20110602-0100,"org.eclipse.ui.file.save",1356253189763
deactivated,workbench,org.eclipse.ui.workbench,3.7.0.I20110519-0100,"",1356253197339
activated,workbench,org.eclipse.ui.workbench,3.7.0.I20110519-0100,"",1356253214132
executed,command,org.eclipse.ui,3.7.0.I20110602-0100,"org.eclipse.ui.edit.paste",1356253219177
executed,command,org.eclipse.ui,3.7.0.I20110602-0100,"org.eclipse.ui.file.save",1356253220954
executed,command,org.eclipse.ui,3.7.0.I20110602-0100,"org.eclipse.ui.file.save",1356253267635
deactivated,workbench,org.eclipse.ui.workbench,3.7.0.I20110519-0100,"",1356253381419
activated,workbench,org.eclipse.ui.workbench,3.7.0.I20110519-0100,"",1356253486973
deactivated,workbench,org.eclipse.ui.workbench,3.7.0.I20110519-0100,"",1356253490663
activated,workbench,org.eclipse.ui.workbench,3.7.0.I20110519-0100,"",1356253492271
executed,command,org.eclipse.ui,3.7.0.I20110602-0100,"org.eclipse.ui.file.save",1356253496066
executed,command,org.eclipse.ui,3.7.0.I20110602-0100,"org.eclipse.ui.edit.copy",1356253642096
activated,view,org.eclipse.ui.navigator.resources,3.4.300.I20110421-1800,"org.eclipse.ui.navigator.ProjectExplorer",1356253647376
opened,editor,org.eclipse.jst.jsp.ui,1.1.601.v201108151912,"org.eclipse.jst.jsp.core.jspsource.source",1356253647726
activated,editor,org.eclipse.jst.jsp.ui,1.1.601.v201108151912,"org.eclipse.jst.jsp.core.jspsource.source",1356253647873
executed,command,org.eclipse.ui,3.7.0.I20110602-0100,"org.eclipse.ui.edit.paste",1356253665938
executed,command,org.eclipse.ui,3.7.0.I20110602-0100,"org.eclipse.ui.file.save",1356253668176
activated,view,org.eclipse.ui.navigator.resources,3.4.300.I20110421-1800,"org.eclipse.ui.navigator.ProjectExplorer",1356253674801
deactivated,workbench,org.eclipse.ui.workbench,3.7.0.I20110519-0100,"",1356253677414
activated,workbench,org.eclipse.ui.workbench,3.7.0.I20110519-0100,"",1356253720820
activated,editor,org.eclipse.jst.jsp.ui,1.1.601.v201108151912,"org.eclipse.jst.jsp.core.jspsource.source",1356253721825
activated,editor,org.eclipse.jst.jsp.ui,1.1.601.v201108151912,"org.eclipse.jst.jsp.core.jspsource.source",1356253761101
activated,editor,org.eclipse.jst.jsp.ui,1.1.601.v201108151912,"org.eclipse.jst.jsp.core.jspsource.source",1356253792111
executed,command,org.eclipse.ui,3.7.0.I20110602-0100,"org.eclipse.ui.edit.copy",1356253807729
activated,editor,org.eclipse.jst.jsp.ui,1.1.601.v201108151912,"org.eclipse.jst.jsp.core.jspsource.source",1356253813017
executed,command,org.eclipse.ui,3.7.0.I20110602-0100,"org.eclipse.ui.edit.paste",1356253820862
deactivated,workbench,org.eclipse.ui.workbench,3.7.0.I20110519-0100,"",1356253840342
activated,workbench,org.eclipse.ui.workbench,3.7.0.I20110519-0100,"",1356253846187
executed,command,org.eclipse.ui,3.7.0.I20110602-0100,"org.eclipse.ui.file.save",1356253852895
executed,command,org.eclipse.ui,3.7.0.I20110602-0100,"org.eclipse.ui.edit.copy",1356253856910
activated,editor,org.eclipse.jst.jsp.ui,1.1.601.v201108151912,"org.eclipse.jst.jsp.core.jspsource.source",1356253859782
executed,command,org.eclipse.ui,3.7.0.I20110602-0100,"org.eclipse.ui.edit.paste",1356253862710
executed,command,org.eclipse.ui,3.7.0.I20110602-0100,"org.eclipse.ui.file.save",1356253864597
executed,command,org.eclipse.ui,3.7.0.I20110602-0100,"org.eclipse.ui.edit.paste",1356253878230
executed,command,org.eclipse.ui,3.7.0.I20110602-0100,"org.eclipse.ui.file.save",1356253890063
deactivated,workbench,org.eclipse.ui.workbench,3.7.0.I20110519-0100,"",1356253893373
activated,workbench,org.eclipse.ui.workbench,3.7.0.I20110519-0100,"",1356253899436
activated,editor,org.eclipse.jst.jsp.ui,1.1.601.v201108151912,"org.eclipse.jst.jsp.core.jspsource.source",1356253901578
executed,command,org.eclipse.ui,3.7.0.I20110602-0100,"org.eclipse.ui.file.save",1356253910313
deactivated,workbench,org.eclipse.ui.workbench,3.7.0.I20110519-0100,"",1356253913238
activated,workbench,org.eclipse.ui.workbench,3.7.0.I20110519-0100,"",1356254004446
activated,view,org.eclipse.ui.navigator.resources,3.4.300.I20110421-1800,"org.eclipse.ui.navigator.ProjectExplorer",1356254021981
activated,editor,org.eclipse.jst.jsp.ui,1.1.601.v201108151912,"org.eclipse.jst.jsp.core.jspsource.source",1356254031199
deactivated,workbench,org.eclipse.ui.workbench,3.7.0.I20110519-0100,"",1356254068909
activated,workbench,org.eclipse.ui.workbench,3.7.0.I20110519-0100,"",1356254117552
activated,view,org.eclipse.ui.navigator.resources,3.4.300.I20110421-1800,"org.eclipse.ui.navigator.ProjectExplorer",1356254119397
activated,editor,org.eclipse.jst.jsp.ui,1.1.601.v201108151912,"org.eclipse.jst.jsp.core.jspsource.source",1356254161986
activated,editor,org.eclipse.jst.jsp.ui,1.1.601.v201108151912,"org.eclipse.jst.jsp.core.jspsource.source",1356254166756
activated,view,org.eclipse.ui.navigator.resources,3.4.300.I20110421-1800,"org.eclipse.ui.navigator.ProjectExplorer",1356254170921
deactivated,workbench,org.eclipse.ui.workbench,3.7.0.I20110519-0100,"",1356254176501
error,log,,,"Problems occurred when invoking code from plug-in: ""org.eclipse.ui.navigator"".",1356254177768
error,log,,,"An exception occurred invoking extension: org.eclipse.jst.jee.ui.web for object P/ButtonActions",1356254177771
activated,workbench,org.eclipse.ui.workbench,3.7.0.I20110519-0100,"",1356254177913
executed,command,org.eclipse.ltk.ui.refactoring,3.6.0.v20110505-0800,"org.eclipse.ltk.ui.refactoring.commands.deleteResources",1356254177926
executed,command,org.eclipse.ui,3.7.0.I20110602-0100,"org.eclipse.ui.edit.delete",1356254177926
closed,editor,org.eclipse.jst.jsp.ui,1.1.601.v201108151912,"org.eclipse.jst.jsp.core.jspsource.source",1356254178061
deactivated,workbench,org.eclipse.ui.workbench,3.7.0.I20110519-0100,"",1356254181983
activated,workbench,org.eclipse.ui.workbench,3.7.0.I20110519-0100,"",1356254197516
activated,editor,org.eclipse.jst.jsp.ui,1.1.601.v201108151912,"org.eclipse.jst.jsp.core.jspsource.source",1356254200839
activated,view,org.eclipse.ui.navigator.resources,3.4.300.I20110421-1800,"org.eclipse.ui.navigator.ProjectExplorer",1356254202724
closed,editor,org.eclipse.jst.jsp.ui,1.1.601.v201108151912,"org.eclipse.jst.jsp.core.jspsource.source",1356254202724
closed,editor,org.eclipse.jst.jsp.ui,1.1.601.v201108151912,"org.eclipse.jst.jsp.core.jspsource.source",1356254202756
closed,editor,org.eclipse.jst.jsp.ui,1.1.601.v201108151912,"org.eclipse.jst.jsp.core.jspsource.source",1356254202789
closed,editor,org.eclipse.jst.jsp.ui,1.1.601.v201108151912,"org.eclipse.jst.jsp.core.jspsource.source",1356254202816
deactivated,workbench,org.eclipse.ui.workbench,3.7.0.I20110519-0100,"",1356254208314
deactivated,workbench,org.eclipse.ui.workbench,3.7.0.I20110519-0100,"",1356254210584
activated,workbench,org.eclipse.ui.workbench,3.7.0.I20110519-0100,"",1356254221746
deactivated,workbench,org.eclipse.ui.workbench,3.7.0.I20110519-0100,"",1356254226577
activated,workbench,org.eclipse.ui.workbench,3.7.0.I20110519-0100,"",1356254229199
opened,editor,org.eclipse.jst.jsp.ui,1.1.601.v201108151912,"org.eclipse.jst.jsp.core.jspsource.source",1356254229874
activated,editor,org.eclipse.jst.jsp.ui,1.1.601.v201108151912,"org.eclipse.jst.jsp.core.jspsource.source",1356254230044
deactivated,workbench,org.eclipse.ui.workbench,3.7.0.I20110519-0100,"",1356254232532
activated,workbench,org.eclipse.ui.workbench,3.7.0.I20110519-0100,"",1356254240164
executed,command,org.eclipse.ui,3.7.0.I20110602-0100,"org.eclipse.ui.edit.paste",1356254241937
executed,command,org.eclipse.ui,3.7.0.I20110602-0100,"org.eclipse.ui.file.save",1356254243459
deactivated,workbench,org.eclipse.ui.workbench,3.7.0.I20110519-0100,"",1356254248059
activated,workbench,org.eclipse.ui.workbench,3.7.0.I20110519-0100,"",1356254274222
activated,view,org.eclipse.ui.navigator.resources,3.4.300.I20110421-1800,"org.eclipse.ui.navigator.ProjectExplorer",1356254277145
deactivated,workbench,org.eclipse.ui.workbench,3.7.0.I20110519-0100,"",1356254279642
executed,command,org.eclipse.ui,3.7.0.I20110602-0100,"org.eclipse.ui.edit.paste",1356254280565
activated,workbench,org.eclipse.ui.workbench,3.7.0.I20110519-0100,"",1356254282897
deactivated,workbench,org.eclipse.ui.workbench,3.7.0.I20110519-0100,"",1356254283410
opened,editor,org.eclipse.jst.jsp.ui,1.1.601.v201108151912,"org.eclipse.jst.jsp.core.jspsource.source",1356254283597
activated,workbench,org.eclipse.ui.workbench,3.7.0.I20110519-0100,"",1356254283945
activated,editor,org.eclipse.jst.jsp.ui,1.1.601.v201108151912,"org.eclipse.jst.jsp.core.jspsource.source",1356254283972
executed,command,org.eclipse.ui,3.7.0.I20110602-0100,"org.eclipse.ui.edit.paste",1356254309298
executed,command,org.eclipse.ui,3.7.0.I20110602-0100,"org.eclipse.ui.file.save",1356254310863
deactivated,workbench,org.eclipse.ui.workbench,3.7.0.I20110519-0100,"",1356254313873
activated,workbench,org.eclipse.ui.workbench,3.7.0.I20110519-0100,"",1356254361174
activated,view,org.eclipse.ui.navigator.resources,3.4.300.I20110421-1800,"org.eclipse.ui.navigator.ProjectExplorer",1356254363354
deactivated,workbench,org.eclipse.ui.workbench,3.7.0.I20110519-0100,"",1356254366274
activated,workbench,org.eclipse.ui.workbench,3.7.0.I20110519-0100,"",1356254370156
opened,editor,org.eclipse.jst.jsp.ui,1.1.601.v201108151912,"org.eclipse.jst.jsp.core.jspsource.source",1356254370669
activated,editor,org.eclipse.jst.jsp.ui,1.1.601.v201108151912,"org.eclipse.jst.jsp.core.jspsource.source",1356254370821
executed,command,org.eclipse.ui,3.7.0.I20110602-0100,"org.eclipse.ui.edit.paste",1356254372919
executed,command,org.eclipse.ui,3.7.0.I20110602-0100,"org.eclipse.ui.file.save",1356254375659
activated,view,org.eclipse.ui.console,3.5.100.v20110511,"org.eclipse.ui.console.ConsoleView",1356254380581
activated,view,org.eclipse.wst.server.ui,1.1.306.v20110823_1704,"org.eclipse.wst.server.ui.ServersView",1356254380785
activated,editor,org.eclipse.jst.jsp.ui,1.1.601.v201108151912,"org.eclipse.jst.jsp.core.jspsource.source",1356254382950
deactivated,workbench,org.eclipse.ui.workbench,3.7.0.I20110519-0100,"",1356254385660
activated,workbench,org.eclipse.ui.workbench,3.7.0.I20110519-0100,"",1356254393820
executed,command,org.eclipse.wst.server.ui,1.1.306.v20110823_1704,"org.eclipse.wst.server.launchShortcut.run",1356254393880
opened,editor,org.eclipse.ui.browser,3.3.100.v20110426,"org.eclipse.ui.browser.editor",1356254397099
activated,editor,org.eclipse.ui.browser,3.3.100.v20110426,"org.eclipse.ui.browser.editor",1356254397196
deactivated,workbench,org.eclipse.ui.workbench,3.7.0.I20110519-0100,"",1356254564194
activated,workbench,org.eclipse.ui.workbench,3.7.0.I20110519-0100,"",1356254689264
activated,editor,org.eclipse.jst.jsp.ui,1.1.601.v201108151912,"org.eclipse.jst.jsp.core.jspsource.source",1356254691046
closed,editor,org.eclipse.ui.browser,3.3.100.v20110426,"org.eclipse.ui.browser.editor",1356254691046
activated,editor,org.eclipse.jst.jsp.ui,1.1.601.v201108151912,"org.eclipse.jst.jsp.core.jspsource.source",1356254695252
deactivated,workbench,org.eclipse.ui.workbench,3.7.0.I20110519-0100,"",1356254733603
activated,workbench,org.eclipse.ui.workbench,3.7.0.I20110519-0100,"",1356255223732
activated,view,org.eclipse.ui.console,3.5.100.v20110511,"org.eclipse.ui.console.ConsoleView",1356255232528
closed,editor,org.eclipse.jst.jsp.ui,1.1.601.v201108151912,"org.eclipse.jst.jsp.core.jspsource.source",1356255232533
closed,editor,org.eclipse.jst.jsp.ui,1.1.601.v201108151912,"org.eclipse.jst.jsp.core.jspsource.source",1356255232578
closed,editor,org.eclipse.jst.jsp.ui,1.1.601.v201108151912,"org.eclipse.jst.jsp.core.jspsource.source",1356255232615
activated,view,org.eclipse.ui.navigator.resources,3.4.300.I20110421-1800,"org.eclipse.ui.navigator.ProjectExplorer",1356255233455
opened,editor,org.eclipse.jst.jsp.ui,1.1.601.v201108151912,"org.eclipse.jst.jsp.core.jspsource.source",1356255240995
activated,editor,org.eclipse.jst.jsp.ui,1.1.601.v201108151912,"org.eclipse.jst.jsp.core.jspsource.source",1356255241125
activated,view,org.eclipse.ui.navigator.resources,3.4.300.I20110421-1800,"org.eclipse.ui.navigator.ProjectExplorer",1356255243103
opened,editor,org.eclipse.jst.jsp.ui,1.1.601.v201108151912,"org.eclipse.jst.jsp.core.jspsource.source",1356255243420
activated,editor,org.eclipse.jst.jsp.ui,1.1.601.v201108151912,"org.eclipse.jst.jsp.core.jspsource.source",1356255243583
executed,command,org.eclipse.ui,3.7.0.I20110602-0100,"org.eclipse.ui.edit.copy",1356255254130
activated,view,org.eclipse.ui.navigator.resources,3.4.300.I20110421-1800,"org.eclipse.ui.navigator.ProjectExplorer",1356255264443
opened,editor,org.eclipse.jst.jsp.ui,1.1.601.v201108151912,"org.eclipse.jst.jsp.core.jspsource.source",1356255264788
activated,editor,org.eclipse.jst.jsp.ui,1.1.601.v201108151912,"org.eclipse.jst.jsp.core.jspsource.source",1356255264911
activated,editor,org.eclipse.jst.jsp.ui,1.1.601.v201108151912,"org.eclipse.jst.jsp.core.jspsource.source",1356255276951
deactivated,workbench,org.eclipse.ui.workbench,3.7.0.I20110519-0100,"",1356255343837
activated,workbench,org.eclipse.ui.workbench,3.7.0.I20110519-0100,"",1356255364517
executed,command,org.eclipse.ui.workbench.texteditor,3.7.0.v20110505-0800,"org.eclipse.ui.edit.text.goto.lineEnd",1356255380255
activated,editor,org.eclipse.jst.jsp.ui,1.1.601.v201108151912,"org.eclipse.jst.jsp.core.jspsource.source",1356255392790
executed,command,org.eclipse.ui,3.7.0.I20110602-0100,"org.eclipse.ui.edit.copy",1356255397233
activated,editor,org.eclipse.jst.jsp.ui,1.1.601.v201108151912,"org.eclipse.jst.jsp.core.jspsource.source",1356255399023
executed,command,org.eclipse.ui,3.7.0.I20110602-0100,"org.eclipse.ui.edit.paste",1356255401415
executed,command,org.eclipse.ui,3.7.0.I20110602-0100,"org.eclipse.ui.file.save",1356255402768
deactivated,workbench,org.eclipse.ui.workbench,3.7.0.I20110519-0100,"",1356255421908
activated,workbench,org.eclipse.ui.workbench,3.7.0.I20110519-0100,"",1356255433538
activated,view,org.eclipse.ui.console,3.5.100.v20110511,"org.eclipse.ui.console.ConsoleView",1356255436103
activated,view,org.eclipse.wst.server.ui,1.1.306.v20110823_1704,"org.eclipse.wst.server.ui.ServersView",1356255436287
activated,editor,org.eclipse.jst.jsp.ui,1.1.601.v201108151912,"org.eclipse.jst.jsp.core.jspsource.source",1356255439387
deactivated,workbench,org.eclipse.ui.workbench,3.7.0.I20110519-0100,"",1356255442322
activated,workbench,org.eclipse.ui.workbench,3.7.0.I20110519-0100,"",1356255446537
executed,command,org.eclipse.wst.server.ui,1.1.306.v20110823_1704,"org.eclipse.wst.server.launchShortcut.run",1356255446579
opened,editor,org.eclipse.ui.browser,3.3.100.v20110426,"org.eclipse.ui.browser.editor",1356255450435
activated,editor,org.eclipse.ui.browser,3.3.100.v20110426,"org.eclipse.ui.browser.editor",1356255450530
activated,editor,org.eclipse.jst.jsp.ui,1.1.601.v201108151912,"org.eclipse.jst.jsp.core.jspsource.source",1356255457848
closed,editor,org.eclipse.ui.browser,3.3.100.v20110426,"org.eclipse.ui.browser.editor",1356255457848
activated,view,org.eclipse.wst.server.ui,1.1.306.v20110823_1704,"org.eclipse.wst.server.ui.ServersView",1356255459151
executed,command,org.eclipse.wst.server.ui,1.1.306.v20110823_1704,"org.eclipse.wst.server.run",1356255461158
activated,view,org.eclipse.ui.console,3.5.100.v20110511,"org.eclipse.ui.console.ConsoleView",1356255461944
activated,view,org.eclipse.wst.server.ui,1.1.306.v20110823_1704,"org.eclipse.wst.server.ui.ServersView",1356255463303
activated,view,org.eclipse.ui.console,3.5.100.v20110511,"org.eclipse.ui.console.ConsoleView",1356255464769
activated,view,org.eclipse.wst.server.ui,1.1.306.v20110823_1704,"org.eclipse.wst.server.ui.ServersView",1356255466010
activated,view,org.eclipse.ui.console,3.5.100.v20110511,"org.eclipse.ui.console.ConsoleView",1356255469722
deactivated,workbench,org.eclipse.ui.workbench,3.7.0.I20110519-0100,"",1356255474242
activated,workbench,org.eclipse.ui.workbench,3.7.0.I20110519-0100,"",1356255484157
activated,view,org.eclipse.ui.navigator.resources,3.4.300.I20110421-1800,"org.eclipse.ui.navigator.ProjectExplorer",1356255487715
opened,editor,org.eclipse.jst.jsp.ui,1.1.601.v201108151912,"org.eclipse.jst.jsp.core.jspsource.source",1356255488063
activated,editor,org.eclipse.jst.jsp.ui,1.1.601.v201108151912,"org.eclipse.jst.jsp.core.jspsource.source",1356255488203
deactivated,workbench,org.eclipse.ui.workbench,3.7.0.I20110519-0100,"",1356255491703
activated,workbench,org.eclipse.ui.workbench,3.7.0.I20110519-0100,"",1356255493600
executed,command,org.eclipse.wst.server.ui,1.1.306.v20110823_1704,"org.eclipse.wst.server.launchShortcut.run",1356255493643
opened,editor,org.eclipse.ui.browser,3.3.100.v20110426,"org.eclipse.ui.browser.editor",1356255493938
activated,editor,org.eclipse.ui.browser,3.3.100.v20110426,"org.eclipse.ui.browser.editor",1356255494030
activated,view,org.eclipse.ui.console,3.5.100.v20110511,"org.eclipse.ui.console.ConsoleView",1356255499209
deactivated,workbench,org.eclipse.ui.workbench,3.7.0.I20110519-0100,"",1356255508029
activated,workbench,org.eclipse.ui.workbench,3.7.0.I20110519-0100,"",1356255515516
activated,editor,org.eclipse.ui.browser,3.3.100.v20110426,"org.eclipse.ui.browser.editor",1356255515554
activated,editor,org.eclipse.jst.jsp.ui,1.1.601.v201108151912,"org.eclipse.jst.jsp.core.jspsource.source",1356255518909
closed,editor,org.eclipse.ui.browser,3.3.100.v20110426,"org.eclipse.ui.browser.editor",1356255518909
activated,view,org.eclipse.ui.navigator.resources,3.4.300.I20110421-1800,"org.eclipse.ui.navigator.ProjectExplorer",1356255520892
opened,editor,org.eclipse.jst.jsp.ui,1.1.601.v201108151912,"org.eclipse.jst.jsp.core.jspsource.source",1356255521225
activated,editor,org.eclipse.jst.jsp.ui,1.1.601.v201108151912,"org.eclipse.jst.jsp.core.jspsource.source",1356255521367
activated,view,org.eclipse.ui.navigator.resources,3.4.300.I20110421-1800,"org.eclipse.ui.navigator.ProjectExplorer",1356255521955
activated,editor,org.eclipse.jst.jsp.ui,1.1.601.v201108151912,"org.eclipse.jst.jsp.core.jspsource.source",1356255522202
executed,command,org.eclipse.ui,3.7.0.I20110602-0100,"org.eclipse.ui.edit.cut",1356255539410
executed,command,org.eclipse.ui,3.7.0.I20110602-0100,"org.eclipse.ui.edit.paste",1356255546800
executed,command,org.eclipse.ui,3.7.0.I20110602-0100,"org.eclipse.ui.file.save",1356255548485
executed,command,org.eclipse.ui,3.7.0.I20110602-0100,"org.eclipse.ui.edit.cut",1356255559840
executed,command,org.eclipse.ui,3.7.0.I20110602-0100,"org.eclipse.ui.edit.paste",1356255562320
executed,command,org.eclipse.ui,3.7.0.I20110602-0100,"org.eclipse.ui.file.save",1356255563533
deactivated,workbench,org.eclipse.ui.workbench,3.7.0.I20110519-0100,"",1356255567890
activated,workbench,org.eclipse.ui.workbench,3.7.0.I20110519-0100,"",1356255572708
executed,command,org.eclipse.ui,3.7.0.I20110602-0100,"org.eclipse.ui.file.save",1356255584441
deactivated,workbench,org.eclipse.ui.workbench,3.7.0.I20110519-0100,"",1356255602576
activated,workbench,org.eclipse.ui.workbench,3.7.0.I20110519-0100,"",1356255607413
activated,editor,org.eclipse.jst.jsp.ui,1.1.601.v201108151912,"org.eclipse.jst.jsp.core.jspsource.source",1356255615006
activated,editor,org.eclipse.jst.jsp.ui,1.1.601.v201108151912,"org.eclipse.jst.jsp.core.jspsource.source",1356255616549
deactivated,workbench,org.eclipse.ui.workbench,3.7.0.I20110519-0100,"",1356255619591
activated,workbench,org.eclipse.ui.workbench,3.7.0.I20110519-0100,"",1356255625259
deactivated,workbench,org.eclipse.ui.workbench,3.7.0.I20110519-0100,"",1356255625334
