what,kind,bundleId,bundleVersion,description,time
activated,editor,org.eclipse.wst.xml.ui,1.1.201.v201108151912,"org.eclipse.wst.xml.ui.internal.tabletree.XMLMultiPageEditorPart",1356156865253
deactivated,workbench,org.eclipse.ui.workbench,3.7.0.I20110519-0100,"",1356157415034
activated,workbench,org.eclipse.ui.workbench,3.7.0.I20110519-0100,"",1356157665154
deactivated,workbench,org.eclipse.ui.workbench,3.7.0.I20110519-0100,"",1356157742960
activated,workbench,org.eclipse.ui.workbench,3.7.0.I20110519-0100,"",1356157903762
deactivated,workbench,org.eclipse.ui.workbench,3.7.0.I20110519-0100,"",1356157907797
activated,workbench,org.eclipse.ui.workbench,3.7.0.I20110519-0100,"",1356157985202
deactivated,workbench,org.eclipse.ui.workbench,3.7.0.I20110519-0100,"",1356157991847
activated,workbench,org.eclipse.ui.workbench,3.7.0.I20110519-0100,"",1356157999552
activated,editor,org.eclipse.jst.jsp.ui,1.1.601.v201108151912,"org.eclipse.jst.jsp.core.jspsource.source",1356158008292
activated,editor,org.eclipse.wst.xml.ui,1.1.201.v201108151912,"org.eclipse.wst.xml.ui.internal.tabletree.XMLMultiPageEditorPart",1356158016902
activated,view,org.eclipse.ui.navigator.resources,3.4.300.I20110421-1800,"org.eclipse.ui.navigator.ProjectExplorer",1356158025382
opened,editor,org.eclipse.jdt.ui,3.7.1.r371_v20110824-0800,"org.eclipse.jdt.ui.CompilationUnitEditor",1356158028037
activated,editor,org.eclipse.jdt.ui,3.7.1.r371_v20110824-0800,"org.eclipse.jdt.ui.CompilationUnitEditor",1356158028357
executed,command,org.eclipse.ui,3.7.0.I20110602-0100,"org.eclipse.ui.file.save",1356158065572
deactivated,workbench,org.eclipse.ui.workbench,3.7.0.I20110519-0100,"",1356158072148
activated,workbench,org.eclipse.ui.workbench,3.7.0.I20110519-0100,"",1356158188653
executed,command,org.eclipse.ui,3.7.0.I20110602-0100,"org.eclipse.ui.edit.delete",1356158191833
executed,command,org.eclipse.ui.workbench.texteditor,3.7.0.v20110505-0800,"org.eclipse.ui.edit.text.goto.lineEnd",1356158195923
executed,command,org.eclipse.ui.workbench.texteditor,3.7.0.v20110505-0800,"org.eclipse.ui.edit.text.select.lineStart",1356158196393
executed,command,org.eclipse.ui,3.7.0.I20110602-0100,"org.eclipse.ui.edit.delete",1356158196908
executed,command,org.eclipse.ui,3.7.0.I20110602-0100,"org.eclipse.ui.edit.delete",1356158205688
executed,command,org.eclipse.ui,3.7.0.I20110602-0100,"org.eclipse.ui.file.save",1356158206658
deactivated,workbench,org.eclipse.ui.workbench,3.7.0.I20110519-0100,"",1356158210278
activated,workbench,org.eclipse.ui.workbench,3.7.0.I20110519-0100,"",1356158253034
activated,editor,org.eclipse.jst.jsp.ui,1.1.601.v201108151912,"org.eclipse.jst.jsp.core.jspsource.source",1356158254964
activated,view,org.eclipse.ui.navigator.resources,3.4.300.I20110421-1800,"org.eclipse.ui.navigator.ProjectExplorer",1356158258314
opened,editor,org.eclipse.wst.xml.ui,1.1.201.v201108151912,"org.eclipse.wst.xml.ui.internal.tabletree.XMLMultiPageEditorPart",1356158258644
activated,editor,org.eclipse.wst.xml.ui,1.1.201.v201108151912,"org.eclipse.wst.xml.ui.internal.tabletree.XMLMultiPageEditorPart",1356158258844
deactivated,workbench,org.eclipse.ui.workbench,3.7.0.I20110519-0100,"",1356158264124
activated,workbench,org.eclipse.ui.workbench,3.7.0.I20110519-0100,"",1356158284409
activated,view,org.eclipse.ui.console,3.5.100.v20110511,"org.eclipse.ui.console.ConsoleView",1356158290394
activated,editor,org.eclipse.wst.xml.ui,1.1.201.v201108151912,"org.eclipse.wst.xml.ui.internal.tabletree.XMLMultiPageEditorPart",1356158304949
deactivated,workbench,org.eclipse.ui.workbench,3.7.0.I20110519-0100,"",1356158318154
activated,workbench,org.eclipse.ui.workbench,3.7.0.I20110519-0100,"",1356158324654
deactivated,workbench,org.eclipse.ui.workbench,3.7.0.I20110519-0100,"",1356158333859
activated,workbench,org.eclipse.ui.workbench,3.7.0.I20110519-0100,"",1356158340279
activated,editor,org.eclipse.jdt.ui,3.7.1.r371_v20110824-0800,"org.eclipse.jdt.ui.CompilationUnitEditor",1356158343744
activated,view,org.eclipse.ui.navigator.resources,3.4.300.I20110421-1800,"org.eclipse.ui.navigator.ProjectExplorer",1356158358939
opened,editor,org.eclipse.jdt.ui,3.7.1.r371_v20110824-0800,"org.eclipse.jdt.ui.CompilationUnitEditor",1356158359254
activated,editor,org.eclipse.jdt.ui,3.7.1.r371_v20110824-0800,"org.eclipse.jdt.ui.CompilationUnitEditor",1356158359399
activated,editor,org.eclipse.wst.xml.ui,1.1.201.v201108151912,"org.eclipse.wst.xml.ui.internal.tabletree.XMLMultiPageEditorPart",1356158374014
activated,view,org.eclipse.ui.navigator.resources,3.4.300.I20110421-1800,"org.eclipse.ui.navigator.ProjectExplorer",1356158387344
opened,editor,org.eclipse.jdt.ui,3.7.1.r371_v20110824-0800,"org.eclipse.jdt.ui.CompilationUnitEditor",1356158387714
activated,editor,org.eclipse.jdt.ui,3.7.1.r371_v20110824-0800,"org.eclipse.jdt.ui.CompilationUnitEditor",1356158387969
activated,view,org.eclipse.ui.navigator.resources,3.4.300.I20110421-1800,"org.eclipse.ui.navigator.ProjectExplorer",1356158401914
opened,editor,org.eclipse.jdt.ui,3.7.1.r371_v20110824-0800,"org.eclipse.jdt.ui.CompilationUnitEditor",1356158403934
activated,editor,org.eclipse.jdt.ui,3.7.1.r371_v20110824-0800,"org.eclipse.jdt.ui.CompilationUnitEditor",1356158404094
opened,editor,org.eclipse.jdt.ui,3.7.1.r371_v20110824-0800,"org.eclipse.jdt.ui.CompilationUnitEditor",1356158441054
activated,editor,org.eclipse.jdt.ui,3.7.1.r371_v20110824-0800,"org.eclipse.jdt.ui.CompilationUnitEditor",1356158441189
activated,editor,org.eclipse.jdt.ui,3.7.1.r371_v20110824-0800,"org.eclipse.jdt.ui.CompilationUnitEditor",1356158457415
activated,editor,org.eclipse.jdt.ui,3.7.1.r371_v20110824-0800,"org.eclipse.jdt.ui.CompilationUnitEditor",1356158464950
executed,command,org.eclipse.ui,3.7.0.I20110602-0100,"org.eclipse.ui.edit.text.contentAssist.proposals",1356158469475
executed,command,org.eclipse.ui,3.7.0.I20110602-0100,"org.eclipse.ui.file.save",1356158481885
deactivated,workbench,org.eclipse.ui.workbench,3.7.0.I20110519-0100,"",1356158484245
deactivated,workbench,org.eclipse.ui.workbench,3.7.0.I20110519-0100,"",1356158486860
activated,workbench,org.eclipse.ui.workbench,3.7.0.I20110519-0100,"",1356158510346
activated,editor,org.eclipse.jdt.ui,3.7.1.r371_v20110824-0800,"org.eclipse.jdt.ui.CompilationUnitEditor",1356158519581
executed,command,org.eclipse.ui,3.7.0.I20110602-0100,"org.eclipse.ui.edit.text.contentAssist.proposals",1356158524621
executed,command,org.eclipse.ui,3.7.0.I20110602-0100,"org.eclipse.ui.file.save",1356158533106
deactivated,workbench,org.eclipse.ui.workbench,3.7.0.I20110519-0100,"",1356158538178
activated,workbench,org.eclipse.ui.workbench,3.7.0.I20110519-0100,"",1356158558319
activated,view,org.eclipse.ui.console,3.5.100.v20110511,"org.eclipse.ui.console.ConsoleView",1356158565844
activated,view,org.eclipse.ui.navigator.resources,3.4.300.I20110421-1800,"org.eclipse.ui.navigator.ProjectExplorer",1356158576464
activated,editor,org.eclipse.wst.xml.ui,1.1.201.v201108151912,"org.eclipse.wst.xml.ui.internal.tabletree.XMLMultiPageEditorPart",1356158576859
executed,command,org.eclipse.ui,3.7.0.I20110602-0100,"org.eclipse.ui.edit.copy",1356158598514
executed,command,org.eclipse.ui,3.7.0.I20110602-0100,"org.eclipse.ui.edit.paste",1356158601169
executed,command,org.eclipse.ui,3.7.0.I20110602-0100,"org.eclipse.ui.edit.copy",1356158607089
activated,editor,org.eclipse.jdt.ui,3.7.1.r371_v20110824-0800,"org.eclipse.jdt.ui.CompilationUnitEditor",1356158616254
activated,editor,org.eclipse.jdt.ui,3.7.1.r371_v20110824-0800,"org.eclipse.jdt.ui.CompilationUnitEditor",1356158618094
activated,editor,org.eclipse.jdt.ui,3.7.1.r371_v20110824-0800,"org.eclipse.jdt.ui.CompilationUnitEditor",1356158618824
activated,editor,org.eclipse.wst.xml.ui,1.1.201.v201108151912,"org.eclipse.wst.xml.ui.internal.tabletree.XMLMultiPageEditorPart",1356158624314
executed,command,org.eclipse.ui,3.7.0.I20110602-0100,"org.eclipse.ui.edit.copy",1356158626469
activated,view,org.eclipse.ui.navigator.resources,3.4.300.I20110421-1800,"org.eclipse.ui.navigator.ProjectExplorer",1356158636759
activated,editor,org.eclipse.jdt.ui,3.7.1.r371_v20110824-0800,"org.eclipse.jdt.ui.CompilationUnitEditor",1356158637194
executed,command,org.eclipse.ui,3.7.0.I20110602-0100,"org.eclipse.ui.edit.copy",1356158655009
activated,editor,org.eclipse.wst.xml.ui,1.1.201.v201108151912,"org.eclipse.wst.xml.ui.internal.tabletree.XMLMultiPageEditorPart",1356158657964
executed,command,org.eclipse.ui,3.7.0.I20110602-0100,"org.eclipse.ui.edit.paste",1356158660529
deactivated,workbench,org.eclipse.ui.workbench,3.7.0.I20110519-0100,"",1356158664609
activated,workbench,org.eclipse.ui.workbench,3.7.0.I20110519-0100,"",1356158669904
activated,editor,org.eclipse.jdt.ui,3.7.1.r371_v20110824-0800,"org.eclipse.jdt.ui.CompilationUnitEditor",1356158670149
activated,editor,org.eclipse.wst.xml.ui,1.1.201.v201108151912,"org.eclipse.wst.xml.ui.internal.tabletree.XMLMultiPageEditorPart",1356158681659
executed,command,org.eclipse.ui,3.7.0.I20110602-0100,"org.eclipse.ui.edit.copy",1356158687884
activated,editor,org.eclipse.jdt.ui,3.7.1.r371_v20110824-0800,"org.eclipse.jdt.ui.CompilationUnitEditor",1356158691224
activated,editor,org.eclipse.jdt.ui,3.7.1.r371_v20110824-0800,"org.eclipse.jdt.ui.CompilationUnitEditor",1356158693329
activated,editor,org.eclipse.jdt.ui,3.7.1.r371_v20110824-0800,"org.eclipse.jdt.ui.CompilationUnitEditor",1356158694299
activated,view,org.eclipse.ui.navigator.resources,3.4.300.I20110421-1800,"org.eclipse.ui.navigator.ProjectExplorer",1356158696634
activated,editor,org.eclipse.jdt.ui,3.7.1.r371_v20110824-0800,"org.eclipse.jdt.ui.CompilationUnitEditor",1356158696924
activated,view,org.eclipse.ui.navigator.resources,3.4.300.I20110421-1800,"org.eclipse.ui.navigator.ProjectExplorer",1356158706269
activated,editor,org.eclipse.jdt.ui,3.7.1.r371_v20110824-0800,"org.eclipse.jdt.ui.CompilationUnitEditor",1356158706569
executed,command,org.eclipse.ui,3.7.0.I20110602-0100,"org.eclipse.ui.edit.paste",1356158713679
executed,command,org.eclipse.ui,3.7.0.I20110602-0100,"org.eclipse.ui.file.save",1356158714749
deactivated,workbench,org.eclipse.ui.workbench,3.7.0.I20110519-0100,"",1356158724210
activated,workbench,org.eclipse.ui.workbench,3.7.0.I20110519-0100,"",1356158760301
activated,view,org.eclipse.ui.navigator.resources,3.4.300.I20110421-1800,"org.eclipse.ui.navigator.ProjectExplorer",1356158762506
activated,editor,org.eclipse.wst.xml.ui,1.1.201.v201108151912,"org.eclipse.wst.xml.ui.internal.tabletree.XMLMultiPageEditorPart",1356158762871
executed,command,org.eclipse.ui,3.7.0.I20110602-0100,"org.eclipse.ui.file.save",1356158767141
deactivated,workbench,org.eclipse.ui.workbench,3.7.0.I20110519-0100,"",1356158769296
activated,workbench,org.eclipse.ui.workbench,3.7.0.I20110519-0100,"",1356158821162
executed,command,org.eclipse.ui,3.7.0.I20110602-0100,"org.eclipse.ui.edit.copy",1356158833742
executed,command,org.eclipse.ui,3.7.0.I20110602-0100,"org.eclipse.ui.edit.paste",1356158835847
executed,command,org.eclipse.ui,3.7.0.I20110602-0100,"org.eclipse.ui.edit.paste",1356158838122
executed,command,org.eclipse.wst.sse.ui,1.3.1.v201108191312,"org.eclipse.wst.sse.ui.add.block.comment",1356158844022
executed,command,org.eclipse.ui,3.7.0.I20110602-0100,"org.eclipse.ui.file.save",1356158845222
deactivated,workbench,org.eclipse.ui.workbench,3.7.0.I20110519-0100,"",1356158846922
activated,workbench,org.eclipse.ui.workbench,3.7.0.I20110519-0100,"",1356158878545
deactivated,workbench,org.eclipse.ui.workbench,3.7.0.I20110519-0100,"",1356158897335
activated,workbench,org.eclipse.ui.workbench,3.7.0.I20110519-0100,"",1356158904585
deactivated,workbench,org.eclipse.ui.workbench,3.7.0.I20110519-0100,"",1356158917265
activated,workbench,org.eclipse.ui.workbench,3.7.0.I20110519-0100,"",1356158921905
activated,view,org.eclipse.ui.console,3.5.100.v20110511,"org.eclipse.ui.console.ConsoleView",1356158959625
activated,editor,org.eclipse.wst.xml.ui,1.1.201.v201108151912,"org.eclipse.wst.xml.ui.internal.tabletree.XMLMultiPageEditorPart",1356158962755
activated,view,org.eclipse.ui.navigator.resources,3.4.300.I20110421-1800,"org.eclipse.ui.navigator.ProjectExplorer",1356158989300
activated,editor,org.eclipse.wst.xml.ui,1.1.201.v201108151912,"org.eclipse.wst.xml.ui.internal.tabletree.XMLMultiPageEditorPart",1356158989595
activated,editor,org.eclipse.wst.xml.ui,1.1.201.v201108151912,"org.eclipse.wst.xml.ui.internal.tabletree.XMLMultiPageEditorPart",1356159000150
executed,command,org.eclipse.ui,3.7.0.I20110602-0100,"org.eclipse.ui.file.save",1356159021890
activated,view,org.eclipse.ui.console,3.5.100.v20110511,"org.eclipse.ui.console.ConsoleView",1356159041682
activated,view,org.eclipse.wst.server.ui,1.1.306.v20110823_1704,"org.eclipse.wst.server.ui.ServersView",1356159041823
executed,command,org.eclipse.wst.server.ui,1.1.306.v20110823_1704,"org.eclipse.wst.server.publish",1356159044538
activated,view,org.eclipse.ui.navigator.resources,3.4.300.I20110421-1800,"org.eclipse.ui.navigator.ProjectExplorer",1356159053988
activated,editor,org.eclipse.jst.jsp.ui,1.1.601.v201108151912,"org.eclipse.jst.jsp.core.jspsource.source",1356159054293
deactivated,workbench,org.eclipse.ui.workbench,3.7.0.I20110519-0100,"",1356159056823
activated,workbench,org.eclipse.ui.workbench,3.7.0.I20110519-0100,"",1356159059013
executed,command,org.eclipse.wst.server.ui,1.1.306.v20110823_1704,"org.eclipse.wst.server.launchShortcut.run",1356159059058
opened,editor,org.eclipse.ui.browser,3.3.100.v20110426,"org.eclipse.ui.browser.editor",1356159062666
activated,editor,org.eclipse.ui.browser,3.3.100.v20110426,"org.eclipse.ui.browser.editor",1356159062756
deactivated,workbench,org.eclipse.ui.workbench,3.7.0.I20110519-0100,"",1356159068750
activated,workbench,org.eclipse.ui.workbench,3.7.0.I20110519-0100,"",1356159127268
activated,view,org.eclipse.ui.navigator.resources,3.4.300.I20110421-1800,"org.eclipse.ui.navigator.ProjectExplorer",1356159129798
opened,editor,org.eclipse.wst.xml.ui,1.1.201.v201108151912,"org.eclipse.wst.xml.ui.internal.tabletree.XMLMultiPageEditorPart",1356159132478
activated,editor,org.eclipse.wst.xml.ui,1.1.201.v201108151912,"org.eclipse.wst.xml.ui.internal.tabletree.XMLMultiPageEditorPart",1356159132663
executed,command,org.eclipse.ui,3.7.0.I20110602-0100,"org.eclipse.ui.edit.copy",1356159137303
activated,editor,org.eclipse.wst.xml.ui,1.1.201.v201108151912,"org.eclipse.wst.xml.ui.internal.tabletree.XMLMultiPageEditorPart",1356159139393
activated,editor,org.eclipse.wst.xml.ui,1.1.201.v201108151912,"org.eclipse.wst.xml.ui.internal.tabletree.XMLMultiPageEditorPart",1356159142753
executed,command,org.eclipse.ui,3.7.0.I20110602-0100,"org.eclipse.ui.edit.paste",1356159145948
executed,command,org.eclipse.ui,3.7.0.I20110602-0100,"org.eclipse.ui.file.save",1356159147393
deactivated,workbench,org.eclipse.ui.workbench,3.7.0.I20110519-0100,"",1356159156360
activated,workbench,org.eclipse.ui.workbench,3.7.0.I20110519-0100,"",1356159211977
activated,view,org.eclipse.ui.navigator.resources,3.4.300.I20110421-1800,"org.eclipse.ui.navigator.ProjectExplorer",1356159217312
deactivated,workbench,org.eclipse.ui.workbench,3.7.0.I20110519-0100,"",1356159225747
activated,workbench,org.eclipse.ui.workbench,3.7.0.I20110519-0100,"",1356159256645
deactivated,workbench,org.eclipse.ui.workbench,3.7.0.I20110519-0100,"",1356159260435
activated,workbench,org.eclipse.ui.workbench,3.7.0.I20110519-0100,"",1356159261050
executed,command,org.eclipse.ui,3.7.0.I20110602-0100,"org.eclipse.ui.edit.paste",1356159261055
deactivated,workbench,org.eclipse.ui.workbench,3.7.0.I20110519-0100,"",1356159262915
activated,workbench,org.eclipse.ui.workbench,3.7.0.I20110519-0100,"",1356159306304
activated,editor,org.eclipse.wst.xml.ui,1.1.201.v201108151912,"org.eclipse.wst.xml.ui.internal.tabletree.XMLMultiPageEditorPart",1356159308734
executed,command,org.eclipse.ui,3.7.0.I20110602-0100,"org.eclipse.ui.file.save",1356159314929
deactivated,workbench,org.eclipse.ui.workbench,3.7.0.I20110519-0100,"",1356159321659
activated,workbench,org.eclipse.ui.workbench,3.7.0.I20110519-0100,"",1356159370563
activated,editor,org.eclipse.wst.xml.ui,1.1.201.v201108151912,"org.eclipse.wst.xml.ui.internal.tabletree.XMLMultiPageEditorPart",1356159376543
deactivated,workbench,org.eclipse.ui.workbench,3.7.0.I20110519-0100,"",1356159392098
activated,workbench,org.eclipse.ui.workbench,3.7.0.I20110519-0100,"",1356160257119
deactivated,workbench,org.eclipse.ui.workbench,3.7.0.I20110519-0100,"",1356160258919
activated,workbench,org.eclipse.ui.workbench,3.7.0.I20110519-0100,"",1356160304404
activated,view,org.eclipse.ui.navigator.resources,3.4.300.I20110421-1800,"org.eclipse.ui.navigator.ProjectExplorer",1356161757511
started,bundle,org.eclipse.wst.ws.service.policy.ui,1.0.300.v201108240515,"org.eclipse.wst.ws.service.policy.ui",1356161768936
started,bundle,org.eclipse.wst.ws.service.policy,1.0.303.v201009221810,"org.eclipse.wst.ws.service.policy",1356161768941
started,bundle,org.eclipse.wst.command.env,1.0.409.v201004211805,"org.eclipse.wst.command.env",1356161768991
started,bundle,org.eclipse.wst.ws,1.1.203.v201004211805,"org.eclipse.wst.ws",1356161768996
executed,command,org.eclipse.ui,3.7.0.I20110602-0100,"org.eclipse.ui.edit.copy",1356161772796
deactivated,workbench,org.eclipse.ui.workbench,3.7.0.I20110519-0100,"",1356161774151
activated,workbench,org.eclipse.ui.workbench,3.7.0.I20110519-0100,"",1356161775866
deactivated,workbench,org.eclipse.ui.workbench,3.7.0.I20110519-0100,"",1356161778661
activated,workbench,org.eclipse.ui.workbench,3.7.0.I20110519-0100,"",1356161794071
deactivated,workbench,org.eclipse.ui.workbench,3.7.0.I20110519-0100,"",1356161797616
activated,workbench,org.eclipse.ui.workbench,3.7.0.I20110519-0100,"",1356161847241
activated,editor,org.eclipse.wst.xml.ui,1.1.201.v201108151912,"org.eclipse.wst.xml.ui.internal.tabletree.XMLMultiPageEditorPart",1356189213164
deactivated,workbench,org.eclipse.ui.workbench,3.7.0.I20110519-0100,"",1356189267372
activated,workbench,org.eclipse.ui.workbench,3.7.0.I20110519-0100,"",1356193339113
deactivated,workbench,org.eclipse.ui.workbench,3.7.0.I20110519-0100,"",1356193356043
activated,workbench,org.eclipse.ui.workbench,3.7.0.I20110519-0100,"",1356193365478
deactivated,workbench,org.eclipse.ui.workbench,3.7.0.I20110519-0100,"",1356193366773
activated,workbench,org.eclipse.ui.workbench,3.7.0.I20110519-0100,"",1356193442858
activated,editor,org.eclipse.jst.jsp.ui,1.1.601.v201108151912,"org.eclipse.jst.jsp.core.jspsource.source",1356193446143
executed,command,org.eclipse.ui,3.7.0.I20110602-0100,"org.eclipse.ui.file.save",1356193474103
deactivated,workbench,org.eclipse.ui.workbench,3.7.0.I20110519-0100,"",1356193474743
activated,workbench,org.eclipse.ui.workbench,3.7.0.I20110519-0100,"",1356193502983
executed,command,org.eclipse.ui,3.7.0.I20110602-0100,"org.eclipse.ui.edit.text.contentAssist.proposals",1356193509893
executed,command,org.eclipse.ui.workbench.texteditor,3.7.0.v20110505-0800,"org.eclipse.ui.edit.text.select.lineStart",1356193538303
executed,command,org.eclipse.ui,3.7.0.I20110602-0100,"org.eclipse.ui.file.save",1356193542363
deactivated,workbench,org.eclipse.ui.workbench,3.7.0.I20110519-0100,"",1356193559363
activated,workbench,org.eclipse.ui.workbench,3.7.0.I20110519-0100,"",1356194131375
deactivated,workbench,org.eclipse.ui.workbench,3.7.0.I20110519-0100,"",1356194137705
activated,workbench,org.eclipse.ui.workbench,3.7.0.I20110519-0100,"",1356194276654
activated,view,org.eclipse.ui.console,3.5.100.v20110511,"org.eclipse.ui.console.ConsoleView",1356194303174
activated,editor,org.eclipse.jst.jsp.ui,1.1.601.v201108151912,"org.eclipse.jst.jsp.core.jspsource.source",1356194304214
deactivated,workbench,org.eclipse.ui.workbench,3.7.0.I20110519-0100,"",1356194338489
activated,workbench,org.eclipse.ui.workbench,3.7.0.I20110519-0100,"",1356194350434
executed,command,org.eclipse.ui,3.7.0.I20110602-0100,"org.eclipse.ui.file.save",1356194360029
deactivated,workbench,org.eclipse.ui.workbench,3.7.0.I20110519-0100,"",1356194367164
activated,workbench,org.eclipse.ui.workbench,3.7.0.I20110519-0100,"",1356194851008
activated,view,org.eclipse.ui.navigator.resources,3.4.300.I20110421-1800,"org.eclipse.ui.navigator.ProjectExplorer",1356194869883
activated,editor,org.eclipse.jdt.ui,3.7.1.r371_v20110824-0800,"org.eclipse.jdt.ui.CompilationUnitEditor",1356194886768
activated,editor,org.eclipse.jst.jsp.ui,1.1.601.v201108151912,"org.eclipse.jst.jsp.core.jspsource.source",1356194902948
executed,command,org.eclipse.ui,3.7.0.I20110602-0100,"org.eclipse.ui.edit.copy",1356194906443
executed,command,org.eclipse.ui,3.7.0.I20110602-0100,"org.eclipse.ui.edit.copy",1356194908323
activated,editor,org.eclipse.wst.xml.ui,1.1.201.v201108151912,"org.eclipse.wst.xml.ui.internal.tabletree.XMLMultiPageEditorPart",1356194910158
activated,editor,org.eclipse.jdt.ui,3.7.1.r371_v20110824-0800,"org.eclipse.jdt.ui.CompilationUnitEditor",1356194915488
executed,command,org.eclipse.ui,3.7.0.I20110602-0100,"org.eclipse.ui.edit.paste",1356194926568
executed,command,org.eclipse.ui.workbench.texteditor,3.7.0.v20110505-0800,"org.eclipse.ui.edit.text.goto.lineStart",1356194933928
executed,command,org.eclipse.ui,3.7.0.I20110602-0100,"org.eclipse.ui.edit.delete",1356194944048
executed,command,org.eclipse.jdt.ui,3.7.1.r371_v20110824-0800,"org.eclipse.jdt.ui.edit.text.java.source.quickMenu",1356194946548
deactivated,workbench,org.eclipse.ui.workbench,3.7.0.I20110519-0100,"",1356194949378
activated,workbench,org.eclipse.ui.workbench,3.7.0.I20110519-0100,"",1356194950753
executed,command,org.eclipse.jdt.ui,3.7.1.r371_v20110824-0800,"org.eclipse.jdt.ui.edit.text.java.generate.constructor.using.fields",1356194952873
executed,command,org.eclipse.ui,3.7.0.I20110602-0100,"org.eclipse.ui.edit.delete",1356194955128
executed,command,org.eclipse.ui,3.7.0.I20110602-0100,"org.eclipse.ui.edit.delete",1356194955478
executed,command,org.eclipse.ui,3.7.0.I20110602-0100,"org.eclipse.ui.edit.delete",1356194955783
executed,command,org.eclipse.ui,3.7.0.I20110602-0100,"org.eclipse.ui.edit.delete",1356194956288
executed,command,org.eclipse.ui,3.7.0.I20110602-0100,"org.eclipse.ui.edit.delete",1356194956728
executed,command,org.eclipse.ui,3.7.0.I20110602-0100,"org.eclipse.ui.edit.delete",1356194959313
executed,command,org.eclipse.ui,3.7.0.I20110602-0100,"org.eclipse.ui.edit.delete",1356194959638
executed,command,org.eclipse.ui,3.7.0.I20110602-0100,"org.eclipse.ui.file.save",1356194965068
executed,command,org.eclipse.jdt.ui,3.7.1.r371_v20110824-0800,"org.eclipse.jdt.ui.edit.text.java.source.quickMenu",1356194974901
deactivated,workbench,org.eclipse.ui.workbench,3.7.0.I20110519-0100,"",1356194975756
activated,workbench,org.eclipse.ui.workbench,3.7.0.I20110519-0100,"",1356194985831
executed,command,org.eclipse.jdt.ui,3.7.1.r371_v20110824-0800,"org.eclipse.jdt.ui.edit.text.java.source.quickMenu",1356194990206
deactivated,workbench,org.eclipse.ui.workbench,3.7.0.I20110519-0100,"",1356194993931
activated,workbench,org.eclipse.ui.workbench,3.7.0.I20110519-0100,"",1356194996086
executed,command,org.eclipse.jdt.ui,3.7.1.r371_v20110824-0800,"org.eclipse.jdt.ui.edit.text.java.create.getter.setter",1356194996206
executed,command,org.eclipse.ui,3.7.0.I20110602-0100,"org.eclipse.ui.edit.text.contentAssist.proposals",1356195006016
executed,command,org.eclipse.ui,3.7.0.I20110602-0100,"org.eclipse.ui.edit.text.contentAssist.proposals",1356195010146
executed,command,org.eclipse.ui,3.7.0.I20110602-0100,"org.eclipse.ui.file.save",1356195012916
executed,command,org.eclipse.ui,3.7.0.I20110602-0100,"org.eclipse.ui.file.save",1356195029363
executed,command,org.eclipse.ui,3.7.0.I20110602-0100,"org.eclipse.ui.edit.delete",1356195041110
executed,command,org.eclipse.jdt.ui,3.7.1.r371_v20110824-0800,"org.eclipse.jdt.ui.edit.text.java.source.quickMenu",1356195043580
deactivated,workbench,org.eclipse.ui.workbench,3.7.0.I20110519-0100,"",1356195046725
activated,workbench,org.eclipse.ui.workbench,3.7.0.I20110519-0100,"",1356195047935
executed,command,org.eclipse.jdt.ui,3.7.1.r371_v20110824-0800,"org.eclipse.jdt.ui.edit.text.java.create.getter.setter",1356195048060
executed,command,org.eclipse.ui,3.7.0.I20110602-0100,"org.eclipse.ui.edit.text.contentAssist.proposals",1356195066490
executed,command,org.eclipse.ui,3.7.0.I20110602-0100,"org.eclipse.ui.file.save",1356195073565
activated,editor,org.eclipse.jst.jsp.ui,1.1.601.v201108151912,"org.eclipse.jst.jsp.core.jspsource.source",1356195084692
deactivated,workbench,org.eclipse.ui.workbench,3.7.0.I20110519-0100,"",1356195086682
activated,workbench,org.eclipse.ui.workbench,3.7.0.I20110519-0100,"",1356195121810
activated,view,org.eclipse.ui.console,3.5.100.v20110511,"org.eclipse.ui.console.ConsoleView",1356195124750
activated,editor,org.eclipse.jst.jsp.ui,1.1.601.v201108151912,"org.eclipse.jst.jsp.core.jspsource.source",1356195131205
activated,editor,org.eclipse.jdt.ui,3.7.1.r371_v20110824-0800,"org.eclipse.jdt.ui.CompilationUnitEditor",1356195134550
activated,view,org.eclipse.ui.navigator.resources,3.4.300.I20110421-1800,"org.eclipse.ui.navigator.ProjectExplorer",1356195138865
activated,editor,org.eclipse.wst.xml.ui,1.1.201.v201108151912,"org.eclipse.wst.xml.ui.internal.tabletree.XMLMultiPageEditorPart",1356195144155
executed,command,org.eclipse.ui,3.7.0.I20110602-0100,"org.eclipse.ui.edit.copy",1356195149455
executed,command,org.eclipse.ui,3.7.0.I20110602-0100,"org.eclipse.ui.edit.paste",1356195158915
executed,command,org.eclipse.ui,3.7.0.I20110602-0100,"org.eclipse.ui.file.save",1356195163140
activated,editor,org.eclipse.jdt.ui,3.7.1.r371_v20110824-0800,"org.eclipse.jdt.ui.CompilationUnitEditor",1356195166160
executed,command,org.eclipse.ui,3.7.0.I20110602-0100,"org.eclipse.ui.edit.copy",1356195168681
activated,editor,org.eclipse.wst.xml.ui,1.1.201.v201108151912,"org.eclipse.wst.xml.ui.internal.tabletree.XMLMultiPageEditorPart",1356195173527
executed,command,org.eclipse.ui,3.7.0.I20110602-0100,"org.eclipse.ui.edit.copy",1356195176247
executed,command,org.eclipse.ui,3.7.0.I20110602-0100,"org.eclipse.ui.edit.paste",1356195178407
executed,command,org.eclipse.ui,3.7.0.I20110602-0100,"org.eclipse.ui.edit.paste",1356195179967
activated,editor,org.eclipse.jdt.ui,3.7.1.r371_v20110824-0800,"org.eclipse.jdt.ui.CompilationUnitEditor",1356195182732
