what,kind,bundleId,bundleVersion,description,time
activated,editor,org.eclipse.ui.browser,3.3.100.v20110426,"org.eclipse.ui.browser.editor",1354815672384
activated,editor,org.eclipse.jdt.ui,3.7.1.r371_v20110824-0800,"org.eclipse.jdt.ui.CompilationUnitEditor",1354815691781
executed,command,org.eclipse.ui,3.7.0.I20110602-0100,"org.eclipse.ui.file.save",1354815710941
activated,editor,org.eclipse.ui.browser,3.3.100.v20110426,"org.eclipse.ui.browser.editor",1354815713291
activated,editor,org.eclipse.jdt.ui,3.7.1.r371_v20110824-0800,"org.eclipse.jdt.ui.CompilationUnitEditor",1354815728269
deactivated,workbench,org.eclipse.ui.workbench,3.7.0.I20110519-0100,"",1354815730979
activated,workbench,org.eclipse.ui.workbench,3.7.0.I20110519-0100,"",1354815731149
deactivated,workbench,org.eclipse.ui.workbench,3.7.0.I20110519-0100,"",1354815732789
activated,workbench,org.eclipse.ui.workbench,3.7.0.I20110519-0100,"",1354815811379
activated,view,org.eclipse.ui.navigator.resources,3.4.300.I20110421-1800,"org.eclipse.ui.navigator.ProjectExplorer",1354815812869
deactivated,workbench,org.eclipse.ui.workbench,3.7.0.I20110519-0100,"",1354815816719
activated,workbench,org.eclipse.ui.workbench,3.7.0.I20110519-0100,"",1354815831639
deactivated,workbench,org.eclipse.ui.workbench,3.7.0.I20110519-0100,"",1354815832959
started,bundle,org.eclipse.equinox.p2.garbagecollector,1.0.200.v20110510,"org.eclipse.equinox.p2.garbagecollector",1354815929997
activated,workbench,org.eclipse.ui.workbench,3.7.0.I20110519-0100,"",1354816046090
deactivated,workbench,org.eclipse.ui.workbench,3.7.0.I20110519-0100,"",1354816047370
activated,workbench,org.eclipse.ui.workbench,3.7.0.I20110519-0100,"",1354816060990
deactivated,workbench,org.eclipse.ui.workbench,3.7.0.I20110519-0100,"",1354816061960
activated,workbench,org.eclipse.ui.workbench,3.7.0.I20110519-0100,"",1354816199942
deactivated,workbench,org.eclipse.ui.workbench,3.7.0.I20110519-0100,"",1354816204022
activated,workbench,org.eclipse.ui.workbench,3.7.0.I20110519-0100,"",1354816500568
activated,editor,org.eclipse.jdt.ui,3.7.1.r371_v20110824-0800,"org.eclipse.jdt.ui.CompilationUnitEditor",1354816504268
deactivated,workbench,org.eclipse.ui.workbench,3.7.0.I20110519-0100,"",1354816511778
activated,workbench,org.eclipse.ui.workbench,3.7.0.I20110519-0100,"",1354816569188
deactivated,workbench,org.eclipse.ui.workbench,3.7.0.I20110519-0100,"",1354816570758
activated,workbench,org.eclipse.ui.workbench,3.7.0.I20110519-0100,"",1354816578758
deactivated,workbench,org.eclipse.ui.workbench,3.7.0.I20110519-0100,"",1354817141623
activated,workbench,org.eclipse.ui.workbench,3.7.0.I20110519-0100,"",1354817152905
deactivated,workbench,org.eclipse.ui.workbench,3.7.0.I20110519-0100,"",1354817174935
activated,workbench,org.eclipse.ui.workbench,3.7.0.I20110519-0100,"",1354817438178
deactivated,workbench,org.eclipse.ui.workbench,3.7.0.I20110519-0100,"",1354817438958
activated,workbench,org.eclipse.ui.workbench,3.7.0.I20110519-0100,"",1354817441248
closed,workbench,org.eclipse.ui.workbench,3.7.0.I20110519-0100,"",1354817441768
stopped,bundle,org.eclipse.jst.ws.axis.creation.ui,1.0.700.v201104070312,"org.eclipse.jst.ws.axis.creation.ui",1354817442848
stopped,bundle,org.eclipse.jst.ws.axis.consumption.ui,1.0.505.v201004211805,"org.eclipse.jst.ws.axis.consumption.ui",1354817442988
stopped,bundle,org.eclipse.jst.ws.axis.consumption.core,1.0.407.v201104071820,"org.eclipse.jst.ws.axis.consumption.core",1354817443068
stopped,bundle,org.eclipse.jst.ws.axis2.creation.ui,1.0.104.v201004211805,"org.eclipse.jst.ws.axis2.creation.ui",1354817443068
stopped,bundle,org.eclipse.jst.ws.axis2.consumption.ui,1.0.103.v201004211805,"org.eclipse.jst.ws.axis2.consumption.ui",1354817443078
stopped,bundle,org.eclipse.jst.ws.axis2.creation.core,1.0.106.v201004211805,"org.eclipse.jst.ws.axis2.creation.core",1354817443088
stopped,bundle,org.eclipse.jst.ws.axis2.consumption.core,1.0.105.v201004211805,"org.eclipse.jst.ws.axis2.consumption.core",1354817443098
stopped,bundle,org.eclipse.jst.ws.axis2.ui,1.0.303.v201003110431,"org.eclipse.jst.ws.axis2.ui",1354817443158
stopped,bundle,org.eclipse.jst.ws.axis2.core,1.0.204.v201004211805,"org.eclipse.jst.ws.axis2.core",1354817443168
stopped,bundle,org.eclipse.jst.ws.cxf.creation.ui,1.0.100.v201104022153,"org.eclipse.jst.ws.cxf.creation.ui",1354817443178
activated,perspective,org.eclipse.jst.j2ee.ui,,"org.eclipse.jst.j2ee.J2EEPerspective",1354817668464
started,bundle,org.eclipse.osgi,3.7.1.R37x_v20110808-1106,"org.eclipse.osgi",1354817668464
started,bundle,org.eclipse.equinox.simpleconfigurator,1.0.200.v20110502-1955,"org.eclipse.equinox.simpleconfigurator",1354817668464
started,bundle,com.ibm.icu,4.4.2.v20110208,"com.ibm.icu",1354817668474
started,bundle,org.eclipse.compare.core,3.5.200.I20110208-0800,"org.eclipse.compare.core",1354817668474
started,bundle,org.eclipse.core.contenttype,3.4.100.v20110423-0524,"org.eclipse.core.contenttype",1354817668474
started,bundle,org.eclipse.core.databinding.observable,1.4.0.I20110222-0800,"org.eclipse.core.databinding.observable",1354817668474
started,bundle,org.eclipse.core.expressions,3.4.300.v20110228,"org.eclipse.core.expressions",1354817668474
started,bundle,org.eclipse.core.filebuffers,3.5.200.v20110505-0800,"org.eclipse.core.filebuffers",1354817668474
started,bundle,org.eclipse.core.filesystem,1.3.100.v20110423-0524,"org.eclipse.core.filesystem",1354817668474
started,bundle,org.eclipse.core.jobs,3.5.100.v20110404,"org.eclipse.core.jobs",1354817668474
started,bundle,org.eclipse.core.net,1.2.100.I20110511-0800,"org.eclipse.core.net",1354817668484
started,bundle,org.eclipse.core.resources,3.7.100.v20110510-0712,"org.eclipse.core.resources",1354817668484
started,bundle,org.eclipse.core.runtime,3.7.0.v20110110,"org.eclipse.core.runtime",1354817668484
started,bundle,org.eclipse.core.runtime.compatibility,3.2.100.v20100505,"org.eclipse.core.runtime.compatibility",1354817668484
started,bundle,org.eclipse.core.runtime.compatibility.auth,3.2.200.v20110110,"org.eclipse.core.runtime.compatibility.auth",1354817668484
started,bundle,org.eclipse.core.variables,3.2.500.v20110511,"org.eclipse.core.variables",1354817668484
started,bundle,org.eclipse.debug.core,3.7.0.v20110518,"org.eclipse.debug.core",1354817668484
started,bundle,org.eclipse.emf.common,2.7.0.v20110912-0920,"org.eclipse.emf.common",1354817668494
started,bundle,org.eclipse.emf.common.ui,2.7.0.v20110913-1156,"org.eclipse.emf.common.ui",1354817668494
started,bundle,org.eclipse.emf.ecore,2.7.0.v20110912-0920,"org.eclipse.emf.ecore",1354817668494
started,bundle,org.eclipse.emf.ecore.xmi,2.7.0.v20110520-1406,"org.eclipse.emf.ecore.xmi",1354817668494
started,bundle,org.eclipse.emf.edit,2.7.1.v20110913-1526,"org.eclipse.emf.edit",1354817668504
started,bundle,org.eclipse.emf.edit.ui,2.7.0.v20110913-1156,"org.eclipse.emf.edit.ui",1354817668504
started,bundle,org.eclipse.epp.mpc.ui,1.1.1.I20110907-0947,"org.eclipse.epp.mpc.ui",1354817668504
started,bundle,org.eclipse.epp.usagedata.gathering,1.3.1.R201106061540,"org.eclipse.epp.usagedata.gathering",1354817668504
started,bundle,org.eclipse.epp.usagedata.recording,1.3.1.R201106061540,"org.eclipse.epp.usagedata.recording",1354817668504
started,bundle,org.eclipse.equinox.app,1.3.100.v20110321,"org.eclipse.equinox.app",1354817668504
started,bundle,org.eclipse.equinox.common,3.6.0.v20110523,"org.eclipse.equinox.common",1354817668504
started,bundle,org.eclipse.equinox.ds,1.3.1.R37x_v20110701,"org.eclipse.equinox.ds",1354817668514
started,bundle,org.eclipse.equinox.event,1.2.100.v20110502,"org.eclipse.equinox.event",1354817668514
started,bundle,org.eclipse.equinox.p2.core,2.1.0.v20110502-1955,"org.eclipse.equinox.p2.core",1354817668514
started,bundle,org.eclipse.equinox.p2.directorywatcher,1.0.300.v20110502-1955,"org.eclipse.equinox.p2.directorywatcher",1354817668514
started,bundle,org.eclipse.equinox.p2.engine,2.1.0.v20110511,"org.eclipse.equinox.p2.engine",1354817668514
started,bundle,org.eclipse.equinox.p2.metadata,2.1.0.v20110510,"org.eclipse.equinox.p2.metadata",1354817668514
started,bundle,org.eclipse.equinox.p2.metadata.repository,1.2.0.v20110511-1359,"org.eclipse.equinox.p2.metadata.repository",1354817668524
started,bundle,org.eclipse.equinox.p2.operations,2.1.0.v20110511-1821,"org.eclipse.equinox.p2.operations",1354817668524
started,bundle,org.eclipse.equinox.p2.reconciler.dropins,1.1.100.v20110510,"org.eclipse.equinox.p2.reconciler.dropins",1354817668524
started,bundle,org.eclipse.equinox.p2.repository,2.1.0.v20110601,"org.eclipse.equinox.p2.repository",1354817668524
started,bundle,org.eclipse.equinox.p2.ui.sdk.scheduler,1.0.100.v20110502-1955,"org.eclipse.equinox.p2.ui.sdk.scheduler",1354817668524
started,bundle,org.eclipse.equinox.p2.updatechecker,1.1.200.v20110502-1955,"org.eclipse.equinox.p2.updatechecker",1354817668524
started,bundle,org.eclipse.equinox.preferences,3.4.1.R37x_v20110725,"org.eclipse.equinox.preferences",1354817668524
started,bundle,org.eclipse.equinox.registry,3.5.101.R37x_v20110810-1611,"org.eclipse.equinox.registry",1354817668524
started,bundle,org.eclipse.equinox.security,1.1.1.R37x_v20110822-1018,"org.eclipse.equinox.security",1354817668534
started,bundle,org.eclipse.equinox.util,1.0.300.v20110502,"org.eclipse.equinox.util",1354817668534
started,bundle,org.eclipse.help,3.5.100.v20110426,"org.eclipse.help",1354817668534
started,bundle,org.eclipse.jdt.apt.core,3.3.500.v20110420-1015,"org.eclipse.jdt.apt.core",1354817668534
started,bundle,org.eclipse.jdt.core,3.7.1.v_B76_R37x,"org.eclipse.jdt.core",1354817668534
started,bundle,org.eclipse.jdt.core.manipulation,1.4.0.v20110505-0800,"org.eclipse.jdt.core.manipulation",1354817668544
started,bundle,org.eclipse.jdt.launching,3.6.1.v20110803_r371,"org.eclipse.jdt.launching",1354817668544
started,bundle,org.eclipse.jdt.ui,3.7.1.r371_v20110824-0800,"org.eclipse.jdt.ui",1354817668544
started,bundle,org.eclipse.jem,2.0.500.v201104271400,"org.eclipse.jem",1354817668544
started,bundle,org.eclipse.jem.util,2.1.100.v201103021400,"org.eclipse.jem.util",1354817668544
started,bundle,org.eclipse.jem.workbench,2.0.400.v201104251400,"org.eclipse.jem.workbench",1354817668544
started,bundle,org.eclipse.jface,3.7.0.I20110522-1430,"org.eclipse.jface",1354817668544
started,bundle,org.eclipse.jpt.common.core,1.0.1.v201108080010,"org.eclipse.jpt.common.core",1354817668554
started,bundle,org.eclipse.jpt.jpa.core,3.0.1.v201109073010,"org.eclipse.jpt.jpa.core",1354817668554
started,bundle,org.eclipse.jsch.core,1.1.300.I20110514-0800,"org.eclipse.jsch.core",1354817668554
started,bundle,org.eclipse.jst.common.frameworks,1.1.500.v201104081500,"org.eclipse.jst.common.frameworks",1354817668554
started,bundle,org.eclipse.jst.common.project.facet.core,1.4.200.v201103170302,"org.eclipse.jst.common.project.facet.core",1354817668554
started,bundle,org.eclipse.jst.j2ee,1.1.501.v201108231845,"org.eclipse.jst.j2ee",1354817668554
started,bundle,org.eclipse.jst.j2ee.core,1.2.101.v201108110300,"org.eclipse.jst.j2ee.core",1354817668564
started,bundle,org.eclipse.jst.j2ee.navigator.ui,1.1.501.v201107261503,"org.eclipse.jst.j2ee.navigator.ui",1354817668564
started,bundle,org.eclipse.jst.j2ee.ui,1.1.501.v201108231700,"org.eclipse.jst.j2ee.ui",1354817668564
started,bundle,org.eclipse.jst.j2ee.web,1.1.501.v201108231500,"org.eclipse.jst.j2ee.web",1354817668564
started,bundle,org.eclipse.jst.j2ee.webservice,1.1.400.v201004110600,"org.eclipse.jst.j2ee.webservice",1354817668574
started,bundle,org.eclipse.jst.j2ee.webservice.ui,1.1.500.v201105122000,"org.eclipse.jst.j2ee.webservice.ui",1354817668574
started,bundle,org.eclipse.jst.jee.ui,1.0.400.v201105122000,"org.eclipse.jst.jee.ui",1354817668574
started,bundle,org.eclipse.jst.ws.jaxrs.core,1.0.301.v201108240656,"org.eclipse.jst.ws.jaxrs.core",1354817668574
started,bundle,org.eclipse.jst.ws.jaxws.utils,1.0.0.v201004171919,"org.eclipse.jst.ws.jaxws.utils",1354817668574
started,bundle,org.eclipse.ltk.core.refactoring,3.5.201.r371_v20110824-0800,"org.eclipse.ltk.core.refactoring",1354817668574
started,bundle,org.eclipse.ltk.ui.refactoring,3.6.0.v20110505-0800,"org.eclipse.ltk.ui.refactoring",1354817668574
started,bundle,org.eclipse.mylyn.bugzilla.core,3.6.2.v20110903-0100,"org.eclipse.mylyn.bugzilla.core",1354817668584
started,bundle,org.eclipse.mylyn.bugzilla.ui,3.6.0.v20110608-1400,"org.eclipse.mylyn.bugzilla.ui",1354817668584
started,bundle,org.eclipse.mylyn.commons.identity,0.8.0.v20110608-1400,"org.eclipse.mylyn.commons.identity",1354817668584
started,bundle,org.eclipse.mylyn.commons.net,3.6.0.v20110608-1400,"org.eclipse.mylyn.commons.net",1354817668584
started,bundle,org.eclipse.mylyn.commons.ui,3.6.1.v20110720-0100,"org.eclipse.mylyn.commons.ui",1354817668584
started,bundle,org.eclipse.mylyn.context.core,3.6.1.v20110720-0100,"org.eclipse.mylyn.context.core",1354817668584
started,bundle,org.eclipse.mylyn.context.ui,3.6.0.v20110608-1400,"org.eclipse.mylyn.context.ui",1354817668584
started,bundle,org.eclipse.mylyn.monitor.ui,3.6.0.v20110608-1400,"org.eclipse.mylyn.monitor.ui",1354817668594
started,bundle,org.eclipse.mylyn.tasks.ui,3.6.2.v20110826-0100,"org.eclipse.mylyn.tasks.ui",1354817668594
started,bundle,org.eclipse.mylyn.team.ui,3.6.1.v20110825-0100,"org.eclipse.mylyn.team.ui",1354817668594
started,bundle,org.eclipse.search,3.7.0.v20110505-0800,"org.eclipse.search",1354817668594
started,bundle,org.eclipse.team.core,3.6.0.I20110525-0800,"org.eclipse.team.core",1354817668594
started,bundle,org.eclipse.team.cvs.core,3.3.400.I20110510-0800,"org.eclipse.team.cvs.core",1354817668594
started,bundle,org.eclipse.team.cvs.ui,3.3.400.I20110510-0800,"org.eclipse.team.cvs.ui",1354817668604
started,bundle,org.eclipse.team.ui,3.6.100.I20110525-0800,"org.eclipse.team.ui",1354817668604
started,bundle,org.eclipse.ui,3.7.0.I20110602-0100,"org.eclipse.ui",1354817668604
started,bundle,org.eclipse.ui.console,3.5.100.v20110511,"org.eclipse.ui.console",1354817668604
started,bundle,org.eclipse.ui.editors,3.7.0.v20110517-0800,"org.eclipse.ui.editors",1354817668604
started,bundle,org.eclipse.ui.forms,3.5.100.v20110425,"org.eclipse.ui.forms",1354817668614
started,bundle,org.eclipse.ui.ide,3.7.0.v20110809-1737,"org.eclipse.ui.ide",1354817668614
started,bundle,org.eclipse.ui.navigator,3.5.100.v20110809-2227,"org.eclipse.ui.navigator",1354817668614
started,bundle,org.eclipse.ui.navigator.resources,3.4.300.I20110421-1800,"org.eclipse.ui.navigator.resources",1354817668614
started,bundle,org.eclipse.ui.net,1.2.100.I20110511-0800,"org.eclipse.ui.net",1354817668624
started,bundle,org.eclipse.ui.views,3.6.0.I20110412-0800,"org.eclipse.ui.views",1354817668624
started,bundle,org.eclipse.ui.workbench,3.7.0.I20110519-0100,"org.eclipse.ui.workbench",1354817668624
started,bundle,org.eclipse.ui.workbench.texteditor,3.7.0.v20110505-0800,"org.eclipse.ui.workbench.texteditor",1354817668624
started,bundle,org.eclipse.update.configurator,3.3.100.v20100512,"org.eclipse.update.configurator",1354817668634
started,bundle,org.eclipse.update.core,3.2.500.v20110330,"org.eclipse.update.core",1354817668634
started,bundle,org.eclipse.update.scheduler,3.2.300.v20100512,"org.eclipse.update.scheduler",1354817668634
started,bundle,org.eclipse.wst.common.core,1.2.0.v200908252030,"org.eclipse.wst.common.core",1354817668634
started,bundle,org.eclipse.wst.common.emf,1.2.100.v201101101900,"org.eclipse.wst.common.emf",1354817668634
started,bundle,org.eclipse.wst.common.emfworkbench.integration,1.2.101.v201107140600,"org.eclipse.wst.common.emfworkbench.integration",1354817668634
started,bundle,org.eclipse.wst.common.frameworks,1.2.101.v201107192200,"org.eclipse.wst.common.frameworks",1354817668634
started,bundle,org.eclipse.wst.common.frameworks.ui,1.2.100.v201105122000,"org.eclipse.wst.common.frameworks.ui",1354817668644
started,bundle,org.eclipse.wst.common.modulecore,1.2.101.v201108231700,"org.eclipse.wst.common.modulecore",1354817668644
started,bundle,org.eclipse.wst.common.project.facet.core,1.4.200.v201103170332,"org.eclipse.wst.common.project.facet.core",1354817668644
started,bundle,org.eclipse.wst.common.ui,1.1.500.v200911190730,"org.eclipse.wst.common.ui",1354817668644
started,bundle,org.eclipse.wst.jsdt.core,1.1.101.v201108151912,"org.eclipse.wst.jsdt.core",1354817668644
started,bundle,org.eclipse.wst.jsdt.manipulation,1.0.300.v201104272153,"org.eclipse.wst.jsdt.manipulation",1354817668644
started,bundle,org.eclipse.wst.jsdt.ui,1.1.101.v201108151912,"org.eclipse.wst.jsdt.ui",1354817668654
started,bundle,org.eclipse.wst.validation,1.2.302.v201107140600,"org.eclipse.wst.validation",1354817668654
started,bundle,org.eclipse.wst.web,1.1.500.v201104251400,"org.eclipse.wst.web",1354817668654
started,bundle,org.eclipse.wst.xml.core,1.1.601.v201108302147,"org.eclipse.wst.xml.core",1354817668654
os,sysinfo,,,"win32",1354817668664
arch,sysinfo,,,"x86",1354817668664
ws,sysinfo,,,"win32",1354817668664
locale,sysinfo,,,"en_US",1354817668664
processors,sysinfo,,,"4",1354817668664
java.runtime.name,sysinfo,,,"Java(TM) SE Runtime Environment",1354817668664
java.runtime.version,sysinfo,,,"1.6.0_37-b06",1354817668664
java.specification.name,sysinfo,,,"Java Platform API Specification",1354817668664
java.specification.vendor,sysinfo,,,"Sun Microsystems Inc.",1354817668664
java.specification.version,sysinfo,,,"1.6",1354817668664
java.vendor,sysinfo,,,"Sun Microsystems Inc.",1354817668664
java.version,sysinfo,,,"1.6.0_37",1354817668664
java.vm.info,sysinfo,,,"mixed mode, sharing",1354817668664
java.vm.name,sysinfo,,,"Java HotSpot(TM) Client VM",1354817668664
java.vm.specification.name,sysinfo,,,"Java Virtual Machine Specification",1354817668664
java.vm.specification.vendor,sysinfo,,,"Sun Microsystems Inc.",1354817668664
java.vm.specification.version,sysinfo,,,"1.0",1354817668664
java.vm.vendor,sysinfo,,,"Sun Microsystems Inc.",1354817668664
java.vm.version,sysinfo,,,"20.12-b01",1354817668664
started,bundle,org.eclipse.jst.servlet.ui,1.1.501.v201108220630,"org.eclipse.jst.servlet.ui",1354817669374
started,bundle,org.eclipse.wst.dtd.core,1.1.501.v201107252021,"org.eclipse.wst.dtd.core",1354817669544
started,bundle,org.eclipse.wst.sse.ui,1.3.1.v201108191312,"org.eclipse.wst.sse.ui",1354817669554
started,bundle,org.eclipse.wst.html.ui,1.0.601.v201108152113,"org.eclipse.wst.html.ui",1354817669554
started,bundle,org.eclipse.wst.sse.core,1.1.601.v201108151912,"org.eclipse.wst.sse.core",1354817669574
started,bundle,org.eclipse.jst.jsf.common,1.2.3.v201104061039,"org.eclipse.jst.jsf.common",1354817669584
started,bundle,org.eclipse.jst.jsf.core,1.3.105.v201108261005,"org.eclipse.jst.jsf.core",1354817669594
started,bundle,org.eclipse.jst.jsp.core,1.2.401.v201108302147,"org.eclipse.jst.jsp.core",1354817669624
started,bundle,org.eclipse.wst.wsdl.validation,1.1.502.v201104071820,"org.eclipse.wst.wsdl.validation",1354817669674
started,bundle,org.eclipse.wst.xsd.core,1.1.600.v201104070312,"org.eclipse.wst.xsd.core",1354817669694
started,bundle,org.eclipse.wst.xsl.core,1.1.100.v201102270516,"org.eclipse.wst.xsl.core",1354817669694
deactivated,workbench,org.eclipse.ui.workbench,3.7.0.I20110519-0100,"",1354817672594
started,bundle,org.eclipse.wst.common.project.facet.ui,1.4.200.v201103311536,"org.eclipse.wst.common.project.facet.ui",1354817682234
started,bundle,org.eclipse.wst.web.ui,1.1.400.v201004141630,"org.eclipse.wst.web.ui",1354817682234
started,bundle,org.eclipse.wst.server.core,1.1.303.v20110816_1717,"org.eclipse.wst.server.core",1354817682344
started,bundle,org.eclipse.wst.server.ui,1.1.306.v20110823_1704,"org.eclipse.wst.server.ui",1354817682454
started,bundle,oracle.eclipse.tools.glassfish,4.2.1.201201241947,"oracle.eclipse.tools.glassfish",1354817682464
started,bundle,org.eclipse.jst.server.core,1.2.202.v20110419,"org.eclipse.jst.server.core",1354817683184
started,bundle,org.eclipse.jst.server.tomcat.core,1.1.300.v20110427,"org.eclipse.jst.server.tomcat.core",1354817683194
started,bundle,org.eclipse.jst.common.project.facet.ui,1.4.200.v201008182133,"org.eclipse.jst.common.project.facet.ui",1354817683534
started,bundle,org.eclipse.jst.server.tomcat.ui,1.1.200.v20100418,"org.eclipse.jst.server.tomcat.ui",1354817692354
activated,workbench,org.eclipse.ui.workbench,3.7.0.I20110519-0100,"",1354817702504
executed,command,org.eclipse.ui,3.7.0.I20110602-0100,"org.eclipse.ui.newWizard",1354817702574
deactivated,workbench,org.eclipse.ui.workbench,3.7.0.I20110519-0100,"",1354817704044
activated,workbench,org.eclipse.ui.workbench,3.7.0.I20110519-0100,"",1354818088864
started,bundle,org.eclipse.jst.jee,1.0.401.v201105122000,"org.eclipse.jst.jee",1354818093424
started,bundle,org.eclipse.wst.ws.service.policy.ui,1.0.300.v201108240515,"org.eclipse.wst.ws.service.policy.ui",1354818093554
started,bundle,org.eclipse.wst.ws.service.policy,1.0.303.v201009221810,"org.eclipse.wst.ws.service.policy",1354818093564
started,bundle,org.eclipse.wst.command.env,1.0.409.v201004211805,"org.eclipse.wst.command.env",1354818093634
started,bundle,org.eclipse.wst.ws,1.1.203.v201004211805,"org.eclipse.wst.ws",1354818093634
started,bundle,org.eclipse.compare,3.5.201.R37x_v20110817-0800,"org.eclipse.compare",1354818094184
started,bundle,org.eclipse.debug.ui,3.7.101.v20110817_r371,"org.eclipse.debug.ui",1354818104734
started,bundle,org.eclipse.team.cvs.ssh2,3.2.300.I20110511-0800,"org.eclipse.team.cvs.ssh2",1354818115054
deactivated,workbench,org.eclipse.ui.workbench,3.7.0.I20110519-0100,"",1354818117194
activated,workbench,org.eclipse.ui.workbench,3.7.0.I20110519-0100,"",1354818123594
deactivated,workbench,org.eclipse.ui.workbench,3.7.0.I20110519-0100,"",1354818153764
activated,workbench,org.eclipse.ui.workbench,3.7.0.I20110519-0100,"",1354818263822
started,bundle,org.eclipse.jdt.debug,3.7.1.v20110802_r371,"org.eclipse.jdt.debug",1354818270972
started,bundle,org.eclipse.jdt.debug.ui,3.6.1.v20110803_r371,"org.eclipse.jdt.debug.ui",1354818271462
activated,editor,org.eclipse.jdt.ui,3.7.1.r371_v20110824-0800,"org.eclipse.jdt.ui.CompilationUnitEditor",1354818272122
activated,view,org.eclipse.ui.navigator.resources,3.4.300.I20110421-1800,"org.eclipse.ui.navigator.ProjectExplorer",1354818272182
deactivated,workbench,org.eclipse.ui.workbench,3.7.0.I20110519-0100,"",1354818275194
activated,workbench,org.eclipse.ui.workbench,3.7.0.I20110519-0100,"",1354818346466
deactivated,workbench,org.eclipse.ui.workbench,3.7.0.I20110519-0100,"",1354818351886
activated,workbench,org.eclipse.ui.workbench,3.7.0.I20110519-0100,"",1354818411596
started,bundle,org.eclipse.wst.common.environment,1.0.400.v200912181832,"org.eclipse.wst.common.environment",1354818455856
deactivated,workbench,org.eclipse.ui.workbench,3.7.0.I20110519-0100,"",1354818456096
activated,workbench,org.eclipse.ui.workbench,3.7.0.I20110519-0100,"",1354818482874
deactivated,workbench,org.eclipse.ui.workbench,3.7.0.I20110519-0100,"",1354818485990
activated,workbench,org.eclipse.ui.workbench,3.7.0.I20110519-0100,"",1354818566470
started,bundle,org.eclipse.jst.ws.jaxws.dom.integration,1.0.100.v201101252155,"org.eclipse.jst.ws.jaxws.dom.integration",1354818573640
started,bundle,org.eclipse.jst.ws.jaxws.dom.ui,1.0.0.v201004171919,"org.eclipse.jst.ws.jaxws.dom.ui",1354818573650
started,bundle,org.eclipse.jst.j2ee.ejb,1.1.503.v201108102200,"org.eclipse.jst.j2ee.ejb",1354818573850
started,bundle,org.eclipse.jst.j2ee.jca,1.1.500.v201108102200,"org.eclipse.jst.j2ee.jca",1354818573870
started,bundle,org.eclipse.jst.jee.ejb,1.0.301.v201007070821,"org.eclipse.jst.jee.ejb",1354818573920
started,bundle,org.eclipse.jst.jee.web,1.0.301.v201007070907,"org.eclipse.jst.jee.web",1354818573930
started,bundle,org.eclipse.xsd,2.7.0.v20110606-0949,"org.eclipse.xsd",1354818574140
started,bundle,org.eclipse.wst.html.core,1.1.501.v201109080146,"org.eclipse.wst.html.core",1354818583320
started,bundle,org.eclipse.wst.xml.ui,1.1.201.v201108151912,"org.eclipse.wst.xml.ui",1354818583450
started,bundle,org.eclipse.wst.css.core,1.1.500.v201104191926,"org.eclipse.wst.css.core",1354818583810
started,bundle,org.eclipse.wst.common.uriresolver,1.1.401.v201004280700,"org.eclipse.wst.common.uriresolver",1354818583820
started,bundle,org.eclipse.wst.jsdt.web.ui,1.0.401.v201108152113,"org.eclipse.wst.jsdt.web.ui",1354818584130
started,bundle,org.eclipse.wst.css.ui,1.0.600.v201103022054,"org.eclipse.wst.css.ui",1354818584140
started,bundle,org.eclipse.wst.dtd.ui,1.0.600.v201103171359,"org.eclipse.wst.dtd.ui",1354818584230
started,bundle,org.eclipse.wst.jsdt.web.core,1.0.401.v201108152113,"org.eclipse.wst.jsdt.web.core",1354818584310
deactivated,workbench,org.eclipse.ui.workbench,3.7.0.I20110519-0100,"",1354818585260
activated,workbench,org.eclipse.ui.workbench,3.7.0.I20110519-0100,"",1354818595410
opened,editor,org.eclipse.wst.html.ui,1.0.601.v201108152113,"org.eclipse.wst.html.core.htmlsource.source",1354818597170
activated,editor,org.eclipse.wst.html.ui,1.0.601.v201108152113,"org.eclipse.wst.html.core.htmlsource.source",1354818597630
executed,command,org.eclipse.ui,3.7.0.I20110602-0100,"org.eclipse.ui.file.save",1354818603760
activated,view,org.eclipse.ui.navigator.resources,3.4.300.I20110421-1800,"org.eclipse.ui.navigator.ProjectExplorer",1354818605610
deactivated,workbench,org.eclipse.ui.workbench,3.7.0.I20110519-0100,"",1354818610180
activated,workbench,org.eclipse.ui.workbench,3.7.0.I20110519-0100,"",1354818631201
deactivated,workbench,org.eclipse.ui.workbench,3.7.0.I20110519-0100,"",1354818633977
activated,workbench,org.eclipse.ui.workbench,3.7.0.I20110519-0100,"",1354819300210
deactivated,workbench,org.eclipse.ui.workbench,3.7.0.I20110519-0100,"",1354819303430
activated,workbench,org.eclipse.ui.workbench,3.7.0.I20110519-0100,"",1354819364298
deactivated,workbench,org.eclipse.ui.workbench,3.7.0.I20110519-0100,"",1354819376458
activated,workbench,org.eclipse.ui.workbench,3.7.0.I20110519-0100,"",1354819396432
deactivated,workbench,org.eclipse.ui.workbench,3.7.0.I20110519-0100,"",1354819405192
started,bundle,org.eclipse.emf.codegen,2.6.0.v20110913-1156,"org.eclipse.emf.codegen",1354819432302
activated,workbench,org.eclipse.ui.workbench,3.7.0.I20110519-0100,"",1354819432732
opened,editor,org.eclipse.jdt.ui,3.7.1.r371_v20110824-0800,"org.eclipse.jdt.ui.CompilationUnitEditor",1354819433672
activated,editor,org.eclipse.jdt.ui,3.7.1.r371_v20110824-0800,"org.eclipse.jdt.ui.CompilationUnitEditor",1354819433912
started,bundle,org.eclipse.wst.xsl.exslt.core,1.0.0.v201005240426,"org.eclipse.wst.xsl.exslt.core",1354819434132
started,bundle,org.eclipse.wst.internet.cache,1.0.400.v201004280700,"org.eclipse.wst.internet.cache",1354819434522
deactivated,workbench,org.eclipse.ui.workbench,3.7.0.I20110519-0100,"",1354819437612
activated,workbench,org.eclipse.ui.workbench,3.7.0.I20110519-0100,"",1354819617912
activated,view,org.eclipse.ui.navigator.resources,3.4.300.I20110421-1800,"org.eclipse.ui.navigator.ProjectExplorer",1354819630222
deactivated,workbench,org.eclipse.ui.workbench,3.7.0.I20110519-0100,"",1354819635352
activated,workbench,org.eclipse.ui.workbench,3.7.0.I20110519-0100,"",1354819789962
