what,kind,bundleId,bundleVersion,description,time
executed,command,org.eclipse.ui,3.7.0.I20110602-0100,"org.eclipse.ui.edit.text.contentAssist.proposals",1356398235142
executed,command,org.eclipse.ui,3.7.0.I20110602-0100,"org.eclipse.ui.edit.text.contentAssist.proposals",1356398240847
executed,command,org.eclipse.ui,3.7.0.I20110602-0100,"org.eclipse.ui.edit.text.contentAssist.proposals",1356398263082
executed,command,org.eclipse.ui,3.7.0.I20110602-0100,"org.eclipse.ui.file.save",1356398269642
error,log,,,"Core exception while retrieving the content description",1356398270812
error,log,,,"Core exception while retrieving the content description",1356398270817
error,log,,,"Core exception while retrieving the content description",1356398270827
error,log,,,"Core exception while retrieving the content description",1356398270832
error,log,,,"Core exception while retrieving the content description",1356398270857
error,log,,,"Core exception while retrieving the content description",1356398271662
error,log,,,"Core exception while retrieving the content description",1356398271667
error,log,,,"Core exception while retrieving the content description",1356398271677
error,log,,,"Core exception while retrieving the content description",1356398271677
error,log,,,"Core exception while retrieving the content description",1356398271682
executed,command,org.eclipse.ui,3.7.0.I20110602-0100,"org.eclipse.ui.file.save",1356398273187
error,log,,,"Core exception while retrieving the content description",1356398274382
error,log,,,"Core exception while retrieving the content description",1356398274382
error,log,,,"Core exception while retrieving the content description",1356398274392
error,log,,,"Core exception while retrieving the content description",1356398274392
error,log,,,"Core exception while retrieving the content description",1356398274397
error,log,,,"Core exception while retrieving the content description",1356398275202
error,log,,,"Core exception while retrieving the content description",1356398275202
error,log,,,"Core exception while retrieving the content description",1356398275212
error,log,,,"Core exception while retrieving the content description",1356398275217
error,log,,,"Core exception while retrieving the content description",1356398275222
activated,editor,org.eclipse.jdt.ui,3.7.1.r371_v20110824-0800,"org.eclipse.jdt.ui.CompilationUnitEditor",1356398275767
activated,view,org.eclipse.ui.console,3.5.100.v20110511,"org.eclipse.ui.console.ConsoleView",1356398276713
activated,editor,org.eclipse.jdt.ui,3.7.1.r371_v20110824-0800,"org.eclipse.jdt.ui.CompilationUnitEditor",1356398281354
activated,editor,org.eclipse.jdt.ui,3.7.1.r371_v20110824-0800,"org.eclipse.jdt.ui.CompilationUnitEditor",1356398281444
closed,editor,org.eclipse.jdt.ui,3.7.1.r371_v20110824-0800,"org.eclipse.jdt.ui.CompilationUnitEditor",1356398281444
activated,editor,org.eclipse.jdt.ui,3.7.1.r371_v20110824-0800,"org.eclipse.jdt.ui.CompilationUnitEditor",1356398284869
executed,command,org.eclipse.ui,3.7.0.I20110602-0100,"org.eclipse.ui.edit.copy",1356398305489
deactivated,workbench,org.eclipse.ui.workbench,3.7.0.I20110519-0100,"",1356398306214
executed,command,org.eclipse.ui,3.7.0.I20110602-0100,"org.eclipse.ui.edit.findReplace",1356398306274
executed,command,org.eclipse.ui,3.7.0.I20110602-0100,"org.eclipse.ui.edit.paste",1356398307614
executed,command,org.eclipse.ui,3.7.0.I20110602-0100,"org.eclipse.ui.edit.paste",1356398310685
activated,workbench,org.eclipse.ui.workbench,3.7.0.I20110519-0100,"",1356398324060
executed,command,org.eclipse.ui,3.7.0.I20110602-0100,"org.eclipse.ui.file.save",1356398325695
error,log,,,"Core exception while retrieving the content description",1356398326755
error,log,,,"Core exception while retrieving the content description",1356398326760
error,log,,,"Core exception while retrieving the content description",1356398326765
error,log,,,"Core exception while retrieving the content description",1356398326770
error,log,,,"Core exception while retrieving the content description",1356398326775
error,log,,,"Core exception while retrieving the content description",1356398327850
error,log,,,"Core exception while retrieving the content description",1356398327855
error,log,,,"Core exception while retrieving the content description",1356398327865
error,log,,,"Core exception while retrieving the content description",1356398327865
error,log,,,"Core exception while retrieving the content description",1356398327870
activated,view,org.eclipse.ui.console,3.5.100.v20110511,"org.eclipse.ui.console.ConsoleView",1356398329386
activated,editor,org.eclipse.jdt.ui,3.7.1.r371_v20110824-0800,"org.eclipse.jdt.ui.CompilationUnitEditor",1356398334007
activated,editor,org.eclipse.jdt.ui,3.7.1.r371_v20110824-0800,"org.eclipse.jdt.ui.CompilationUnitEditor",1356398352917
activated,editor,org.eclipse.jdt.ui,3.7.1.r371_v20110824-0800,"org.eclipse.jdt.ui.CompilationUnitEditor",1356398365007
activated,editor,org.eclipse.jdt.ui,3.7.1.r371_v20110824-0800,"org.eclipse.jdt.ui.CompilationUnitEditor",1356398376118
error,log,,,"Core exception while retrieving the content description",1356398385983
error,log,,,"Core exception while retrieving the content description",1356398385983
error,log,,,"Core exception while retrieving the content description",1356398385993
error,log,,,"Core exception while retrieving the content description",1356398385998
error,log,,,"Core exception while retrieving the content description",1356398385998
executed,command,org.eclipse.ui,3.7.0.I20110602-0100,"org.eclipse.ui.file.save",1356398386353
error,log,,,"Core exception while retrieving the content description",1356398387483
error,log,,,"Core exception while retrieving the content description",1356398387488
error,log,,,"Core exception while retrieving the content description",1356398387493
error,log,,,"Core exception while retrieving the content description",1356398387498
error,log,,,"Core exception while retrieving the content description",1356398387503
error,log,,,"Core exception while retrieving the content description",1356398388418
error,log,,,"Core exception while retrieving the content description",1356398388423
error,log,,,"Core exception while retrieving the content description",1356398388433
error,log,,,"Core exception while retrieving the content description",1356398388438
error,log,,,"Core exception while retrieving the content description",1356398388443
deactivated,workbench,org.eclipse.ui.workbench,3.7.0.I20110519-0100,"",1356398390528
activated,workbench,org.eclipse.ui.workbench,3.7.0.I20110519-0100,"",1356398392174
activated,view,org.eclipse.ui.console,3.5.100.v20110511,"org.eclipse.ui.console.ConsoleView",1356398392209
activated,editor,org.eclipse.jdt.ui,3.7.1.r371_v20110824-0800,"org.eclipse.jdt.ui.CompilationUnitEditor",1356398479688
activated,view,org.eclipse.ui.navigator.resources,3.4.300.I20110421-1800,"org.eclipse.ui.navigator.ProjectExplorer",1356398482458
activated,editor,org.eclipse.wst.xml.ui,1.1.201.v201108151912,"org.eclipse.wst.xml.ui.internal.tabletree.XMLMultiPageEditorPart",1356398492738
executed,command,org.eclipse.ui,3.7.0.I20110602-0100,"org.eclipse.ui.edit.copy",1356398499218
executed,command,org.eclipse.ui,3.7.0.I20110602-0100,"org.eclipse.ui.edit.paste",1356398503653
error,log,,,"Core exception while retrieving the content description",1356398505238
error,log,,,"Core exception while retrieving the content description",1356398505248
executed,command,org.eclipse.ui,3.7.0.I20110602-0100,"org.eclipse.ui.file.save",1356398505353
error,log,,,"Core exception while retrieving the content description",1356398505998
error,log,,,"Core exception while retrieving the content description",1356398506003
error,log,,,"Core exception while retrieving the content description",1356398506013
error,log,,,"Core exception while retrieving the content description",1356398506013
error,log,,,"Core exception while retrieving the content description",1356398506018
error,log,,,"Core exception while retrieving the content description",1356398507118
error,log,,,"Core exception while retrieving the content description",1356398507123
error,log,,,"Core exception while retrieving the content description",1356398507133
error,log,,,"Core exception while retrieving the content description",1356398507133
error,log,,,"Core exception while retrieving the content description",1356398507138
activated,view,org.eclipse.ui.navigator.resources,3.4.300.I20110421-1800,"org.eclipse.ui.navigator.ProjectExplorer",1356398533173
opened,editor,org.eclipse.jdt.ui,3.7.1.r371_v20110824-0800,"org.eclipse.jdt.ui.CompilationUnitEditor",1356398533688
activated,editor,org.eclipse.jdt.ui,3.7.1.r371_v20110824-0800,"org.eclipse.jdt.ui.CompilationUnitEditor",1356398533988
deactivated,workbench,org.eclipse.ui.workbench,3.7.0.I20110519-0100,"",1356398553213
activated,workbench,org.eclipse.ui.workbench,3.7.0.I20110519-0100,"",1356398554588
activated,editor,org.eclipse.jdt.ui,3.7.1.r371_v20110824-0800,"org.eclipse.jdt.ui.CompilationUnitEditor",1356399109721
executed,command,org.eclipse.ui,3.7.0.I20110602-0100,"org.eclipse.ui.edit.copy",1356399118737
activated,view,org.eclipse.ui.navigator.resources,3.4.300.I20110421-1800,"org.eclipse.ui.navigator.ProjectExplorer",1356399120531
deactivated,workbench,org.eclipse.ui.workbench,3.7.0.I20110519-0100,"",1356399124260
activated,workbench,org.eclipse.ui.workbench,3.7.0.I20110519-0100,"",1356399142512
opened,editor,org.eclipse.jdt.ui,3.7.1.r371_v20110824-0800,"org.eclipse.jdt.ui.CompilationUnitEditor",1356399143120
activated,editor,org.eclipse.jdt.ui,3.7.1.r371_v20110824-0800,"org.eclipse.jdt.ui.CompilationUnitEditor",1356399143276
error,log,,,"Core exception while retrieving the content description",1356399145164
error,log,,,"Core exception while retrieving the content description",1356399145164
error,log,,,"Core exception while retrieving the content description",1356399145164
error,log,,,"Core exception while retrieving the content description",1356399145164
error,log,,,"Core exception while retrieving the content description",1356399145164
executed,command,org.eclipse.ui,3.7.0.I20110602-0100,"org.eclipse.ui.edit.paste",1356399149563
deactivated,workbench,org.eclipse.ui.workbench,3.7.0.I20110519-0100,"",1356399165647
activated,workbench,org.eclipse.ui.workbench,3.7.0.I20110519-0100,"",1356399168439
executed,command,org.eclipse.jdt.ui,3.7.1.r371_v20110824-0800,"org.eclipse.jdt.ui.edit.text.java.generate.constructor.using.fields",1356399168517
deactivated,workbench,org.eclipse.ui.workbench,3.7.0.I20110519-0100,"",1356399180279
activated,workbench,org.eclipse.ui.workbench,3.7.0.I20110519-0100,"",1356399181512
executed,command,org.eclipse.jdt.ui,3.7.1.r371_v20110824-0800,"org.eclipse.jdt.ui.edit.text.java.generate.constructor.using.fields",1356399181637
deactivated,workbench,org.eclipse.ui.workbench,3.7.0.I20110519-0100,"",1356399192151
activated,workbench,org.eclipse.ui.workbench,3.7.0.I20110519-0100,"",1356399198454
executed,command,org.eclipse.jdt.ui,3.7.1.r371_v20110824-0800,"org.eclipse.jdt.ui.edit.text.java.create.getter.setter",1356399198719
activated,editor,org.eclipse.jdt.ui,3.7.1.r371_v20110824-0800,"org.eclipse.jdt.ui.CompilationUnitEditor",1356399241572
executed,command,org.eclipse.ui,3.7.0.I20110602-0100,"org.eclipse.ui.edit.delete",1356399264707
executed,command,org.eclipse.ui,3.7.0.I20110602-0100,"org.eclipse.ui.edit.delete",1356399268201
deactivated,workbench,org.eclipse.ui.workbench,3.7.0.I20110519-0100,"",1356399280088
activated,workbench,org.eclipse.ui.workbench,3.7.0.I20110519-0100,"",1356399282850
executed,command,org.eclipse.jdt.ui,3.7.1.r371_v20110824-0800,"org.eclipse.jdt.ui.edit.text.java.create.getter.setter",1356399283115
executed,command,org.eclipse.ui,3.7.0.I20110602-0100,"org.eclipse.ui.edit.undo",1356399293816
executed,command,org.eclipse.ui,3.7.0.I20110602-0100,"org.eclipse.ui.edit.undo",1356399294534
executed,command,org.eclipse.ui,3.7.0.I20110602-0100,"org.eclipse.ui.edit.undo",1356399295330
executed,command,org.eclipse.ui,3.7.0.I20110602-0100,"org.eclipse.ui.edit.undo",1356399297966
executed,command,org.eclipse.ui,3.7.0.I20110602-0100,"org.eclipse.ui.edit.undo",1356399301289
executed,command,org.eclipse.ui,3.7.0.I20110602-0100,"org.eclipse.ui.edit.delete",1356399317763
executed,command,org.eclipse.jdt.ui,3.7.1.r371_v20110824-0800,"org.eclipse.jdt.ui.edit.text.java.source.quickMenu",1356399324049
deactivated,workbench,org.eclipse.ui.workbench,3.7.0.I20110519-0100,"",1356399327715
activated,workbench,org.eclipse.ui.workbench,3.7.0.I20110519-0100,"",1356399331693
executed,command,org.eclipse.jdt.ui,3.7.1.r371_v20110824-0800,"org.eclipse.jdt.ui.edit.text.java.generate.constructor.using.fields",1356399331787
deactivated,workbench,org.eclipse.ui.workbench,3.7.0.I20110519-0100,"",1356399343846
activated,workbench,org.eclipse.ui.workbench,3.7.0.I20110519-0100,"",1356399345921
executed,command,org.eclipse.jdt.ui,3.7.1.r371_v20110824-0800,"org.eclipse.jdt.ui.edit.text.java.generate.constructor.using.fields",1356399346061
executed,command,org.eclipse.ui,3.7.0.I20110602-0100,"org.eclipse.ui.edit.delete",1356399357870
deactivated,workbench,org.eclipse.ui.workbench,3.7.0.I20110519-0100,"",1356399364672
activated,workbench,org.eclipse.ui.workbench,3.7.0.I20110519-0100,"",1356399379445
executed,command,org.eclipse.jdt.ui,3.7.1.r371_v20110824-0800,"org.eclipse.jdt.ui.edit.text.java.create.getter.setter",1356399379726
executed,command,org.eclipse.ui,3.7.0.I20110602-0100,"org.eclipse.ui.edit.delete",1356399385623
executed,command,org.eclipse.ui,3.7.0.I20110602-0100,"org.eclipse.ui.edit.delete",1356399386231
executed,command,org.eclipse.ui,3.7.0.I20110602-0100,"org.eclipse.ui.edit.delete",1356399386730
executed,command,org.eclipse.ui,3.7.0.I20110602-0100,"org.eclipse.ui.file.save",1356399432813
error,log,,,"Core exception while retrieving the content description",1356399434747
error,log,,,"Core exception while retrieving the content description",1356399434747
error,log,,,"Core exception while retrieving the content description",1356399434747
error,log,,,"Core exception while retrieving the content description",1356399434747
error,log,,,"Core exception while retrieving the content description",1356399434763
executed,command,org.eclipse.ui,3.7.0.I20110602-0100,"org.eclipse.ui.file.save",1356399450646
error,log,,,"Core exception while retrieving the content description",1356399452533
error,log,,,"Core exception while retrieving the content description",1356399452533
error,log,,,"Core exception while retrieving the content description",1356399452533
error,log,,,"Core exception while retrieving the content description",1356399452549
error,log,,,"Core exception while retrieving the content description",1356399452549
activated,editor,org.eclipse.jdt.ui,3.7.1.r371_v20110824-0800,"org.eclipse.jdt.ui.CompilationUnitEditor",1356399460412
activated,editor,org.eclipse.jdt.ui,3.7.1.r371_v20110824-0800,"org.eclipse.jdt.ui.CompilationUnitEditor",1356399472597
activated,editor,org.eclipse.jdt.ui,3.7.1.r371_v20110824-0800,"org.eclipse.jdt.ui.CompilationUnitEditor",1356399479586
executed,command,org.eclipse.ui,3.7.0.I20110602-0100,"org.eclipse.ui.edit.copy",1356399505404
activated,editor,org.eclipse.jdt.ui,3.7.1.r371_v20110824-0800,"org.eclipse.jdt.ui.CompilationUnitEditor",1356399506542
executed,command,org.eclipse.ui,3.7.0.I20110602-0100,"org.eclipse.ui.edit.paste",1356399508695
deactivated,workbench,org.eclipse.ui.workbench,3.7.0.I20110519-0100,"",1356399550067
activated,workbench,org.eclipse.ui.workbench,3.7.0.I20110519-0100,"",1356399550285
deactivated,workbench,org.eclipse.ui.workbench,3.7.0.I20110519-0100,"",1356399553436
activated,workbench,org.eclipse.ui.workbench,3.7.0.I20110519-0100,"",1356399553577
executed,command,org.eclipse.ui,3.7.0.I20110602-0100,"org.eclipse.ui.edit.delete",1356399561143
executed,command,org.eclipse.ui,3.7.0.I20110602-0100,"org.eclipse.ui.edit.text.contentAssist.proposals",1356399568085
executed,command,org.eclipse.ui,3.7.0.I20110602-0100,"org.eclipse.ui.edit.text.contentAssist.proposals",1356399594698
executed,command,org.eclipse.ui,3.7.0.I20110602-0100,"org.eclipse.ui.edit.text.contentAssist.proposals",1356399620267
executed,command,org.eclipse.ui,3.7.0.I20110602-0100,"org.eclipse.ui.edit.text.contentAssist.proposals",1356399650874
executed,command,org.eclipse.ui,3.7.0.I20110602-0100,"org.eclipse.ui.edit.text.contentAssist.proposals",1356399661186
executed,command,org.eclipse.ui,3.7.0.I20110602-0100,"org.eclipse.ui.edit.text.contentAssist.proposals",1356399667519
executed,command,org.eclipse.ui,3.7.0.I20110602-0100,"org.eclipse.ui.edit.text.contentAssist.proposals",1356399695006
executed,command,org.eclipse.ui,3.7.0.I20110602-0100,"org.eclipse.ui.edit.text.contentAssist.proposals",1356399709670
executed,command,org.eclipse.ui,3.7.0.I20110602-0100,"org.eclipse.ui.edit.text.contentAssist.proposals",1356399714959
executed,command,org.eclipse.ui,3.7.0.I20110602-0100,"org.eclipse.ui.edit.text.contentAssist.proposals",1356399722759
executed,command,org.eclipse.ui,3.7.0.I20110602-0100,"org.eclipse.ui.edit.text.contentAssist.proposals",1356399740480
executed,command,org.eclipse.ui,3.7.0.I20110602-0100,"org.eclipse.ui.edit.text.contentAssist.proposals",1356399756626
executed,command,org.eclipse.ui,3.7.0.I20110602-0100,"org.eclipse.ui.edit.text.contentAssist.proposals",1356399771088
executed,command,org.eclipse.ui,3.7.0.I20110602-0100,"org.eclipse.ui.edit.text.contentAssist.proposals",1356399787936
executed,command,org.eclipse.ui,3.7.0.I20110602-0100,"org.eclipse.ui.edit.text.contentAssist.proposals",1356399800853
executed,command,org.eclipse.ui,3.7.0.I20110602-0100,"org.eclipse.ui.edit.text.contentAssist.proposals",1356399813707
executed,command,org.eclipse.ui,3.7.0.I20110602-0100,"org.eclipse.ui.edit.text.contentAssist.proposals",1356399828090
executed,command,org.eclipse.ui,3.7.0.I20110602-0100,"org.eclipse.ui.edit.text.contentAssist.proposals",1356399842661
executed,command,org.eclipse.ui,3.7.0.I20110602-0100,"org.eclipse.ui.edit.text.contentAssist.proposals",1356399851865
executed,command,org.eclipse.ui,3.7.0.I20110602-0100,"org.eclipse.ui.file.save",1356399863362
error,log,,,"Core exception while retrieving the content description",1356399864501
error,log,,,"Core exception while retrieving the content description",1356399864501
error,log,,,"Core exception while retrieving the content description",1356399864516
error,log,,,"Core exception while retrieving the content description",1356399864516
error,log,,,"Core exception while retrieving the content description",1356399864516
error,log,,,"Core exception while retrieving the content description",1356399865249
error,log,,,"Core exception while retrieving the content description",1356399865265
error,log,,,"Core exception while retrieving the content description",1356399865265
error,log,,,"Core exception while retrieving the content description",1356399865265
error,log,,,"Core exception while retrieving the content description",1356399865281
activated,view,org.eclipse.ui.console,3.5.100.v20110511,"org.eclipse.ui.console.ConsoleView",1356399872801
activated,editor,org.eclipse.jdt.ui,3.7.1.r371_v20110824-0800,"org.eclipse.jdt.ui.CompilationUnitEditor",1356399873863
executed,command,org.eclipse.ui,3.7.0.I20110602-0100,"org.eclipse.ui.file.save",1356399876936
error,log,,,"Core exception while retrieving the content description",1356399877997
error,log,,,"Core exception while retrieving the content description",1356399877997
error,log,,,"Core exception while retrieving the content description",1356399878012
error,log,,,"Core exception while retrieving the content description",1356399878012
error,log,,,"Core exception while retrieving the content description",1356399878012
error,log,,,"Core exception while retrieving the content description",1356399878792
error,log,,,"Core exception while retrieving the content description",1356399878808
error,log,,,"Core exception while retrieving the content description",1356399878808
error,log,,,"Core exception while retrieving the content description",1356399878808
error,log,,,"Core exception while retrieving the content description",1356399878823
activated,view,org.eclipse.ui.console,3.5.100.v20110511,"org.eclipse.ui.console.ConsoleView",1356399884862
activated,editor,org.eclipse.jdt.ui,3.7.1.r371_v20110824-0800,"org.eclipse.jdt.ui.CompilationUnitEditor",1356399922162
activated,editor,org.eclipse.wst.xml.ui,1.1.201.v201108151912,"org.eclipse.wst.xml.ui.internal.tabletree.XMLMultiPageEditorPart",1356399936577
executed,command,org.eclipse.ui,3.7.0.I20110602-0100,"org.eclipse.ui.edit.copy",1356399942520
executed,command,org.eclipse.ui,3.7.0.I20110602-0100,"org.eclipse.ui.edit.paste",1356399947341
error,log,,,"Core exception while retrieving the content description",1356399978400
error,log,,,"Core exception while retrieving the content description",1356399978400
executed,command,org.eclipse.ui,3.7.0.I20110602-0100,"org.eclipse.ui.file.save",1356399978447
error,log,,,"Core exception while retrieving the content description",1356399978666
error,log,,,"Core exception while retrieving the content description",1356399978681
error,log,,,"Core exception while retrieving the content description",1356399979118
error,log,,,"Core exception while retrieving the content description",1356399979118
error,log,,,"Core exception while retrieving the content description",1356399979134
error,log,,,"Core exception while retrieving the content description",1356399979134
error,log,,,"Core exception while retrieving the content description",1356399979134
error,log,,,"Core exception while retrieving the content description",1356399980912
error,log,,,"Core exception while retrieving the content description",1356399980912
error,log,,,"Core exception while retrieving the content description",1356399980928
error,log,,,"Core exception while retrieving the content description",1356399980928
error,log,,,"Core exception while retrieving the content description",1356399980928
activated,view,org.eclipse.ui.navigator.resources,3.4.300.I20110421-1800,"org.eclipse.ui.navigator.ProjectExplorer",1356399990974
activated,editor,org.eclipse.wst.xml.ui,1.1.201.v201108151912,"org.eclipse.wst.xml.ui.internal.tabletree.XMLMultiPageEditorPart",1356399994874
executed,command,org.eclipse.ui,3.7.0.I20110602-0100,"org.eclipse.ui.edit.copy",1356399996793
executed,command,org.eclipse.ui,3.7.0.I20110602-0100,"org.eclipse.ui.edit.copy",1356399998322
activated,view,org.eclipse.ui.navigator.resources,3.4.300.I20110421-1800,"org.eclipse.ui.navigator.ProjectExplorer",1356399999351
deactivated,workbench,org.eclipse.ui.workbench,3.7.0.I20110519-0100,"",1356400001894
executed,command,org.eclipse.ui,3.7.0.I20110602-0100,"org.eclipse.ui.edit.paste",1356400003517
error,log,,,"Core exception while retrieving the content description",1356400005545
error,log,,,"Core exception while retrieving the content description",1356400005591
activated,workbench,org.eclipse.ui.workbench,3.7.0.I20110519-0100,"",1356400005685
opened,editor,org.eclipse.jst.jsp.ui,1.1.601.v201108151912,"org.eclipse.jst.jsp.core.jspsource.source",1356400006247
activated,editor,org.eclipse.jst.jsp.ui,1.1.601.v201108151912,"org.eclipse.jst.jsp.core.jspsource.source",1356400006403
error,log,,,"Core exception while retrieving the content description",1356400008306
error,log,,,"Core exception while retrieving the content description",1356400008306
error,log,,,"Core exception while retrieving the content description",1356400008306
error,log,,,"Core exception while retrieving the content description",1356400008321
error,log,,,"Core exception while retrieving the content description",1356400008321
activated,view,org.eclipse.ui.navigator.resources,3.4.300.I20110421-1800,"org.eclipse.ui.navigator.ProjectExplorer",1356400011644
activated,editor,org.eclipse.jst.jsp.ui,1.1.601.v201108151912,"org.eclipse.jst.jsp.core.jspsource.source",1356400011925
executed,command,org.eclipse.ui,3.7.0.I20110602-0100,"org.eclipse.ui.edit.copy",1356400031612
activated,editor,org.eclipse.jst.jsp.ui,1.1.601.v201108151912,"org.eclipse.jst.jsp.core.jspsource.source",1356400032829
executed,command,org.eclipse.ui,3.7.0.I20110602-0100,"org.eclipse.ui.edit.paste",1356400038991
executed,command,org.eclipse.ui,3.7.0.I20110602-0100,"org.eclipse.ui.file.save",1356400041425
error,log,,,"Core exception while retrieving the content description",1356400043437
error,log,,,"Core exception while retrieving the content description",1356400043437
error,log,,,"Core exception while retrieving the content description",1356400043437
error,log,,,"Core exception while retrieving the content description",1356400043453
error,log,,,"Core exception while retrieving the content description",1356400043453
executed,command,org.eclipse.ui,3.7.0.I20110602-0100,"org.eclipse.ui.file.save",1356400044701
error,log,,,"Core exception while retrieving the content description",1356400046635
error,log,,,"Core exception while retrieving the content description",1356400046635
error,log,,,"Core exception while retrieving the content description",1356400046635
error,log,,,"Core exception while retrieving the content description",1356400046635
error,log,,,"Core exception while retrieving the content description",1356400046651
activated,editor,org.eclipse.jdt.ui,3.7.1.r371_v20110824-0800,"org.eclipse.jdt.ui.CompilationUnitEditor",1356400047243
activated,editor,org.eclipse.jst.jsp.ui,1.1.601.v201108151912,"org.eclipse.jst.jsp.core.jspsource.source",1356400049755
closed,editor,org.eclipse.jdt.ui,3.7.1.r371_v20110824-0800,"org.eclipse.jdt.ui.CompilationUnitEditor",1356400049755
closed,editor,org.eclipse.jdt.ui,3.7.1.r371_v20110824-0800,"org.eclipse.jdt.ui.CompilationUnitEditor",1356400051268
closed,editor,org.eclipse.jdt.ui,3.7.1.r371_v20110824-0800,"org.eclipse.jdt.ui.CompilationUnitEditor",1356400052750
closed,editor,org.eclipse.jdt.ui,3.7.1.r371_v20110824-0800,"org.eclipse.jdt.ui.CompilationUnitEditor",1356400054029
closed,editor,org.eclipse.wst.xml.ui,1.1.201.v201108151912,"org.eclipse.wst.xml.ui.internal.tabletree.XMLMultiPageEditorPart",1356400055168
closed,editor,org.eclipse.wst.xml.ui,1.1.201.v201108151912,"org.eclipse.wst.xml.ui.internal.tabletree.XMLMultiPageEditorPart",1356400056151
closed,editor,org.eclipse.jdt.ui,3.7.1.r371_v20110824-0800,"org.eclipse.jdt.ui.CompilationUnitEditor",1356400057321
closed,editor,org.eclipse.jdt.ui,3.7.1.r371_v20110824-0800,"org.eclipse.jdt.ui.CompilationUnitEditor",1356400058288
closed,editor,org.eclipse.jdt.ui,3.7.1.r371_v20110824-0800,"org.eclipse.jdt.ui.CompilationUnitEditor",1356400062875
closed,editor,org.eclipse.jst.jsp.ui,1.1.601.v201108151912,"org.eclipse.jst.jsp.core.jspsource.source",1356400063795
