[backblue.gif]
[fade.gif]
[index.html]
[creativecommons.org/images/public/somerights20.gif]
[www.stat.tamu.edu/_dahl/teaching/605/1.20/shell-tutorial/html/index.html]
[www.stat.tamu.edu/_dahl/teaching/605/1.20/shell-tutorial/html/unixtut1.css]
[www.stat.tamu.edu/_dahl/teaching/605/1.20/shell-tutorial/html/media/home.gif]
[www.stat.tamu.edu/_dahl/teaching/605/1.20/shell-tutorial/html/unix0.html]
[www.stat.tamu.edu/_dahl/teaching/605/1.20/shell-tutorial/html/media/right.gif]
[www.stat.tamu.edu/_dahl/teaching/605/1.20/shell-tutorial/html/media/tree.gif]
[www.stat.tamu.edu/_dahl/teaching/605/1.20/shell-tutorial/html/media/desktop.png]
[www.stat.tamu.edu/_dahl/teaching/605/1.20/shell-tutorial/html/media/konsole.png]
[www.stat.tamu.edu/_dahl/teaching/605/1.20/shell-tutorial/html/media/left.gif]
[www.stat.tamu.edu/_dahl/teaching/605/1.20/shell-tutorial/html/unixintro.html]
[www.stat.tamu.edu/_dahl/teaching/605/1.20/shell-tutorial/html/unix1.html]
[www.stat.tamu.edu/_dahl/teaching/605/1.20/shell-tutorial/html/science.txt]
[www.stat.tamu.edu/_dahl/teaching/605/1.20/shell-tutorial/html/unix2.html]
[www.stat.tamu.edu/_dahl/teaching/605/1.20/shell-tutorial/html/unix3.html]
[www.stat.tamu.edu/_dahl/teaching/605/1.20/shell-tutorial/html/unix4.html]
[www.stat.tamu.edu/_dahl/teaching/605/1.20/shell-tutorial/html/media/file1.gif]
[www.stat.tamu.edu/_dahl/teaching/605/1.20/shell-tutorial/html/unix5.html]
[www.stat.tamu.edu/_dahl/teaching/605/1.20/shell-tutorial/html/unix6.html]
[www.stat.tamu.edu/_dahl/teaching/605/1.20/shell-tutorial/html/units-1.74.tar.gz]
[www.stat.tamu.edu/_dahl/teaching/605/1.20/shell-tutorial/html/unix7.html]
[www.stat.tamu.edu/_dahl/teaching/605/1.20/shell-tutorial/html/unix8.html]
[www.stat.tamu.edu/_dahl/teaching/605/1.20/shell-tutorial/html/pipeanswer.html]
