<?xml version="1.0" encoding="UTF-8"?>
<session version="1.0">
<refactoring accessors="true" comment="Delete element from project &apos;RMIChattingProject&apos;&#x0D;&#x0A;- Original project: &apos;RMIChattingProject&apos;&#x0D;&#x0A;- Original element: &apos;RmiService.java&apos;" description="Delete element" element1="/src&lt;{RmiService.java" elements="1" flags="589830" id="org.eclipse.jdt.ui.delete" resources="0" stamp="1357838064733" subPackages="false" version="1.0"/>
</session>